fpga_projects/project3/projeto_alf/simulation/qsim/projeto_alf.msim.vcd
$comment
	File created using the following command:
		vcd file projeto_alf.msim.vcd -direction
$end
$date
	Sun Sep 10 18:02:49 2023
$end
$version
	ModelSim Version 10.5b
$end
$timescale
	1ps
$end

$scope module seven_segment_display_vlg_vec_tst $end
$var reg 3 ! x [2:0] $end
$var reg 3 " y [2:0] $end
$var wire 1 # s0 [2] $end
$var wire 1 $ s0 [1] $end
$var wire 1 % s0 [0] $end
$var wire 1 & s1 [2] $end
$var wire 1 ' s1 [1] $end
$var wire 1 ( s1 [0] $end
$var wire 1 ) s2 [2] $end
$var wire 1 * s2 [1] $end
$var wire 1 + s2 [0] $end
$var wire 1 , s3 [2] $end
$var wire 1 - s3 [1] $end
$var wire 1 . s3 [0] $end
$var wire 1 / s4 [2] $end
$var wire 1 0 s4 [1] $end
$var wire 1 1 s4 [0] $end
$var wire 1 2 s5 [2] $end
$var wire 1 3 s5 [1] $end
$var wire 1 4 s5 [0] $end
$var wire 1 5 s6 [2] $end
$var wire 1 6 s6 [1] $end
$var wire 1 7 s6 [0] $end

$scope module i1 $end
$var wire 1 8 gnd $end
$var wire 1 9 vcc $end
$var wire 1 : unknown $end
$var tri1 1 ; devclrn $end
$var tri1 1 < devpor $end
$var tri1 1 = devoe $end
$var wire 1 > s0[2]~output_o $end
$var wire 1 ? s0[1]~output_o $end
$var wire 1 @ s0[0]~output_o $end
$var wire 1 A s1[2]~output_o $end
$var wire 1 B s1[1]~output_o $end
$var wire 1 C s1[0]~output_o $end
$var wire 1 D s2[2]~output_o $end
$var wire 1 E s2[1]~output_o $end
$var wire 1 F s2[0]~output_o $end
$var wire 1 G s3[2]~output_o $end
$var wire 1 H s3[1]~output_o $end
$var wire 1 I s3[0]~output_o $end
$var wire 1 J s4[2]~output_o $end
$var wire 1 K s4[1]~output_o $end
$var wire 1 L s4[0]~output_o $end
$var wire 1 M s5[2]~output_o $end
$var wire 1 N s5[1]~output_o $end
$var wire 1 O s5[0]~output_o $end
$var wire 1 P s6[2]~output_o $end
$var wire 1 Q s6[1]~output_o $end
$var wire 1 R s6[0]~output_o $end
$var wire 1 S y[2]~input_o $end
$var wire 1 T y[1]~input_o $end
$var wire 1 U y[0]~input_o $end
$var wire 1 V x[2]~input_o $end
$var wire 1 W x[1]~input_o $end
$var wire 1 X x[0]~input_o $end
$var wire 1 Y inst2|inst5~combout $end
$var wire 1 Z inst1|inst5~combout $end
$var wire 1 [ inst|inst5~combout $end
$var wire 1 \ inst2|inst3~combout $end
$var wire 1 ] inst1|inst3~combout $end
$var wire 1 ^ inst|inst3~combout $end
$upscope $end
$upscope $end
$enddefinitions $end
#0
$dumpvars
b0 !
b0 "
0%
0$
0#
0(
0'
0&
0+
0*
0)
0.
0-
0,
01
00
0/
04
03
02
17
16
15
08
19
x:
1;
1<
1=
0>
0?
0@
0A
0B
0C
0D
0E
0F
0G
0H
0I
0J
0K
0L
0M
0N
0O
1P
1Q
1R
0S
0T
0U
0V
0W
0X
0Y
0Z
0[
0\
0]
0^
$end
#10000
b1 "
1U
1@
1C
1F
1+
1(
1%
#20000
b1 !
b0 "
0U
1X
1I
0@
0C
0F
1^
0+
0(
0%
1.
0R
07
#30000
b1 "
1U
1@
1C
1F
0^
1+
1(
1%
1[
1L
1O
1R
17
14
11
#40000
b11 "
b0 !
b10 "
0X
0U
1T
1?
1B
1E
0@
0C
0F
0I
0.
0+
0(
0%
1*
1'
1$
0[
0L
0O
04
01
#50000
b11 "
1U
1@
1C
1F
1+
1(
1%
#60000
b1 !
b10 "
0U
1X
1I
0@
0C
0F
1^
0+
0(
0%
1.
0R
07
#70000
b11 "
1U
1@
1C
1F
0^
1+
1(
1%
1[
1L
1O
1R
17
14
11
#80000
b11 !
b1 "
b10 !
b0 "
0U
0T
0X
1W
1H
0I
0?
0B
0E
0@
0C
0F
1]
0+
0(
0%
0*
0'
0$
0.
1-
0[
0L
0O
0Q
06
04
01
#90000
b1 "
1U
1@
1C
1F
1+
1(
1%
#100000
b11 !
b0 "
0U
1X
1I
0@
0C
0F
1^
0+
0(
0%
1.
0R
07
#110000
b1 "
1U
1@
1C
1F
0^
1+
1(
1%
1[
1L
1O
1R
17
14
11
#120000
b11 "
b10 !
b10 "
0X
0U
1T
1?
1B
1E
0@
0C
0F
0I
0]
0.
0+
0(
0%
1*
1'
1$
0[
1Z
1K
1N
0L
0O
1Q
16
04
01
13
10
#130000
b11 "
1U
1@
1C
1F
1+
1(
1%
#140000
b11 !
b10 "
0U
1X
1I
0@
0C
0F
1^
0+
0(
0%
1.
0R
07
#150000
b11 "
1U
1@
1C
1F
0^
1+
1(
1%
1[
1L
1O
1R
17
14
11
#160000
b111 "
b1 !
b101 "
b0 !
b100 "
0X
0W
0U
0T
1S
1>
1A
1D
0?
0B
0E
0@
0C
0F
0H
0I
0.
0-
0+
0(
0%
0*
0'
0$
1)
1&
1#
0[
0Z
0K
0N
0L
0O
04
01
03
00
#170000
b101 "
1U
1@
1C
1F
1+
1(
1%
#180000
b1 !
b100 "
0U
1X
1I
0@
0C
0F
1^
0+
0(
0%
1.
0R
07
#190000
b101 "
1U
1@
1C
1F
0^
1+
1(
1%
1[
1L
1O
1R
17
14
11
#200000
b111 "
b0 !
b110 "
0X
0U
1T
1?
1B
1E
0@
0C
0F
0I
0.
0+
0(
0%
1*
1'
1$
0[
0L
0O
04
01
#210000
b111 "
1U
1@
1C
1F
1+
1(
1%
#220000
b1 !
b110 "
0U
1X
1I
0@
0C
0F
1^
0+
0(
0%
1.
0R
07
#230000
b111 "
1U
1@
1C
1F
0^
1+
1(
1%
1[
1L
1O
1R
17
14
11
#240000
b11 !
b101 "
b10 !
b100 "
0U
0T
0X
1W
1H
0I
0?
0B
0E
0@
0C
0F
1]
0+
0(
0%
0*
0'
0$
0.
1-
0[
0L
0O
0Q
06
04
01
#250000
b101 "
1U
1@
1C
1F
1+
1(
1%
#260000
b11 !
b100 "
0U
1X
1I
0@
0C
0F
1^
0+
0(
0%
1.
0R
07
#270000
b101 "
1U
1@
1C
1F
0^
1+
1(
1%
1[
1L
1O
1R
17
14
11
#280000
b111 "
b10 !
b110 "
0X
0U
1T
1?
1B
1E
0@
0C
0F
0I
0]
0.
0+
0(
0%
1*
1'
1$
0[
1Z
1K
1N
0L
0O
1Q
16
04
01
13
10
#290000
b111 "
1U
1@
1C
1F
1+
1(
1%
#300000
b11 !
b110 "
0U
1X
1I
0@
0C
0F
1^
0+
0(
0%
1.
0R
07
#310000
b111 "
1U
1@
1C
1F
0^
1+
1(
1%
1[
1L
1O
1R
17
14
11
#320000
b111 !
b11 "
b101 !
b1 "
b100 !
b0 "
0U
0T
0S
0X
0W
1V
1G
0H
0I
0>
0A
0D
0?
0B
0E
0@
0C
0F
1\
0+
0(
0%
0*
0'
0$
0)
0&
0#
0.
0-
1,
0[
0Z
0K
0N
0L
0O
0P
05
04
01
03
00
#330000
b1 "
1U
1@
1C
1F
1+
1(
1%
#340000
b101 !
b0 "
0U
1X
1I
0@
0C
0F
1^
0+
0(
0%
1.
0R
07
#350000
b1 "
1U
1@
1C
1F
0^
1+
1(
1%
1[
1L
1O
1R
17
14
11
#360000
b11 "
b100 !
b10 "
0X
0U
1T
1?
1B
1E
0@
0C
0F
0I
0.
0+
0(
0%
1*
1'
1$
0[
0L
0O
04
01
#370000
b11 "
1U
1@
1C
1F
1+
1(
1%
#380000
b101 !
b10 "
0U
1X
1I
0@
0C
0F
1^
0+
0(
0%
1.
0R
07
#390000
b11 "
1U
1@
1C
1F
0^
1+
1(
1%
1[
1L
1O
1R
17
14
11
#400000
b111 !
b1 "
b110 !
b0 "
0U
0T
0X
1W
1H
0I
0?
0B
0E
0@
0C
0F
1]
0+
0(
0%
0*
0'
0$
0.
1-
0[
0L
0O
0Q
06
04
01
#410000
b1 "
1U
1@
1C
1F
1+
1(
1%
#420000
b111 !
b0 "
0U
1X
1I
0@
0C
0F
1^
0+
0(
0%
1.
0R
07
#430000
b1 "
1U
1@
1C
1F
0^
1+
1(
1%
1[
1L
1O
1R
17
14
11
#440000
b11 "
b110 !
b10 "
0X
0U
1T
1?
1B
1E
0@
0C
0F
0I
0]
0.
0+
0(
0%
1*
1'
1$
0[
1Z
1K
1N
0L
0O
1Q
16
04
01
13
10
#450000
b11 "
1U
1@
1C
1F
1+
1(
1%
#460000
b111 !
b10 "
0U
1X
1I
0@
0C
0F
1^
0+
0(
0%
1.
0R
07
#470000
b11 "
1U
1@
1C
1F
0^
1+
1(
1%
1[
1L
1O
1R
17
14
11
#480000
b111 "
b101 !
b101 "
b100 !
b100 "
0X
0W
0U
0T
1S
1>
1A
1D
0?
0B
0E
0@
0C
0F
0H
0I
0\
0.
0-
0+
0(
0%
0*
0'
0$
1)
1&
1#
0[
0Z
1Y
1J
1M
0K
0N
0L
0O
1P
15
04
01
03
00
12
1/
#490000
b101 "
1U
1@
1C
1F
1+
1(
1%
#500000
b101 !
b100 "
0U
1X
1I
0@
0C
0F
1^
0+
0(
0%
1.
0R
07
#510000
b101 "
1U
1@
1C
1F
0^
1+
1(
1%
1[
1L
1O
1R
17
14
11
#520000
b111 "
b100 !
b110 "
0X
0U
1T
1?
1B
1E
0@
0C
0F
0I
0.
0+
0(
0%
1*
1'
1$
0[
0L
0O
04
01
#530000
b111 "
1U
1@
1C
1F
1+
1(
1%
#540000
b101 !
b110 "
0U
1X
1I
0@
0C
0F
1^
0+
0(
0%
1.
0R
07
#550000
b111 "
1U
1@
1C
1F
0^
1+
1(
1%
1[
1L
1O
1R
17
14
11
#560000
b111 !
b101 "
b110 !
b100 "
0U
0T
0X
1W
1H
0I
0?
0B
0E
0@
0C
0F
1]
0+
0(
0%
0*
0'
0$
0.
1-
0[
0L
0O
0Q
06
04
01
#570000
b101 "
1U
1@
1C
1F
1+
1(
1%
#580000
b111 !
b100 "
0U
1X
1I
0@
0C
0F
1^
0+
0(
0%
1.
0R
07
#590000
b101 "
1U
1@
1C
1F
0^
1+
1(
1%
1[
1L
1O
1R
17
14
11
#600000
b111 "
b110 !
b110 "
0X
0U
1T
1?
1B
1E
0@
0C
0F
0I
0]
0.
0+
0(
0%
1*
1'
1$
0[
1Z
1K
1N
0L
0O
1Q
16
04
01
13
10
#610000
b111 "
1U
1@
1C
1F
1+
1(
1%
#620000
b111 !
b110 "
0U
1X
1I
0@
0C
0F
1^
0+
0(
0%
1.
0R
07
#630000
b111 "
1U
1@
1C
1F
0^
1+
1(
1%
1[
1L
1O
1R
17
14
11
#640000
b11 !
b11 "
b1 !
b1 "
b0 !
b0 "
0U
0T
0S
0X
0W
0V
0G
0H
0I
0>
0A
0D
0?
0B
0E
0@
0C
0F
0+
0(
0%
0*
0'
0$
0)
0&
0#
0.
0-
0,
0[
0Z
0Y
0J
0M
0K
0N
0L
0O
04
01
03
00
02
0/
#650000
b1 "
1U
1@
1C
1F
1+
1(
1%
#660000
b1 !
b0 "
0U
1X
1I
0@
0C
0F
1^
0+
0(
0%
1.
0R
07
#670000
b1 "
1U
1@
1C
1F
0^
1+
1(
1%
1[
1L
1O
1R
17
14
11
#680000
b11 "
b0 !
b10 "
0X
0U
1T
1?
1B
1E
0@
0C
0F
0I
0.
0+
0(
0%
1*
1'
1$
0[
0L
0O
04
01
#690000
b11 "
1U
1@
1C
1F
1+
1(
1%
#700000
b1 !
b10 "
0U
1X
1I
0@
0C
0F
1^
0+
0(
0%
1.
0R
07
#710000
b11 "
1U
1@
1C
1F
0^
1+
1(
1%
1[
1L
1O
1R
17
14
11
#720000
b11 !
b1 "
b10 !
b0 "
0U
0T
0X
1W
1H
0I
0?
0B
0E
0@
0C
0F
1]
0+
0(
0%
0*
0'
0$
0.
1-
0[
0L
0O
0Q
06
04
01
#730000
b1 "
1U
1@
1C
1F
1+
1(
1%
#740000
b11 !
b0 "
0U
1X
1I
0@
0C
0F
1^
0+
0(
0%
1.
0R
07
#750000
b1 "
1U
1@
1C
1F
0^
1+
1(
1%
1[
1L
1O
1R
17
14
11
#760000
b11 "
b10 !
b10 "
0X
0U
1T
1?
1B
1E
0@
0C
0F
0I
0]
0.
0+
0(
0%
1*
1'
1$
0[
1Z
1K
1N
0L
0O
1Q
16
04
01
13
10
#770000
b11 "
1U
1@
1C
1F
1+
1(
1%
#780000
b11 !
b10 "
0U
1X
1I
0@
0C
0F
1^
0+
0(
0%
1.
0R
07
#790000
b11 "
1U
1@
1C
1F
0^
1+
1(
1%
1[
1L
1O
1R
17
14
11
#800000
b111 "
b1 !
b101 "
b0 !
b100 "
0X
0W
0U
0T
1S
1>
1A
1D
0?
0B
0E
0@
0C
0F
0H
0I
0.
0-
0+
0(
0%
0*
0'
0$
1)
1&
1#
0[
0Z
0K
0N
0L
0O
04
01
03
00
#810000
b101 "
1U
1@
1C
1F
1+
1(
1%
#820000
b1 !
b100 "
0U
1X
1I
0@
0C
0F
1^
0+
0(
0%
1.
0R
07
#830000
b101 "
1U
1@
1C
1F
0^
1+
1(
1%
1[
1L
1O
1R
17
14
11
#840000
b111 "
b0 !
b110 "
0X
0U
1T
1?
1B
1E
0@
0C
0F
0I
0.
0+
0(
0%
1*
1'
1$
0[
0L
0O
04
01
#850000
b111 "
1U
1@
1C
1F
1+
1(
1%
#860000
b1 !
b110 "
0U
1X
1I
0@
0C
0F
1^
0+
0(
0%
1.
0R
07
#870000
b111 "
1U
1@
1C
1F
0^
1+
1(
1%
1[
1L
1O
1R
17
14
11
#880000
b11 !
b101 "
b10 !
b100 "
0U
0T
0X
1W
1H
0I
0?
0B
0E
0@
0C
0F
1]
0+
0(
0%
0*
0'
0$
0.
1-
0[
0L
0O
0Q
06
04
01
#890000
b101 "
1U
1@
1C
1F
1+
1(
1%
#900000
b11 !
b100 "
0U
1X
1I
0@
0C
0F
1^
0+
0(
0%
1.
0R
07
#910000
b101 "
1U
1@
1C
1F
0^
1+
1(
1%
1[
1L
1O
1R
17
14
11
#920000
b111 "
b10 !
b110 "
0X
0U
1T
1?
1B
1E
0@
0C
0F
0I
0]
0.
0+
0(
0%
1*
1'
1$
0[
1Z
1K
1N
0L
0O
1Q
16
04
01
13
10
#930000
b111 "
1U
1@
1C
1F
1+
1(
1%
#940000
b11 !
b110 "
0U
1X
1I
0@
0C
0F
1^
0+
0(
0%
1.
0R
07
#950000
b111 "
1U
1@
1C
1F
0^
1+
1(
1%
1[
1L
1O
1R
17
14
11
#960000
b111 !
b11 "
b101 !
b1 "
b100 !
b0 "
0U
0T
0S
0X
0W
1V
1G
0H
0I
0>
0A
0D
0?
0B
0E
0@
0C
0F
1\
0+
0(
0%
0*
0'
0$
0)
0&
0#
0.
0-
1,
0[
0Z
0K
0N
0L
0O
0P
05
04
01
03
00
#970000
b1 "
1U
1@
1C
1F
1+
1(
1%
#980000
b101 !
b0 "
0U
1X
1I
0@
0C
0F
1^
0+
0(
0%
1.
0R
07
#990000
b1 "
1U
1@
1C
1F
0^
1+
1(
1%
1[
1L
1O
1R
17
14
11
