fpga_projects/project3/Display_7_Segmentos/simulation/qsim/Display_7_Segmentos.msim.vcd
$comment
	File created using the following command:
		vcd file Display_7_Segmentos.msim.vcd -direction
$end
$date
	Sun Sep 10 15:59:08 2023
$end
$version
	ModelSim Version 10.5b
$end
$timescale
	1ps
$end

$scope module Display_7_Segmentos_vlg_vec_tst $end
$var reg 1 ! W_a $end
$var reg 1 " X_b $end
$var reg 1 # Y_c $end
$var reg 1 $ Z_d $end
$var wire 1 % OUT_A $end
$var wire 1 & OUT_B $end
$var wire 1 ' OUT_C $end
$var wire 1 ( OUT_D $end
$var wire 1 ) OUT_E $end
$var wire 1 * OUT_F $end
$var wire 1 + OUT_G $end

$scope module i1 $end
$var wire 1 , gnd $end
$var wire 1 - vcc $end
$var wire 1 . unknown $end
$var tri1 1 / devclrn $end
$var tri1 1 0 devpor $end
$var tri1 1 1 devoe $end
$var wire 1 2 OUT_A~output_o $end
$var wire 1 3 OUT_B~output_o $end
$var wire 1 4 OUT_C~output_o $end
$var wire 1 5 OUT_D~output_o $end
$var wire 1 6 OUT_E~output_o $end
$var wire 1 7 OUT_F~output_o $end
$var wire 1 8 OUT_G~output_o $end
$var wire 1 9 X_b~input_o $end
$var wire 1 : Y_c~input_o $end
$var wire 1 ; Z_d~input_o $end
$var wire 1 < W_a~input_o $end
$var wire 1 = t_a~combout $end
$var wire 1 > t_b~combout $end
$var wire 1 ? t_c~combout $end
$var wire 1 @ inst1~0_combout $end
$var wire 1 A inst5~0_combout $end
$var wire 1 B inst6~0_combout $end
$var wire 1 C inst7~0_combout $end
$upscope $end
$upscope $end
$enddefinitions $end
#0
$dumpvars
0!
0"
0#
0$
1%
1&
1'
1(
1)
1*
0+
0,
1-
x.
1/
10
11
12
13
14
15
16
17
08
09
0:
0;
0<
1=
1>
1?
1@
1A
1B
0C
$end
#10000
1$
1;
0B
0A
0@
0=
02
05
06
07
0*
0)
0(
0%
#20000
1#
0$
1:
0;
1C
1A
1@
0?
1=
12
04
15
16
18
1+
1)
1(
0'
1%
#30000
1$
1;
0A
1?
14
06
0)
1'
#40000
1"
0#
0$
19
0:
0;
1B
0@
0=
02
05
17
1*
0(
0%
#50000
1$
1;
1@
0>
1=
12
03
15
1(
0&
1%
#60000
1#
0$
1:
0;
1A
16
1)
#70000
1$
1;
0C
0B
0A
0@
1>
13
05
06
07
08
0+
0*
0)
0(
1&
#80000
1!
0"
0#
0$
1<
09
0:
0;
1C
1B
1@
1A
16
15
17
18
1+
1*
1(
1)
#90000
1$
1;
0A
06
0)
#100000
1#
0$
1:
0;
1A
0?
04
16
1)
0'
#110000
1$
1;
0A
1?
14
06
0)
1'
#120000
1"
0#
0$
19
0:
0;
#130000
1$
1;
0>
03
0&
#140000
1#
0$
1:
0;
1A
16
1)
#150000
1$
1;
0A
1>
13
06
0)
1&
#160000
0!
0"
0#
0$
0<
09
0:
0;
0C
1A
16
08
0+
1)
#170000
1$
1;
0B
0A
0@
0=
02
05
06
07
0*
0)
0(
0%
#180000
1#
0$
1:
0;
1C
1A
1@
0?
1=
12
04
15
16
18
1+
1)
1(
0'
1%
#190000
1$
1;
0A
1?
14
06
0)
1'
#200000
1"
0#
0$
19
0:
0;
1B
0@
0=
02
05
17
1*
0(
0%
#210000
1$
1;
1@
0>
1=
12
03
15
1(
0&
1%
#220000
1#
0$
1:
0;
1A
16
1)
#230000
1$
1;
0C
0B
0A
0@
1>
13
05
06
07
08
0+
0*
0)
0(
1&
#240000
1!
0"
0#
0$
1<
09
0:
0;
1C
1B
1@
1A
16
15
17
18
1+
1*
1(
1)
#250000
1$
1;
0A
06
0)
#260000
1#
0$
1:
0;
1A
0?
04
16
1)
0'
#270000
1$
1;
0A
1?
14
06
0)
1'
#280000
1"
0#
0$
19
0:
0;
#290000
1$
1;
0>
03
0&
#300000
1#
0$
1:
0;
1A
16
1)
#310000
1$
1;
0A
1>
13
06
0)
1&
#320000
0!
0"
0#
0$
0<
09
0:
0;
0C
1A
16
08
0+
1)
#330000
1$
1;
0B
0A
0@
0=
02
05
06
07
0*
0)
0(
0%
#340000
1#
0$
1:
0;
1C
1A
1@
0?
1=
12
04
15
16
18
1+
1)
1(
0'
1%
#350000
1$
1;
0A
1?
14
06
0)
1'
#360000
1"
0#
0$
19
0:
0;
1B
0@
0=
02
05
17
1*
0(
0%
#370000
1$
1;
1@
0>
1=
12
03
15
1(
0&
1%
#380000
1#
0$
1:
0;
1A
16
1)
#390000
1$
1;
0C
0B
0A
0@
1>
13
05
06
07
08
0+
0*
0)
0(
1&
#400000
1!
0"
0#
0$
1<
09
0:
0;
1C
1B
1@
1A
16
15
17
18
1+
1*
1(
1)
#410000
1$
1;
0A
06
0)
#420000
1#
0$
1:
0;
1A
0?
04
16
1)
0'
#430000
1$
1;
0A
1?
14
06
0)
1'
#440000
1"
0#
0$
19
0:
0;
#450000
1$
1;
0>
03
0&
#460000
1#
0$
1:
0;
1A
16
1)
#470000
1$
1;
0A
1>
13
06
0)
1&
#480000
0!
0"
0#
0$
0<
09
0:
0;
0C
1A
16
08
0+
1)
#490000
1$
1;
0B
0A
0@
0=
02
05
06
07
0*
0)
0(
0%
#500000
1#
0$
1:
0;
1C
1A
1@
0?
1=
12
04
15
16
18
1+
1)
1(
0'
1%
#510000
1$
1;
0A
1?
14
06
0)
1'
#520000
1"
0#
0$
19
0:
0;
1B
0@
0=
02
05
17
1*
0(
0%
#530000
1$
1;
1@
0>
1=
12
03
15
1(
0&
1%
#540000
1#
0$
1:
0;
1A
16
1)
#550000
1$
1;
0C
0B
0A
0@
1>
13
05
06
07
08
0+
0*
0)
0(
1&
#560000
1!
0"
0#
0$
1<
09
0:
0;
1C
1B
1@
1A
16
15
17
18
1+
1*
1(
1)
#570000
1$
1;
0A
06
0)
#580000
1#
0$
1:
0;
1A
0?
04
16
1)
0'
#590000
1$
1;
0A
1?
14
06
0)
1'
#600000
1"
0#
0$
19
0:
0;
#610000
1$
1;
0>
03
0&
#620000
1#
0$
1:
0;
1A
16
1)
#630000
1$
1;
0A
1>
13
06
0)
1&
#640000
0!
0"
0#
0$
0<
09
0:
0;
0C
1A
16
08
0+
1)
#650000
1$
1;
0B
0A
0@
0=
02
05
06
07
0*
0)
0(
0%
#660000
1#
0$
1:
0;
1C
1A
1@
0?
1=
12
04
15
16
18
1+
1)
1(
0'
1%
#670000
1$
1;
0A
1?
14
06
0)
1'
#680000
1"
0#
0$
19
0:
0;
1B
0@
0=
02
05
17
1*
0(
0%
#690000
1$
1;
1@
0>
1=
12
03
15
1(
0&
1%
#700000
1#
0$
1:
0;
1A
16
1)
#710000
1$
1;
0C
0B
0A
0@
1>
13
05
06
07
08
0+
0*
0)
0(
1&
#720000
1!
0"
0#
0$
1<
09
0:
0;
1C
1B
1@
1A
16
15
17
18
1+
1*
1(
1)
#730000
1$
1;
0A
06
0)
#740000
1#
0$
1:
0;
1A
0?
04
16
1)
0'
#750000
1$
1;
0A
1?
14
06
0)
1'
#760000
1"
0#
0$
19
0:
0;
#770000
1$
1;
0>
03
0&
#780000
1#
0$
1:
0;
1A
16
1)
#790000
1$
1;
0A
1>
13
06
0)
1&
#800000
0!
0"
0#
0$
0<
09
0:
0;
0C
1A
16
08
0+
1)
#810000
1$
1;
0B
0A
0@
0=
02
05
06
07
0*
0)
0(
0%
#820000
1#
0$
1:
0;
1C
1A
1@
0?
1=
12
04
15
16
18
1+
1)
1(
0'
1%
#830000
1$
1;
0A
1?
14
06
0)
1'
#840000
1"
0#
0$
19
0:
0;
1B
0@
0=
02
05
17
1*
0(
0%
#850000
1$
1;
1@
0>
1=
12
03
15
1(
0&
1%
#860000
1#
0$
1:
0;
1A
16
1)
#870000
1$
1;
0C
0B
0A
0@
1>
13
05
06
07
08
0+
0*
0)
0(
1&
#880000
1!
0"
0#
0$
1<
09
0:
0;
1C
1B
1@
1A
16
15
17
18
1+
1*
1(
1)
#890000
1$
1;
0A
06
0)
#900000
1#
0$
1:
0;
1A
0?
04
16
1)
0'
#910000
1$
1;
0A
1?
14
06
0)
1'
#920000
1"
0#
0$
19
0:
0;
#930000
1$
1;
0>
03
0&
#940000
1#
0$
1:
0;
1A
16
1)
#950000
1$
1;
0A
1>
13
06
0)
1&
#960000
0!
0"
0#
0$
0<
09
0:
0;
0C
1A
16
08
0+
1)
#970000
1$
1;
0B
0A
0@
0=
02
05
06
07
0*
0)
0(
0%
#980000
1#
0$
1:
0;
1C
1A
1@
0?
1=
12
04
15
16
18
1+
1)
1(
0'
1%
#990000
1$
1;
0A
1?
14
06
0)
1'
