fpga_projects/project4/threeBitsCounterSync/simulation/qsim/threeBitsCounterSync.msim.vcd
$comment
	File created using the following command:
		vcd file threeBitsCounterSync.msim.vcd -direction
$end
$date
	Tue Sep 19 15:29:50 2023
$end
$version
	ModelSim Version 10.5b
$end
$timescale
	1ps
$end

$scope module threeBitsCounterSync_vlg_vec_tst $end
$var reg 1 ! clock $end
$var reg 1 " resetButton $end
$var wire 1 # a $end
$var wire 1 $ b $end
$var wire 1 % c $end
$var wire 1 & d $end
$var wire 1 ' e $end
$var wire 1 ( f $end
$var wire 1 ) g $end

$scope module i1 $end
$var wire 1 * gnd $end
$var wire 1 + vcc $end
$var wire 1 , unknown $end
$var tri1 1 - devclrn $end
$var tri1 1 . devpor $end
$var tri1 1 / devoe $end
$var wire 1 0 a~output_o $end
$var wire 1 1 b~output_o $end
$var wire 1 2 c~output_o $end
$var wire 1 3 d~output_o $end
$var wire 1 4 e~output_o $end
$var wire 1 5 f~output_o $end
$var wire 1 6 g~output_o $end
$var wire 1 7 clock~input_o $end
$var wire 1 8 inst3~0_combout $end
$var wire 1 9 resetButton~input_o $end
$var wire 1 : inst8~combout $end
$var wire 1 ; inst3~q $end
$var wire 1 < inst1|instD~1_combout $end
$var wire 1 = inst2~q $end
$var wire 1 > inst~0_combout $end
$var wire 1 ? inst~q $end
$var wire 1 @ inst1|instA~0_combout $end
$var wire 1 A inst1|instB~0_combout $end
$var wire 1 B inst1|instC~combout $end
$var wire 1 C inst1|instD~0_combout $end
$var wire 1 D inst1|instE~0_combout $end
$var wire 1 E inst1|instF~0_combout $end
$var wire 1 F inst1|instG~0_combout $end
$upscope $end
$upscope $end
$enddefinitions $end
#0
$dumpvars
0!
0"
0#
0$
0%
0&
0'
0(
1)
0*
1+
x,
1-
1.
1/
00
01
02
03
04
05
16
07
18
09
0:
0;
0<
0=
0>
0?
1@
1A
1B
0C
0D
0E
1F
$end
#10000
1!
17
1;
0@
1E
1D
1C
1<
08
13
14
15
10
1#
1(
1'
1&
#20000
0!
07
#30000
1!
17
1=
0;
0B
1@
0F
0D
0C
18
03
04
06
00
12
1%
0#
0)
0'
0&
#40000
0!
07
#50000
1"
1!
19
17
1;
1B
1D
1>
0<
08
14
02
0%
1'
#60000
0!
07
1:
0;
0=
1F
0E
0D
0>
18
04
05
16
1)
0(
0'
#70000
1!
17
0:
#80000
0!
07
1:
#90000
1!
17
0:
#100000
0"
0!
09
07
#110000
1!
17
1;
0@
1E
1D
1C
1<
08
13
14
15
10
1#
1(
1'
1&
#120000
0!
07
#130000
1!
17
1=
0;
0B
1@
0F
0D
0C
18
03
04
06
00
12
1%
0#
0)
0'
0&
#140000
0!
07
#150000
1"
1!
19
17
1;
1B
1D
1>
0<
08
14
02
0%
1'
#160000
0!
07
1:
0;
0=
1F
0E
0D
0>
18
04
05
16
1)
0(
0'
#170000
1!
17
0:
#180000
0!
07
1:
#190000
1!
17
0:
#200000
0"
0!
09
07
#210000
1!
17
1;
0@
1E
1D
1C
1<
08
13
14
15
10
1#
1(
1'
1&
#220000
0!
07
#230000
1!
17
1=
0;
0B
1@
0F
0D
0C
18
03
04
06
00
12
1%
0#
0)
0'
0&
#240000
0!
07
#250000
1"
1!
19
17
1;
1B
1D
1>
0<
08
14
02
0%
1'
#260000
0!
07
1:
0;
0=
1F
0E
0D
0>
18
04
05
16
1)
0(
0'
#270000
1!
17
0:
#280000
0!
07
1:
#290000
1!
17
0:
#300000
0"
0!
09
07
#310000
1!
17
1;
0@
1E
1D
1C
1<
08
13
14
15
10
1#
1(
1'
1&
#320000
0!
07
#330000
1!
17
1=
0;
0B
1@
0F
0D
0C
18
03
04
06
00
12
1%
0#
0)
0'
0&
#340000
0!
07
#350000
1"
1!
19
17
1;
1B
1D
1>
0<
08
14
02
0%
1'
#360000
0!
07
1:
0;
0=
1F
0E
0D
0>
18
04
05
16
1)
0(
0'
#370000
1!
17
0:
#380000
0!
07
1:
#390000
1!
17
0:
#400000
0"
0!
09
07
#410000
1!
17
1;
0@
1E
1D
1C
1<
08
13
14
15
10
1#
1(
1'
1&
#420000
0!
07
#430000
1!
17
1=
0;
0B
1@
0F
0D
0C
18
03
04
06
00
12
1%
0#
0)
0'
0&
#440000
0!
07
#450000
1"
1!
19
17
1;
1B
1D
1>
0<
08
14
02
0%
1'
#460000
0!
07
1:
0;
0=
1F
0E
0D
0>
18
04
05
16
1)
0(
0'
#470000
1!
17
0:
#480000
0!
07
1:
#490000
1!
17
0:
#500000
0"
0!
09
07
#510000
1!
17
1;
0@
1E
1D
1C
1<
08
13
14
15
10
1#
1(
1'
1&
#520000
0!
07
#530000
1!
17
1=
0;
0B
1@
0F
0D
0C
18
03
04
06
00
12
1%
0#
0)
0'
0&
#540000
0!
07
#550000
1"
1!
19
17
1;
1B
1D
1>
0<
08
14
02
0%
1'
#560000
0!
07
1:
0;
0=
1F
0E
0D
0>
18
04
05
16
1)
0(
0'
#570000
1!
17
0:
#580000
0!
07
1:
#590000
1!
17
0:
#600000
0"
0!
09
07
#610000
1!
17
1;
0@
1E
1D
1C
1<
08
13
14
15
10
1#
1(
1'
1&
#620000
0!
07
#630000
1!
17
1=
0;
0B
1@
0F
0D
0C
18
03
04
06
00
12
1%
0#
0)
0'
0&
#640000
0!
07
#650000
1"
1!
19
17
1;
1B
1D
1>
0<
08
14
02
0%
1'
#660000
0!
07
1:
0;
0=
1F
0E
0D
0>
18
04
05
16
1)
0(
0'
#670000
1!
17
0:
#680000
0!
07
1:
#690000
1!
17
0:
#700000
0"
0!
09
07
#710000
1!
17
1;
0@
1E
1D
1C
1<
08
13
14
15
10
1#
1(
1'
1&
#720000
0!
07
#730000
1!
17
1=
0;
0B
1@
0F
0D
0C
18
03
04
06
00
12
1%
0#
0)
0'
0&
#740000
0!
07
#750000
1"
1!
19
17
1;
1B
1D
1>
0<
08
14
02
0%
1'
#760000
0!
07
1:
0;
0=
1F
0E
0D
0>
18
04
05
16
1)
0(
0'
#770000
1!
17
0:
#780000
0!
07
1:
#790000
1!
17
0:
#800000
0"
0!
09
07
#810000
1!
17
1;
0@
1E
1D
1C
1<
08
13
14
15
10
1#
1(
1'
1&
#820000
0!
07
#830000
1!
17
1=
0;
0B
1@
0F
0D
0C
18
03
04
06
00
12
1%
0#
0)
0'
0&
#840000
0!
07
#850000
1"
1!
19
17
1;
1B
1D
1>
0<
08
14
02
0%
1'
#860000
0!
07
1:
0;
0=
1F
0E
0D
0>
18
04
05
16
1)
0(
0'
#870000
1!
17
0:
#880000
0!
07
1:
#890000
1!
17
0:
#900000
0"
0!
09
07
#910000
1!
17
1;
0@
1E
1D
1C
1<
08
13
14
15
10
1#
1(
1'
1&
#920000
0!
07
#930000
1!
17
1=
0;
0B
1@
0F
0D
0C
18
03
04
06
00
12
1%
0#
0)
0'
0&
#940000
0!
07
#950000
1"
1!
19
17
1;
1B
1D
1>
0<
08
14
02
0%
1'
#960000
0!
07
1:
0;
0=
1F
0E
0D
0>
18
04
05
16
1)
0(
0'
#970000
1!
17
0:
#980000
0!
07
1:
#990000
1!
17
0:
