fpga_projects/project9/auto_counter/simulation/qsim/main.msim.vcd
$comment
	File created using the following command:
		vcd file main.msim.vcd -direction
$end
$date
	Thu Nov 23 22:32:32 2023
$end
$version
	ModelSim Version 10.5b
$end
$timescale
	1ps
$end

$scope module main_vlg_vec_tst $end
$var reg 1 ! fpga_clock $end
$var reg 1 " reset $end
$var wire 1 # Q [3] $end
$var wire 1 $ Q [2] $end
$var wire 1 % Q [1] $end
$var wire 1 & Q [0] $end
$var wire 1 ' a $end
$var wire 1 ( b $end
$var wire 1 ) c $end
$var wire 1 * d $end
$var wire 1 + e $end
$var wire 1 , f $end
$var wire 1 - filtered_clock $end
$var wire 1 . g $end

$scope module i1 $end
$var wire 1 / gnd $end
$var wire 1 0 vcc $end
$var wire 1 1 unknown $end
$var tri1 1 2 devclrn $end
$var tri1 1 3 devpor $end
$var tri1 1 4 devoe $end
$var wire 1 5 filtered_clock~output_o $end
$var wire 1 6 Q[0]~output_o $end
$var wire 1 7 Q[1]~output_o $end
$var wire 1 8 Q[2]~output_o $end
$var wire 1 9 Q[3]~output_o $end
$var wire 1 : a~output_o $end
$var wire 1 ; b~output_o $end
$var wire 1 < c~output_o $end
$var wire 1 = d~output_o $end
$var wire 1 > e~output_o $end
$var wire 1 ? f~output_o $end
$var wire 1 @ g~output_o $end
$var wire 1 A fpga_clock~input_o $end
$var wire 1 B fpga_clock~inputclkctrl_outclk $end
$var wire 1 C comb_3|Add0~0_combout $end
$var wire 1 D comb_3|out~1_combout $end
$var wire 1 E comb_3|Add0~1 $end
$var wire 1 F comb_3|Add0~2_combout $end
$var wire 1 G comb_3|Add0~3 $end
$var wire 1 H comb_3|Add0~4_combout $end
$var wire 1 I comb_3|Add0~5 $end
$var wire 1 J comb_3|Add0~6_combout $end
$var wire 1 K comb_3|Add0~7 $end
$var wire 1 L comb_3|Add0~8_combout $end
$var wire 1 M comb_3|Add0~9 $end
$var wire 1 N comb_3|Add0~10_combout $end
$var wire 1 O comb_3|Add0~11 $end
$var wire 1 P comb_3|Add0~12_combout $end
$var wire 1 Q comb_3|Add0~13 $end
$var wire 1 R comb_3|Add0~14_combout $end
$var wire 1 S comb_3|out~0_combout $end
$var wire 1 T comb_3|Add0~15 $end
$var wire 1 U comb_3|Add0~16_combout $end
$var wire 1 V comb_3|Add0~17 $end
$var wire 1 W comb_3|Add0~18_combout $end
$var wire 1 X comb_3|Add0~19 $end
$var wire 1 Y comb_3|Add0~20_combout $end
$var wire 1 Z comb_3|Add0~21 $end
$var wire 1 [ comb_3|Add0~22_combout $end
$var wire 1 \ comb_3|Add0~23 $end
$var wire 1 ] comb_3|Add0~24_combout $end
$var wire 1 ^ comb_3|out~2_combout $end
$var wire 1 _ comb_3|Add0~25 $end
$var wire 1 ` comb_3|Add0~26_combout $end
$var wire 1 a comb_3|out~3_combout $end
$var wire 1 b comb_3|Add0~27 $end
$var wire 1 c comb_3|Add0~28_combout $end
$var wire 1 d comb_3|out~4_combout $end
$var wire 1 e comb_3|Add0~29 $end
$var wire 1 f comb_3|Add0~30_combout $end
$var wire 1 g comb_3|out~5_combout $end
$var wire 1 h comb_3|Add0~31 $end
$var wire 1 i comb_3|Add0~32_combout $end
$var wire 1 j comb_3|Add0~33 $end
$var wire 1 k comb_3|Add0~34_combout $end
$var wire 1 l comb_3|out~6_combout $end
$var wire 1 m comb_3|Add0~35 $end
$var wire 1 n comb_3|Add0~36_combout $end
$var wire 1 o comb_3|Add0~37 $end
$var wire 1 p comb_3|Add0~38_combout $end
$var wire 1 q comb_3|out~7_combout $end
$var wire 1 r comb_3|Add0~39 $end
$var wire 1 s comb_3|Add0~40_combout $end
$var wire 1 t comb_3|out~8_combout $end
$var wire 1 u comb_3|Add0~41 $end
$var wire 1 v comb_3|Add0~42_combout $end
$var wire 1 w comb_3|out~9_combout $end
$var wire 1 x comb_3|Add0~43 $end
$var wire 1 y comb_3|Add0~44_combout $end
$var wire 1 z comb_3|out~10_combout $end
$var wire 1 { comb_3|Add0~45 $end
$var wire 1 | comb_3|Add0~46_combout $end
$var wire 1 } comb_3|out~11_combout $end
$var wire 1 ~ comb_3|Equal0~6_combout $end
$var wire 1 !! comb_3|Add0~47 $end
$var wire 1 "! comb_3|Add0~48_combout $end
$var wire 1 #! comb_3|Add0~49 $end
$var wire 1 $! comb_3|Add0~50_combout $end
$var wire 1 %! comb_3|out~12_combout $end
$var wire 1 &! comb_3|Equal0~7_combout $end
$var wire 1 '! comb_3|Equal0~5_combout $end
$var wire 1 (! comb_3|Equal0~1_combout $end
$var wire 1 )! comb_3|Equal0~3_combout $end
$var wire 1 *! comb_3|Equal0~0_combout $end
$var wire 1 +! comb_3|Equal0~2_combout $end
$var wire 1 ,! comb_3|Equal0~4_combout $end
$var wire 1 -! comb_3|Equal0~8_combout $end
$var wire 1 .! comb_3|filtered_clock~q $end
$var wire 1 /! comb_3|filtered_clock~clkctrl_outclk $end
$var wire 1 0! comb_4|Q[0]~3_combout $end
$var wire 1 1! reset~input_o $end
$var wire 1 2! reset~inputclkctrl_outclk $end
$var wire 1 3! comb_4|Q[2]~1_combout $end
$var wire 1 4! comb_4|Q~2_combout $end
$var wire 1 5! comb_4|Q~0_combout $end
$var wire 1 6! comb_5|WideOr0~0_combout $end
$var wire 1 7! comb_5|WideOr1~0_combout $end
$var wire 1 8! comb_5|WideOr2~0_combout $end
$var wire 1 9! comb_5|WideOr3~0_combout $end
$var wire 1 :! comb_5|WideOr4~0_combout $end
$var wire 1 ;! comb_5|WideOr5~0_combout $end
$var wire 1 <! comb_5|WideOr6~0_combout $end
$var wire 1 =! comb_4|Q [3] $end
$var wire 1 >! comb_4|Q [2] $end
$var wire 1 ?! comb_4|Q [1] $end
$var wire 1 @! comb_4|Q [0] $end
$var wire 1 A! comb_3|out [25] $end
$var wire 1 B! comb_3|out [24] $end
$var wire 1 C! comb_3|out [23] $end
$var wire 1 D! comb_3|out [22] $end
$var wire 1 E! comb_3|out [21] $end
$var wire 1 F! comb_3|out [20] $end
$var wire 1 G! comb_3|out [19] $end
$var wire 1 H! comb_3|out [18] $end
$var wire 1 I! comb_3|out [17] $end
$var wire 1 J! comb_3|out [16] $end
$var wire 1 K! comb_3|out [15] $end
$var wire 1 L! comb_3|out [14] $end
$var wire 1 M! comb_3|out [13] $end
$var wire 1 N! comb_3|out [12] $end
$var wire 1 O! comb_3|out [11] $end
$var wire 1 P! comb_3|out [10] $end
$var wire 1 Q! comb_3|out [9] $end
$var wire 1 R! comb_3|out [8] $end
$var wire 1 S! comb_3|out [7] $end
$var wire 1 T! comb_3|out [6] $end
$var wire 1 U! comb_3|out [5] $end
$var wire 1 V! comb_3|out [4] $end
$var wire 1 W! comb_3|out [3] $end
$var wire 1 X! comb_3|out [2] $end
$var wire 1 Y! comb_3|out [1] $end
$var wire 1 Z! comb_3|out [0] $end
$upscope $end
$upscope $end
$enddefinitions $end
#0
$dumpvars
0!
0"
0&
0%
0$
0#
0'
0(
0)
0*
0+
0,
0-
1.
0/
10
x1
12
13
14
05
06
07
08
09
0:
0;
0<
0=
0>
0?
1@
0A
0B
1C
1D
0E
0F
1G
0H
0I
0J
1K
0L
0M
0N
1O
0P
0Q
0R
0S
1T
0U
0V
0W
1X
0Y
0Z
0[
1\
0]
0^
0_
0`
0a
1b
0c
0d
0e
0f
0g
1h
0i
0j
0k
0l
1m
0n
0o
0p
0q
1r
0s
0t
0u
0v
0w
1x
0y
0z
0{
0|
0}
0~
1!!
0"!
0#!
0$!
0%!
0&!
0'!
1(!
0)!
0*!
1+!
0,!
0-!
0.!
0/!
10!
01!
02!
03!
04!
05!
06!
07!
08!
09!
0:!
0;!
0<!
0@!
0?!
0>!
0=!
0Z!
0Y!
0X!
0W!
0V!
0U!
0T!
0S!
0R!
0Q!
0P!
0O!
0N!
0M!
0L!
0K!
0J!
0I!
0H!
0G!
0F!
0E!
0D!
0C!
0B!
0A!
$end
#100
1!
1A
1B
1Z!
0+!
1E
0C
1F
0D
#200
0!
0A
0B
#300
1!
1A
1B
1Y!
0Z!
0G
0E
1C
0F
1G
1H
1F
1D
0H
#400
0!
0A
0B
#500
1!
1A
1B
1Z!
1E
0C
0G
0F
0D
1H
#600
0!
0A
0B
#700
1!
1A
1B
1X!
0Y!
0Z!
1I
1G
0E
1C
0H
1F
0I
1J
1H
0F
1D
0J
#800
0!
0A
0B
#900
1!
1A
1B
1Z!
1E
0C
1F
0D
#1000
0!
0A
0B
#1100
1!
1A
1B
1Y!
0Z!
0G
0E
1C
0F
1I
1G
0H
1F
1D
0I
1J
1H
0J
#1200
0!
0A
0B
#1300
1!
1A
1B
1Z!
1E
0C
0G
0F
0D
1I
0H
1J
#1400
0!
0A
0B
#1500
1!
1A
1B
1W!
0X!
0Y!
0Z!
0(!
0K
1+!
0I
1G
0E
1C
0J
1H
1F
1K
1L
1J
0H
0F
1D
0L
#1600
0!
0A
0B
#1700
1!
1A
1B
1Z!
0+!
1E
0C
1F
0D
#1800
0!
0A
0B
#1900
1!
1A
1B
1Y!
0Z!
0G
0E
1C
0F
1G
1H
1F
1D
0H
#2000
0!
0A
0B
#2100
1!
1A
1B
1Z!
1E
0C
0G
0F
0D
1H
#2200
0!
0A
0B
#2300
1!
1A
1B
1X!
0Y!
0Z!
1I
1G
0E
1C
0H
1F
0K
0I
0J
1H
0F
1D
1K
1L
1J
0L
#2400
0!
0A
0B
#2500
1!
1A
1B
1Z!
1E
0C
1F
0D
#2600
0!
0A
0B
#2700
1!
1A
1B
1Y!
0Z!
0G
0E
1C
0F
1I
1G
0H
1F
1D
0K
0I
0J
1H
1K
1L
1J
0L
#2800
0!
0A
0B
#2900
1!
1A
1B
1Z!
1E
0C
0G
0F
0D
1I
0H
0K
0J
1L
#3000
0!
0A
0B
#3100
1!
1A
1B
1V!
0W!
0X!
0Y!
0Z!
1M
1K
1+!
0I
1G
0E
1C
0L
1J
1H
1F
0M
1N
1L
0J
0H
0F
1D
0N
#3200
0!
0A
0B
#3300
1!
1A
1B
1Z!
0+!
1E
0C
1F
0D
#3400
0!
0A
0B
#3500
1!
1A
1B
1Y!
0Z!
0G
0E
1C
0F
1G
1H
1F
1D
0H
#3600
0!
0A
0B
#3700
1!
1A
1B
1Z!
1E
0C
0G
0F
0D
1H
#3800
0!
0A
0B
#3900
1!
1A
1B
1X!
0Y!
0Z!
1I
1G
0E
1C
0H
1F
0I
1J
1H
0F
1D
0J
#4000
0!
0A
0B
#4100
1!
1A
1B
1Z!
1E
0C
1F
0D
#4200
0!
0A
0B
#4300
1!
1A
1B
1Y!
0Z!
0G
0E
1C
0F
1I
1G
0H
1F
1D
0I
1J
1H
0J
#4400
0!
0A
0B
#4500
1!
1A
1B
1Z!
1E
0C
0G
0F
0D
1I
0H
1J
#4600
0!
0A
0B
#4700
1!
1A
1B
1W!
0X!
0Y!
0Z!
0K
1+!
0I
1G
0E
1C
0J
1H
1F
1M
1K
0L
1J
0H
0F
1D
0M
1N
1L
0N
#4800
0!
0A
0B
#4900
1!
1A
1B
1Z!
0+!
1E
0C
1F
0D
#5000
0!
0A
0B
#5100
1!
1A
1B
1Y!
0Z!
0G
0E
1C
0F
1G
1H
1F
1D
0H
#5200
0!
0A
0B
#5300
1!
1A
1B
1Z!
1E
0C
0G
0F
0D
1H
#5400
0!
0A
0B
#5500
1!
1A
1B
1X!
0Y!
0Z!
1I
1G
0E
1C
0H
1F
0K
0I
0J
1H
0F
1D
1M
1K
0L
1J
0M
1N
1L
0N
#5600
0!
0A
0B
#5700
1!
1A
1B
1Z!
1E
0C
1F
0D
#5800
0!
0A
0B
#5900
1!
1A
1B
1Y!
0Z!
0G
0E
1C
0F
1I
1G
0H
1F
1D
0K
0I
0J
1H
1M
1K
0L
1J
0M
1N
1L
0N
#6000
0!
0A
0B
#6100
1!
1A
1B
1Z!
1E
0C
0G
0F
0D
1I
0H
0K
0J
1M
0L
1N
#6200
0!
0A
0B
#6300
1!
1A
1B
1U!
0V!
0W!
0X!
0Y!
0Z!
0O
0M
1K
1+!
0I
1G
0E
1C
0N
1L
1J
1H
1F
1O
1P
1N
0L
0J
0H
0F
1D
0P
#6400
0!
0A
0B
#6500
1!
1A
1B
1Z!
0+!
1E
0C
1F
0D
#6600
0!
0A
0B
#6700
1!
1A
1B
1Y!
0Z!
0G
0E
1C
0F
1G
1H
1F
1D
0H
#6800
0!
0A
0B
#6900
1!
1A
1B
1Z!
1E
0C
0G
0F
0D
1H
#7000
0!
0A
0B
#7100
1!
1A
1B
1X!
0Y!
0Z!
1I
1G
0E
1C
0H
1F
0I
1J
1H
0F
1D
0J
#7200
0!
0A
0B
#7300
1!
1A
1B
1Z!
1E
0C
1F
0D
#7400
0!
0A
0B
#7500
1!
1A
1B
1Y!
0Z!
0G
0E
1C
0F
1I
1G
0H
1F
1D
0I
1J
1H
0J
#7600
0!
0A
0B
#7700
1!
1A
1B
1Z!
1E
0C
0G
0F
0D
1I
0H
1J
#7800
0!
0A
0B
#7900
1!
1A
1B
1W!
0X!
0Y!
0Z!
0K
1+!
0I
1G
0E
1C
0J
1H
1F
1K
1L
1J
0H
0F
1D
0L
#8000
0!
0A
0B
#8100
1!
1A
1B
1Z!
0+!
1E
0C
1F
0D
#8200
0!
0A
0B
#8300
1!
1A
1B
1Y!
0Z!
0G
0E
1C
0F
1G
1H
1F
1D
0H
#8400
0!
0A
0B
#8500
1!
1A
1B
1Z!
1E
0C
0G
0F
0D
1H
#8600
0!
0A
0B
#8700
1!
1A
1B
1X!
0Y!
0Z!
1I
1G
0E
1C
0H
1F
0K
0I
0J
1H
0F
1D
1K
1L
1J
0L
#8800
0!
0A
0B
#8900
1!
1A
1B
1Z!
1E
0C
1F
0D
#9000
0!
0A
0B
#9100
1!
1A
1B
1Y!
0Z!
0G
0E
1C
0F
1I
1G
0H
1F
1D
0K
0I
0J
1H
1K
1L
1J
0L
#9200
0!
0A
0B
#9300
1!
1A
1B
1Z!
1E
0C
0G
0F
0D
1I
0H
0K
0J
1L
#9400
0!
0A
0B
#9500
1!
1A
1B
1V!
0W!
0X!
0Y!
0Z!
1M
1K
1+!
0I
1G
0E
1C
0L
1J
1H
1F
0O
0M
0N
1L
0J
0H
0F
1D
1O
1P
1N
0P
#9600
0!
0A
0B
#9700
1!
1A
1B
1Z!
0+!
1E
0C
1F
0D
#9800
0!
0A
0B
#9900
1!
1A
1B
1Y!
0Z!
0G
0E
1C
0F
1G
1H
1F
1D
0H
#10000
0!
0A
0B
#10100
1!
1A
1B
1Z!
1E
0C
0G
0F
0D
1H
#10200
0!
0A
0B
#10300
1!
1A
1B
1X!
0Y!
0Z!
1I
1G
0E
1C
0H
1F
0I
1J
1H
0F
1D
0J
#10400
0!
0A
0B
#10500
1!
1A
1B
1Z!
1E
0C
1F
0D
#10600
0!
0A
0B
#10700
1!
1A
1B
1Y!
0Z!
0G
0E
1C
0F
1I
1G
0H
1F
1D
0I
1J
1H
0J
#10800
0!
0A
0B
#10900
1!
1A
1B
1Z!
1E
0C
0G
0F
0D
1I
0H
1J
#11000
0!
0A
0B
#11100
1!
1A
1B
1W!
0X!
0Y!
0Z!
0K
1+!
0I
1G
0E
1C
0J
1H
1F
1M
1K
0L
1J
0H
0F
1D
0O
0M
0N
1L
1O
1P
1N
0P
#11200
0!
0A
0B
#11300
1!
1A
1B
1Z!
0+!
1E
0C
1F
0D
#11400
0!
0A
0B
#11500
1!
1A
1B
1Y!
0Z!
0G
0E
1C
0F
1G
1H
1F
1D
0H
#11600
0!
0A
0B
#11700
1!
1A
1B
1Z!
1E
0C
0G
0F
0D
1H
#11800
0!
0A
0B
#11900
1!
1A
1B
1X!
0Y!
0Z!
1I
1G
0E
1C
0H
1F
0K
0I
0J
1H
0F
1D
1M
1K
0L
1J
0O
0M
0N
1L
1O
1P
1N
0P
#12000
0!
0A
0B
#12100
1!
1A
1B
1Z!
1E
0C
1F
0D
#12200
0!
0A
0B
#12300
1!
1A
1B
1Y!
0Z!
0G
0E
1C
0F
1I
1G
0H
1F
1D
0K
0I
0J
1H
1M
1K
0L
1J
0O
0M
0N
1L
1O
1P
1N
0P
#12400
0!
0A
0B
#12500
1!
1A
1B
1Z!
1E
0C
0G
0F
0D
1I
0H
0K
0J
1M
0L
0O
0N
1P
#12600
0!
0A
0B
#12700
1!
1A
1B
1T!
0U!
0V!
0W!
0X!
0Y!
0Z!
1Q
1O
0M
1K
1+!
0I
1G
0E
1C
0P
1N
1L
1J
1H
1F
1R
0Q
1P
0N
0L
0J
0H
0F
1D
0R
1S
0S
#12800
0!
0A
0B
#12900
1!
1A
1B
1Z!
0+!
1E
0C
1F
0D
#13000
0!
0A
0B
#13100
1!
1A
1B
1Y!
0Z!
0G
0E
1C
0F
1G
1H
1F
1D
0H
#13200
0!
0A
0B
#13300
1!
1A
1B
1Z!
1E
0C
0G
0F
0D
1H
#13400
0!
0A
0B
#13500
1!
1A
1B
1X!
0Y!
0Z!
1I
1G
0E
1C
0H
1F
0I
1J
1H
0F
1D
0J
#13600
0!
0A
0B
#13700
1!
1A
1B
1Z!
1E
0C
1F
0D
#13800
0!
0A
0B
#13900
1!
1A
1B
1Y!
0Z!
0G
0E
1C
0F
1I
1G
0H
1F
1D
0I
1J
1H
0J
#14000
0!
0A
0B
#14100
1!
1A
1B
1Z!
1E
0C
0G
0F
0D
1I
0H
1J
#14200
0!
0A
0B
#14300
1!
1A
1B
1W!
0X!
0Y!
0Z!
0K
1+!
0I
1G
0E
1C
0J
1H
1F
1K
1L
1J
0H
0F
1D
0L
#14400
0!
0A
0B
#14500
1!
1A
1B
1Z!
0+!
1E
0C
1F
0D
#14600
0!
0A
0B
#14700
1!
1A
1B
1Y!
0Z!
0G
0E
1C
0F
1G
1H
1F
1D
0H
#14800
0!
0A
0B
#14900
1!
1A
1B
1Z!
1E
0C
0G
0F
0D
1H
#15000
0!
0A
0B
#15100
1!
1A
1B
1X!
0Y!
0Z!
1I
1G
0E
1C
0H
1F
0K
0I
0J
1H
0F
1D
1K
1L
1J
0L
#15200
0!
0A
0B
#15300
1!
1A
1B
1Z!
1E
0C
1F
0D
#15400
0!
0A
0B
#15500
1!
1A
1B
1Y!
0Z!
0G
0E
1C
0F
1I
1G
0H
1F
1D
0K
0I
0J
1H
1K
1L
1J
0L
#15600
0!
0A
0B
#15700
1!
1A
1B
1Z!
1E
0C
0G
0F
0D
1I
0H
0K
0J
1L
#15800
0!
0A
0B
#15900
1!
1A
1B
1V!
0W!
0X!
0Y!
0Z!
1M
1K
1+!
0I
1G
0E
1C
0L
1J
1H
1F
0M
1N
1L
0J
0H
0F
1D
0N
#16000
0!
0A
0B
#16100
1!
1A
1B
1Z!
0+!
1E
0C
1F
0D
#16200
0!
0A
0B
#16300
1!
1A
1B
1Y!
0Z!
0G
0E
1C
0F
1G
1H
1F
1D
0H
#16400
0!
0A
0B
#16500
1!
1A
1B
1Z!
1E
0C
0G
0F
0D
1H
#16600
0!
0A
0B
#16700
1!
1A
1B
1X!
0Y!
0Z!
1I
1G
0E
1C
0H
1F
0I
1J
1H
0F
1D
0J
#16800
0!
0A
0B
#16900
1!
1A
1B
1Z!
1E
0C
1F
0D
#17000
0!
0A
0B
#17100
1!
1A
1B
1Y!
0Z!
0G
0E
1C
0F
1I
1G
0H
1F
1D
0I
1J
1H
0J
#17200
0!
0A
0B
#17300
1!
1A
1B
1Z!
1E
0C
0G
0F
0D
1I
0H
1J
#17400
0!
0A
0B
#17500
1!
1A
1B
1W!
0X!
0Y!
0Z!
0K
1+!
0I
1G
0E
1C
0J
1H
1F
1M
1K
0L
1J
0H
0F
1D
0M
1N
1L
0N
#17600
0!
0A
0B
#17700
1!
1A
1B
1Z!
0+!
1E
0C
1F
0D
#17800
0!
0A
0B
#17900
1!
1A
1B
1Y!
0Z!
0G
0E
1C
0F
1G
1H
1F
1D
0H
#18000
0!
0A
0B
#18100
1!
1A
1B
1Z!
1E
0C
0G
0F
0D
1H
#18200
0!
0A
0B
#18300
1!
1A
1B
1X!
0Y!
0Z!
1I
1G
0E
1C
0H
1F
0K
0I
0J
1H
0F
1D
1M
1K
0L
1J
0M
1N
1L
0N
#18400
0!
0A
0B
#18500
1!
1A
1B
1Z!
1E
0C
1F
0D
#18600
0!
0A
0B
#18700
1!
1A
1B
1Y!
0Z!
0G
0E
1C
0F
1I
1G
0H
1F
1D
0K
0I
0J
1H
1M
1K
0L
1J
0M
1N
1L
0N
#18800
0!
0A
0B
#18900
1!
1A
1B
1Z!
1E
0C
0G
0F
0D
1I
0H
0K
0J
1M
0L
1N
#19000
0!
0A
0B
#19100
1!
1A
1B
1U!
0V!
0W!
0X!
0Y!
0Z!
0O
0M
1K
1+!
0I
1G
0E
1C
0N
1L
1J
1H
1F
1Q
1O
0P
1N
0L
0J
0H
0F
1D
1R
0Q
1P
0R
1S
0S
#19200
0!
0A
0B
#19300
1!
1A
1B
1Z!
0+!
1E
0C
1F
0D
#19400
0!
0A
0B
#19500
1!
1A
1B
1Y!
0Z!
0G
0E
1C
0F
1G
1H
1F
1D
0H
#19600
0!
0A
0B
#19700
1!
1A
1B
1Z!
1E
0C
0G
0F
0D
1H
#19800
0!
0A
0B
#19900
1!
1A
1B
1X!
0Y!
0Z!
1I
1G
0E
1C
0H
1F
0I
1J
1H
0F
1D
0J
#20000
0!
0A
0B
#20100
1!
1A
1B
1Z!
1E
0C
1F
0D
#20200
0!
0A
0B
#20300
1!
1A
1B
1Y!
0Z!
0G
0E
1C
0F
1I
1G
0H
1F
1D
0I
1J
1H
0J
#20400
0!
0A
0B
#20500
1!
1A
1B
1Z!
1E
0C
0G
0F
0D
1I
0H
1J
#20600
0!
0A
0B
#20700
1!
1A
1B
1W!
0X!
0Y!
0Z!
0K
1+!
0I
1G
0E
1C
0J
1H
1F
1K
1L
1J
0H
0F
1D
0L
#20800
0!
0A
0B
#20900
1!
1A
1B
1Z!
0+!
1E
0C
1F
0D
#21000
0!
0A
0B
#21100
1!
1A
1B
1Y!
0Z!
0G
0E
1C
0F
1G
1H
1F
1D
0H
#21200
0!
0A
0B
#21300
1!
1A
1B
1Z!
1E
0C
0G
0F
0D
1H
#21400
0!
0A
0B
#21500
1!
1A
1B
1X!
0Y!
0Z!
1I
1G
0E
1C
0H
1F
0K
0I
0J
1H
0F
1D
1K
1L
1J
0L
#21600
0!
0A
0B
#21700
1!
1A
1B
1Z!
1E
0C
1F
0D
#21800
0!
0A
0B
#21900
1!
1A
1B
1Y!
0Z!
0G
0E
1C
0F
1I
1G
0H
1F
1D
0K
0I
0J
1H
1K
1L
1J
0L
#22000
0!
0A
0B
#22100
1!
1A
1B
1Z!
1E
0C
0G
0F
0D
1I
0H
0K
0J
1L
#22200
0!
0A
0B
#22300
1!
1A
1B
1V!
0W!
0X!
0Y!
0Z!
1M
1K
1+!
0I
1G
0E
1C
0L
1J
1H
1F
0O
0M
0N
1L
0J
0H
0F
1D
1Q
1O
0P
1N
1R
0Q
1P
0R
1S
0S
#22400
0!
0A
0B
#22500
1!
1A
1B
1Z!
0+!
1E
0C
1F
0D
#22600
0!
0A
0B
#22700
1!
1A
1B
1Y!
0Z!
0G
0E
1C
0F
1G
1H
1F
1D
0H
#22800
0!
0A
0B
#22900
1!
1A
1B
1Z!
1E
0C
0G
0F
0D
1H
#23000
0!
0A
0B
#23100
1!
1A
1B
1X!
0Y!
0Z!
1I
1G
0E
1C
0H
1F
0I
1J
1H
0F
1D
0J
#23200
0!
0A
0B
#23300
1!
1A
1B
1Z!
1E
0C
1F
0D
#23400
0!
0A
0B
#23500
1!
1A
1B
1Y!
0Z!
0G
0E
1C
0F
1I
1G
0H
1F
1D
0I
1J
1H
0J
#23600
0!
0A
0B
#23700
1!
1A
1B
1Z!
1E
0C
0G
0F
0D
1I
0H
1J
#23800
0!
0A
0B
#23900
1!
1A
1B
1W!
0X!
0Y!
0Z!
0K
1+!
0I
1G
0E
1C
0J
1H
1F
1M
1K
0L
1J
0H
0F
1D
0O
0M
0N
1L
1Q
1O
0P
1N
1R
0Q
1P
0R
1S
0S
#24000
0!
0A
0B
#24100
1!
1A
1B
1Z!
0+!
1E
0C
1F
0D
#24200
0!
0A
0B
#24300
1!
1A
1B
1Y!
0Z!
0G
0E
1C
0F
1G
1H
1F
1D
0H
#24400
0!
0A
0B
#24500
1!
1A
1B
1Z!
1E
0C
0G
0F
0D
1H
#24600
0!
0A
0B
#24700
1!
1A
1B
1X!
0Y!
0Z!
1I
1G
0E
1C
0H
1F
0K
0I
0J
1H
0F
1D
1M
1K
0L
1J
0O
0M
0N
1L
1Q
1O
0P
1N
1R
0Q
1P
0R
1S
0S
#24800
0!
0A
0B
#24900
1!
1A
1B
1Z!
1E
0C
1F
0D
#25000
0!
0A
0B
#25100
1!
1A
1B
1Y!
0Z!
0G
0E
1C
0F
1I
1G
0H
1F
1D
0K
0I
0J
1H
1M
1K
0L
1J
0O
0M
0N
1L
1Q
1O
0P
1N
1R
0Q
1P
0R
1S
0S
#25200
0!
0A
0B
#25300
1!
1A
1B
1Z!
1E
0C
0G
0F
0D
1I
0H
0K
0J
1M
0L
0O
0N
1Q
0P
1R
1S
#25400
0!
0A
0B
#25500
1!
1A
1B
1S!
0T!
0U!
0V!
0W!
0X!
0Y!
0Z!
1*!
0T
0R
1(!
0Q
1O
0M
1K
1+!
0I
1G
0E
1C
1P
1N
1L
1J
1H
1F
1T
1R
1U
0S
0P
0N
0L
0J
0H
0F
1D
0U
1S
#25600
0!
0A
0B
#25700
1!
1A
1B
1Z!
0+!
1E
0C
1F
0D
#25800
0!
0A
0B
#25900
1!
1A
1B
1Y!
0Z!
0G
0E
1C
0F
1G
1H
1F
1D
0H
#26000
0!
0A
0B
#26100
1!
1A
1B
1Z!
1E
0C
0G
0F
0D
1H
#26200
0!
0A
0B
#26300
1!
1A
1B
1X!
0Y!
0Z!
1I
1G
0E
1C
0H
1F
0I
1J
1H
0F
1D
0J
#26400
0!
0A
0B
#26500
1!
1A
1B
1Z!
1E
0C
1F
0D
#26600
0!
0A
0B
#26700
1!
1A
1B
1Y!
0Z!
0G
0E
1C
0F
1I
1G
0H
1F
1D
0I
1J
1H
0J
#26800
0!
0A
0B
#26900
1!
1A
1B
1Z!
1E
0C
0G
0F
0D
1I
0H
1J
#27000
0!
0A
0B
#27100
1!
1A
1B
1W!
0X!
0Y!
0Z!
0(!
0K
1+!
0I
1G
0E
1C
0J
1H
1F
1K
1L
1J
0H
0F
1D
0L
#27200
0!
0A
0B
#27300
1!
1A
1B
1Z!
0+!
1E
0C
1F
0D
#27400
0!
0A
0B
#27500
1!
1A
1B
1Y!
0Z!
0G
0E
1C
0F
1G
1H
1F
1D
0H
#27600
0!
0A
0B
#27700
1!
1A
1B
1Z!
1E
0C
0G
0F
0D
1H
#27800
0!
0A
0B
#27900
1!
1A
1B
1X!
0Y!
0Z!
1I
1G
0E
1C
0H
1F
0K
0I
0J
1H
0F
1D
1K
1L
1J
0L
#28000
0!
0A
0B
#28100
1!
1A
1B
1Z!
1E
0C
1F
0D
#28200
0!
0A
0B
#28300
1!
1A
1B
1Y!
0Z!
0G
0E
1C
0F
1I
1G
0H
1F
1D
0K
0I
0J
1H
1K
1L
1J
0L
#28400
0!
0A
0B
#28500
1!
1A
1B
1Z!
1E
0C
0G
0F
0D
1I
0H
0K
0J
1L
#28600
0!
0A
0B
#28700
1!
1A
1B
1V!
0W!
0X!
0Y!
0Z!
1M
1K
1+!
0I
1G
0E
1C
0L
1J
1H
1F
0M
1N
1L
0J
0H
0F
1D
0N
#28800
0!
0A
0B
#28900
1!
1A
1B
1Z!
0+!
1E
0C
1F
0D
#29000
0!
0A
0B
#29100
1!
1A
1B
1Y!
0Z!
0G
0E
1C
0F
1G
1H
1F
1D
0H
#29200
0!
0A
0B
#29300
1!
1A
1B
1Z!
1E
0C
0G
0F
0D
1H
#29400
0!
0A
0B
#29500
1!
1A
1B
1X!
0Y!
0Z!
1I
1G
0E
1C
0H
1F
0I
1J
1H
0F
1D
0J
#29600
0!
0A
0B
#29700
1!
1A
1B
1Z!
1E
0C
1F
0D
#29800
0!
0A
0B
#29900
1!
1A
1B
1Y!
0Z!
0G
0E
1C
0F
1I
1G
0H
1F
1D
0I
1J
1H
0J
#30000
0!
0A
0B
#30100
1!
1A
1B
1Z!
1E
0C
0G
0F
0D
1I
0H
1J
#30200
0!
0A
0B
#30300
1!
1A
1B
1W!
0X!
0Y!
0Z!
0K
1+!
0I
1G
0E
1C
0J
1H
1F
1M
1K
0L
1J
0H
0F
1D
0M
1N
1L
0N
#30400
0!
0A
0B
#30500
1!
1A
1B
1Z!
0+!
1E
0C
1F
0D
#30600
0!
0A
0B
#30700
1!
1A
1B
1Y!
0Z!
0G
0E
1C
0F
1G
1H
1F
1D
0H
#30800
0!
0A
0B
#30900
1!
1A
1B
1Z!
1E
0C
0G
0F
0D
1H
#31000
0!
0A
0B
#31100
1!
1A
1B
1X!
0Y!
0Z!
1I
1G
0E
1C
0H
1F
0K
0I
0J
1H
0F
1D
1M
1K
0L
1J
0M
1N
1L
0N
#31200
0!
0A
0B
#31300
1!
1A
1B
1Z!
1E
0C
1F
0D
#31400
0!
0A
0B
#31500
1!
1A
1B
1Y!
0Z!
0G
0E
1C
0F
1I
1G
0H
1F
1D
0K
0I
0J
1H
1M
1K
0L
1J
0M
1N
1L
0N
#31600
0!
0A
0B
#31700
1!
1A
1B
1Z!
1E
0C
0G
0F
0D
1I
0H
0K
0J
1M
0L
1N
#31800
0!
0A
0B
#31900
1!
1A
1B
1U!
0V!
0W!
0X!
0Y!
0Z!
0O
0M
1K
1+!
0I
1G
0E
1C
0N
1L
1J
1H
1F
1O
1P
1N
0L
0J
0H
0F
1D
0P
