fpga_projects/project9/many_frequencies_counter/simulation/qsim/main.msim.vcd
$comment
	File created using the following command:
		vcd file main.msim.vcd -direction
$end
$date
	Fri Nov 24 12:15:40 2023
$end
$version
	ModelSim Version 10.5b
$end
$timescale
	1ps
$end

$scope module main_vlg_vec_tst $end
$var reg 1 ! fpga_clock $end
$var reg 1 " reset $end
$var reg 1 # select1 $end
$var reg 1 $ select2 $end
$var wire 1 % Q [3] $end
$var wire 1 & Q [2] $end
$var wire 1 ' Q [1] $end
$var wire 1 ( Q [0] $end
$var wire 1 ) a $end
$var wire 1 * b $end
$var wire 1 + c $end
$var wire 1 , d $end
$var wire 1 - e $end
$var wire 1 . f $end
$var wire 1 / filtered_clock $end
$var wire 1 0 g $end

$scope module i1 $end
$var wire 1 1 gnd $end
$var wire 1 2 vcc $end
$var wire 1 3 unknown $end
$var tri1 1 4 devclrn $end
$var tri1 1 5 devpor $end
$var tri1 1 6 devoe $end
$var wire 1 7 filtered_clock~output_o $end
$var wire 1 8 Q[0]~output_o $end
$var wire 1 9 Q[1]~output_o $end
$var wire 1 : Q[2]~output_o $end
$var wire 1 ; Q[3]~output_o $end
$var wire 1 < a~output_o $end
$var wire 1 = b~output_o $end
$var wire 1 > c~output_o $end
$var wire 1 ? d~output_o $end
$var wire 1 @ e~output_o $end
$var wire 1 A f~output_o $end
$var wire 1 B g~output_o $end
$var wire 1 C fpga_clock~input_o $end
$var wire 1 D fpga_clock~inputclkctrl_outclk $end
$var wire 1 E frequency_divider|out[0]~29_combout $end
$var wire 1 F select1~input_o $end
$var wire 1 G frequency_divider|Equal3~0_combout $end
$var wire 1 H frequency_divider|out[26]~84 $end
$var wire 1 I frequency_divider|out[27]~85_combout $end
$var wire 1 J frequency_divider|out[27]~86 $end
$var wire 1 K frequency_divider|out[28]~87_combout $end
$var wire 1 L frequency_divider|Equal0~5_combout $end
$var wire 1 M frequency_divider|Equal1~0_combout $end
$var wire 1 N frequency_divider|Equal0~4_combout $end
$var wire 1 O frequency_divider|Equal2~0_combout $end
$var wire 1 P frequency_divider|Equal0~1_combout $end
$var wire 1 Q frequency_divider|Equal0~2_combout $end
$var wire 1 R frequency_divider|Equal0~0_combout $end
$var wire 1 S frequency_divider|Equal0~3_combout $end
$var wire 1 T frequency_divider|Equal2~1_combout $end
$var wire 1 U frequency_divider|Equal2~2_combout $end
$var wire 1 V select2~input_o $end
$var wire 1 W frequency_divider|Equal0~6_combout $end
$var wire 1 X frequency_divider|Equal0~7_combout $end
$var wire 1 Y frequency_divider|Equal0~8_combout $end
$var wire 1 Z frequency_divider|Equal0~9_combout $end
$var wire 1 [ frequency_divider|Equal1~1_combout $end
$var wire 1 \ frequency_divider|Equal1~2_combout $end
$var wire 1 ] frequency_divider|Equal1~3_combout $end
$var wire 1 ^ frequency_divider|out[28]~31_combout $end
$var wire 1 _ frequency_divider|out[28]~32_combout $end
$var wire 1 ` frequency_divider|out[0]~30 $end
$var wire 1 a frequency_divider|out[1]~33_combout $end
$var wire 1 b frequency_divider|out[1]~34 $end
$var wire 1 c frequency_divider|out[2]~35_combout $end
$var wire 1 d frequency_divider|out[2]~36 $end
$var wire 1 e frequency_divider|out[3]~37_combout $end
$var wire 1 f frequency_divider|out[3]~38 $end
$var wire 1 g frequency_divider|out[4]~39_combout $end
$var wire 1 h frequency_divider|out[4]~40 $end
$var wire 1 i frequency_divider|out[5]~41_combout $end
$var wire 1 j frequency_divider|out[5]~42 $end
$var wire 1 k frequency_divider|out[6]~43_combout $end
$var wire 1 l frequency_divider|out[6]~44 $end
$var wire 1 m frequency_divider|out[7]~45_combout $end
$var wire 1 n frequency_divider|out[7]~46 $end
$var wire 1 o frequency_divider|out[8]~47_combout $end
$var wire 1 p frequency_divider|out[8]~48 $end
$var wire 1 q frequency_divider|out[9]~49_combout $end
$var wire 1 r frequency_divider|out[9]~50 $end
$var wire 1 s frequency_divider|out[10]~51_combout $end
$var wire 1 t frequency_divider|out[10]~52 $end
$var wire 1 u frequency_divider|out[11]~53_combout $end
$var wire 1 v frequency_divider|out[11]~54 $end
$var wire 1 w frequency_divider|out[12]~55_combout $end
$var wire 1 x frequency_divider|out[12]~56 $end
$var wire 1 y frequency_divider|out[13]~57_combout $end
$var wire 1 z frequency_divider|out[13]~58 $end
$var wire 1 { frequency_divider|out[14]~59_combout $end
$var wire 1 | frequency_divider|out[14]~60 $end
$var wire 1 } frequency_divider|out[15]~61_combout $end
$var wire 1 ~ frequency_divider|out[15]~62 $end
$var wire 1 !! frequency_divider|out[16]~63_combout $end
$var wire 1 "! frequency_divider|out[16]~64 $end
$var wire 1 #! frequency_divider|out[17]~65_combout $end
$var wire 1 $! frequency_divider|out[17]~66 $end
$var wire 1 %! frequency_divider|out[18]~67_combout $end
$var wire 1 &! frequency_divider|out[18]~68 $end
$var wire 1 '! frequency_divider|out[19]~69_combout $end
$var wire 1 (! frequency_divider|out[19]~70 $end
$var wire 1 )! frequency_divider|out[20]~71_combout $end
$var wire 1 *! frequency_divider|out[20]~72 $end
$var wire 1 +! frequency_divider|out[21]~73_combout $end
$var wire 1 ,! frequency_divider|out[21]~74 $end
$var wire 1 -! frequency_divider|out[22]~75_combout $end
$var wire 1 .! frequency_divider|out[22]~76 $end
$var wire 1 /! frequency_divider|out[23]~77_combout $end
$var wire 1 0! frequency_divider|out[23]~78 $end
$var wire 1 1! frequency_divider|out[24]~79_combout $end
$var wire 1 2! frequency_divider|out[24]~80 $end
$var wire 1 3! frequency_divider|out[25]~81_combout $end
$var wire 1 4! frequency_divider|out[25]~82 $end
$var wire 1 5! frequency_divider|out[26]~83_combout $end
$var wire 1 6! frequency_divider|Equal3~2_combout $end
$var wire 1 7! frequency_divider|Equal3~1_combout $end
$var wire 1 8! frequency_divider|Equal3~3_combout $end
$var wire 1 9! frequency_divider|Mux29~0_combout $end
$var wire 1 :! frequency_divider|Mux29~1_combout $end
$var wire 1 ;! frequency_divider|filtered_clock~q $end
$var wire 1 <! frequency_divider|filtered_clock~clkctrl_outclk $end
$var wire 1 =! counter|Q[0]~2_combout $end
$var wire 1 >! reset~input_o $end
$var wire 1 ?! reset~inputclkctrl_outclk $end
$var wire 1 @! counter|Q[1]~0_combout $end
$var wire 1 A! counter|Q[2]~1_combout $end
$var wire 1 B! decoder|WideOr0~0_combout $end
$var wire 1 C! decoder|WideOr1~0_combout $end
$var wire 1 D! decoder|WideOr2~0_combout $end
$var wire 1 E! decoder|WideOr3~0_combout $end
$var wire 1 F! decoder|WideOr4~0_combout $end
$var wire 1 G! decoder|WideOr5~0_combout $end
$var wire 1 H! decoder|WideOr6~0_combout $end
$var wire 1 I! frequency_divider|out [28] $end
$var wire 1 J! frequency_divider|out [27] $end
$var wire 1 K! frequency_divider|out [26] $end
$var wire 1 L! frequency_divider|out [25] $end
$var wire 1 M! frequency_divider|out [24] $end
$var wire 1 N! frequency_divider|out [23] $end
$var wire 1 O! frequency_divider|out [22] $end
$var wire 1 P! frequency_divider|out [21] $end
$var wire 1 Q! frequency_divider|out [20] $end
$var wire 1 R! frequency_divider|out [19] $end
$var wire 1 S! frequency_divider|out [18] $end
$var wire 1 T! frequency_divider|out [17] $end
$var wire 1 U! frequency_divider|out [16] $end
$var wire 1 V! frequency_divider|out [15] $end
$var wire 1 W! frequency_divider|out [14] $end
$var wire 1 X! frequency_divider|out [13] $end
$var wire 1 Y! frequency_divider|out [12] $end
$var wire 1 Z! frequency_divider|out [11] $end
$var wire 1 [! frequency_divider|out [10] $end
$var wire 1 \! frequency_divider|out [9] $end
$var wire 1 ]! frequency_divider|out [8] $end
$var wire 1 ^! frequency_divider|out [7] $end
$var wire 1 _! frequency_divider|out [6] $end
$var wire 1 `! frequency_divider|out [5] $end
$var wire 1 a! frequency_divider|out [4] $end
$var wire 1 b! frequency_divider|out [3] $end
$var wire 1 c! frequency_divider|out [2] $end
$var wire 1 d! frequency_divider|out [1] $end
$var wire 1 e! frequency_divider|out [0] $end
$var wire 1 f! counter|Q [3] $end
$var wire 1 g! counter|Q [2] $end
$var wire 1 h! counter|Q [1] $end
$var wire 1 i! counter|Q [0] $end
$upscope $end
$upscope $end
$enddefinitions $end
#0
$dumpvars
0!
0"
0#
0$
0(
0'
0&
0%
0)
0*
0+
0,
0-
0.
0/
10
01
12
x3
14
15
16
07
08
09
0:
0;
0<
0=
0>
0?
0@
0A
1B
0C
0D
1E
0F
0G
0H
0I
1J
0K
0L
0M
0N
0O
0P
0Q
1R
0S
0T
0U
0V
0W
0X
0Y
0Z
0[
0\
0]
0^
0_
0`
0a
1b
0c
0d
0e
1f
0g
0h
0i
1j
0k
0l
0m
1n
0o
0p
0q
1r
0s
0t
0u
1v
0w
0x
0y
1z
0{
0|
0}
1~
0!!
0"!
0#!
1$!
0%!
0&!
0'!
1(!
0)!
0*!
0+!
1,!
0-!
0.!
0/!
10!
01!
02!
03!
14!
05!
06!
07!
08!
09!
0:!
0;!
0<!
1=!
0>!
0?!
0@!
0A!
0B!
0C!
0D!
0E!
0F!
0G!
0H!
0e!
0d!
0c!
0b!
0a!
0`!
0_!
0^!
0]!
0\!
0[!
0Z!
0Y!
0X!
0W!
0V!
0U!
0T!
0S!
0R!
0Q!
0P!
0O!
0N!
0M!
0L!
0K!
0J!
0I!
0i!
0h!
0g!
zf!
$end
#100
1!
1C
1D
1e!
0R
1`
0E
1a
#200
0!
0C
0D
#300
1!
1C
1D
1d!
0e!
0b
0`
0a
1E
1b
1c
1a
0c
#400
0!
0C
0D
#500
1!
1C
1D
1e!
1`
0E
0b
0a
1c
#600
0!
0C
0D
#700
1!
1C
1D
1c!
0d!
0e!
1d
1b
0`
0c
1a
1E
0d
1e
1c
0a
0e
#800
0!
0C
0D
#900
1!
1C
1D
1e!
1`
0E
1a
#1000
0!
0C
0D
#1100
1!
1C
1D
1d!
0e!
0b
0`
0a
1E
1d
1b
0c
1a
0d
1e
1c
0e
#1200
0!
0C
0D
#1300
1!
1C
1D
1e!
1`
0E
0b
0a
1d
0c
1e
#1400
0!
0C
0D
#1500
1!
1C
1D
1b!
0c!
0d!
0e!
0f
0d
1b
0`
0e
1c
1a
1E
1f
1g
1e
0c
0a
0g
#1600
0!
0C
0D
#1700
1!
1C
1D
1e!
1`
0E
1a
#1800
0!
0C
0D
#1900
1!
1C
1D
1d!
0e!
0b
0`
0a
1E
1b
1c
1a
0c
#2000
0!
0C
0D
#2100
1!
1C
1D
1e!
1`
0E
0b
0a
1c
#2200
0!
0C
0D
#2300
1!
1C
1D
1c!
0d!
0e!
1d
1b
0`
0c
1a
1E
0f
0d
0e
1c
0a
1f
1g
1e
0g
#2400
0!
0C
0D
#2500
1!
1C
1D
1e!
1`
0E
1a
#2600
0!
0C
0D
#2700
1!
1C
1D
1d!
0e!
0b
0`
0a
1E
1d
1b
0c
1a
0f
0d
0e
1c
1f
1g
1e
0g
#2800
0!
0C
0D
#2900
1!
1C
1D
1e!
1`
0E
0b
0a
1d
0c
0f
0e
1g
#3000
0!
0C
0D
#3100
1!
1C
1D
1a!
0b!
0c!
0d!
0e!
1h
1f
1R
0d
1b
0`
0g
1e
1c
1a
1E
0h
1i
1g
0e
0c
0a
0i
#3200
0!
0C
0D
#3300
1!
1C
1D
1e!
0R
1`
0E
1a
#3400
0!
0C
0D
#3500
1!
1C
1D
1d!
0e!
0b
0`
0a
1E
1b
1c
1a
0c
#3600
0!
0C
0D
#3700
1!
1C
1D
1e!
1`
0E
0b
0a
1c
#3800
0!
0C
0D
#3900
1!
1C
1D
1c!
0d!
0e!
1d
1b
0`
0c
1a
1E
0d
1e
1c
0a
0e
#4000
0!
0C
0D
#4100
1!
1C
1D
1e!
1`
0E
1a
#4200
0!
0C
0D
#4300
1!
1C
1D
1d!
0e!
0b
0`
0a
1E
1d
1b
0c
1a
0d
1e
1c
0e
#4400
0!
0C
0D
#4500
1!
1C
1D
1e!
1`
0E
0b
0a
1d
0c
1e
#4600
0!
0C
0D
#4700
1!
1C
1D
1b!
0c!
0d!
0e!
0f
0d
1b
0`
0e
1c
1a
1E
1h
1f
0g
1e
0c
0a
0h
1i
1g
0i
#4800
0!
0C
0D
#4900
1!
1C
1D
1e!
1`
0E
1a
#5000
0!
0C
0D
#5100
1!
1C
1D
1d!
0e!
0b
0`
0a
1E
1b
1c
1a
0c
#5200
0!
0C
0D
#5300
1!
1C
1D
1e!
1`
0E
0b
0a
1c
#5400
0!
0C
0D
#5500
1!
1C
1D
1c!
0d!
0e!
1d
1b
0`
0c
1a
1E
0f
0d
0e
1c
0a
1h
1f
0g
1e
0h
1i
1g
0i
#5600
0!
0C
0D
#5700
1!
1C
1D
1e!
1`
0E
1a
#5800
0!
0C
0D
#5900
1!
1C
1D
1d!
0e!
0b
0`
0a
1E
1d
1b
0c
1a
0f
0d
0e
1c
1h
1f
0g
1e
0h
1i
1g
0i
#6000
0!
0C
0D
#6100
1!
1C
1D
1e!
1`
0E
0b
0a
1d
0c
0f
0e
1h
0g
1i
#6200
0!
0C
0D
#6300
1!
1C
1D
1`!
0a!
0b!
0c!
0d!
0e!
0j
0h
1f
1R
0d
1b
0`
0i
1g
1e
1c
1a
1E
1k
1j
1i
0g
0e
0c
0a
0k
#6400
0!
0C
0D
#6500
1!
1C
1D
1e!
0R
1`
0E
1a
#6600
0!
0C
0D
#6700
1!
1C
1D
1d!
0e!
0b
0`
0a
1E
1b
1c
1a
0c
#6800
0!
0C
0D
#6900
1!
1C
1D
1e!
1`
0E
0b
0a
1c
#7000
0!
0C
0D
#7100
1!
1C
1D
1c!
0d!
0e!
1d
1b
0`
0c
1a
1E
0d
1e
1c
0a
0e
#7200
0!
0C
0D
#7300
1!
1C
1D
1e!
1`
0E
1a
#7400
0!
0C
0D
#7500
1!
1C
1D
1d!
0e!
0b
0`
0a
1E
1d
1b
0c
1a
0d
1e
1c
0e
#7600
0!
0C
0D
#7700
1!
1C
1D
1e!
1`
0E
0b
0a
1d
0c
1e
#7800
0!
0C
0D
#7900
1!
1C
1D
1b!
0c!
0d!
0e!
0f
0d
1b
0`
0e
1c
1a
1E
1f
1g
1e
0c
0a
0g
#8000
0!
0C
0D
#8100
1!
1C
1D
1e!
1`
0E
1a
#8200
0!
0C
0D
#8300
1!
1C
1D
1d!
0e!
0b
0`
0a
1E
1b
1c
1a
0c
#8400
0!
0C
0D
#8500
1!
1C
1D
1e!
1`
0E
0b
0a
1c
#8600
0!
0C
0D
#8700
1!
1C
1D
1c!
0d!
0e!
1d
1b
0`
0c
1a
1E
0f
0d
0e
1c
0a
1f
1g
1e
0g
#8800
0!
0C
0D
#8900
1!
1C
1D
1e!
1`
0E
1a
#9000
0!
0C
0D
#9100
1!
1C
1D
1d!
0e!
0b
0`
0a
1E
1d
1b
0c
1a
0f
0d
0e
1c
1f
1g
1e
0g
#9200
0!
0C
0D
#9300
1!
1C
1D
1e!
1`
0E
0b
0a
1d
0c
0f
0e
1g
#9400
0!
0C
0D
#9500
1!
1C
1D
1a!
0b!
0c!
0d!
0e!
1h
1f
1R
0d
1b
0`
0g
1e
1c
1a
1E
0j
0h
0i
1g
0e
0c
0a
1k
1j
1i
0k
#9600
0!
0C
0D
#9700
1!
1C
1D
1e!
0R
1`
0E
1a
#9800
0!
0C
0D
#9900
1!
1C
1D
1d!
0e!
0b
0`
0a
1E
1b
1c
1a
0c
#10000
0!
0C
0D
#10100
1!
1C
1D
1e!
1`
0E
0b
0a
1c
#10200
0!
0C
0D
#10300
1!
1C
1D
1c!
0d!
0e!
1d
1b
0`
0c
1a
1E
0d
1e
1c
0a
0e
#10400
0!
0C
0D
#10500
1!
1C
1D
1e!
1`
0E
1a
#10600
0!
0C
0D
#10700
1!
1C
1D
1d!
0e!
0b
0`
0a
1E
1d
1b
0c
1a
0d
1e
1c
0e
#10800
0!
0C
0D
#10900
1!
1C
1D
1e!
1`
0E
0b
0a
1d
0c
1e
#11000
0!
0C
0D
#11100
1!
1C
1D
1b!
0c!
0d!
0e!
0f
0d
1b
0`
0e
1c
1a
1E
1h
1f
0g
1e
0c
0a
0j
0h
0i
1g
1k
1j
1i
0k
#11200
0!
0C
0D
#11300
1!
1C
1D
1e!
1`
0E
1a
#11400
0!
0C
0D
#11500
1!
1C
1D
1d!
0e!
0b
0`
0a
1E
1b
1c
1a
0c
#11600
0!
0C
0D
#11700
1!
1C
1D
1e!
1`
0E
0b
0a
1c
#11800
0!
0C
0D
#11900
1!
1C
1D
1c!
0d!
0e!
1d
1b
0`
0c
1a
1E
0f
0d
0e
1c
0a
1h
1f
0g
1e
0j
0h
0i
1g
1k
1j
1i
0k
#12000
0!
0C
0D
#12100
1!
1C
1D
1e!
1`
0E
1a
#12200
0!
0C
0D
#12300
1!
1C
1D
1d!
0e!
0b
0`
0a
1E
1d
1b
0c
1a
0f
0d
0e
1c
1h
1f
0g
1e
0j
0h
0i
1g
1k
1j
1i
0k
#12400
0!
0C
0D
#12500
1!
1C
1D
1e!
1`
0E
0b
0a
1d
0c
0f
0e
1h
0g
0j
0i
1k
#12600
0!
0C
0D
#12700
1!
1C
1D
1_!
0`!
0a!
0b!
0c!
0d!
0e!
1l
0k
1j
0h
1f
1R
0d
1b
0`
1i
1g
1e
1c
1a
1E
1m
0l
1k
0i
0g
0e
0c
0a
0m
#12800
0!
0C
0D
#12900
1!
1C
1D
1e!
0R
1`
0E
1a
#13000
0!
0C
0D
#13100
1!
1C
1D
1d!
0e!
0b
0`
0a
1E
1b
1c
1a
0c
#13200
0!
0C
0D
#13300
1!
1C
1D
1e!
1`
0E
0b
0a
1c
#13400
0!
0C
0D
#13500
1!
1C
1D
1c!
0d!
0e!
1d
1b
0`
0c
1a
1E
0d
1e
1c
0a
0e
#13600
0!
0C
0D
#13700
1!
1C
1D
1e!
1`
0E
1a
#13800
0!
0C
0D
#13900
1!
1C
1D
1d!
0e!
0b
0`
0a
1E
1d
1b
0c
1a
0d
1e
1c
0e
#14000
0!
0C
0D
#14100
1!
1C
1D
1e!
1`
0E
0b
0a
1d
0c
1e
#14200
0!
0C
0D
#14300
1!
1C
1D
1b!
0c!
0d!
0e!
0f
0d
1b
0`
0e
1c
1a
1E
1f
1g
1e
0c
0a
0g
#14400
0!
0C
0D
#14500
1!
1C
1D
1e!
1`
0E
1a
#14600
0!
0C
0D
#14700
1!
1C
1D
1d!
0e!
0b
0`
0a
1E
1b
1c
1a
0c
#14800
0!
0C
0D
#14900
1!
1C
1D
1e!
1`
0E
0b
0a
1c
#15000
0!
0C
0D
#15100
1!
1C
1D
1c!
0d!
0e!
1d
1b
0`
0c
1a
1E
0f
0d
0e
1c
0a
1f
1g
1e
0g
#15200
0!
0C
0D
#15300
1!
1C
1D
1e!
1`
0E
1a
#15400
0!
0C
0D
#15500
1!
1C
1D
1d!
0e!
0b
0`
0a
1E
1d
1b
0c
1a
0f
0d
0e
1c
1f
1g
1e
0g
#15600
0!
0C
0D
#15700
1!
1C
1D
1e!
1`
0E
0b
0a
1d
0c
0f
0e
1g
#15800
0!
0C
0D
#15900
1!
1C
1D
1a!
0b!
0c!
0d!
0e!
1h
1f
1R
0d
1b
0`
0g
1e
1c
1a
1E
0h
1i
1g
0e
0c
0a
0i
#16000
0!
0C
0D
#16100
1!
1C
1D
1e!
0R
1`
0E
1a
#16200
0!
0C
0D
#16300
1!
1C
1D
1d!
0e!
0b
0`
0a
1E
1b
1c
1a
0c
#16400
0!
0C
0D
#16500
1!
1C
1D
1e!
1`
0E
0b
0a
1c
#16600
0!
0C
0D
#16700
1!
1C
1D
1c!
0d!
0e!
1d
1b
0`
0c
1a
1E
0d
1e
1c
0a
0e
#16800
0!
0C
0D
#16900
1!
1C
1D
1e!
1`
0E
1a
#17000
0!
0C
0D
#17100
1!
1C
1D
1d!
0e!
0b
0`
0a
1E
1d
1b
0c
1a
0d
1e
1c
0e
#17200
0!
0C
0D
#17300
1!
1C
1D
1e!
1`
0E
0b
0a
1d
0c
1e
#17400
0!
0C
0D
#17500
1!
1C
1D
1b!
0c!
0d!
0e!
0f
0d
1b
0`
0e
1c
1a
1E
1h
1f
0g
1e
0c
0a
0h
1i
1g
0i
#17600
0!
0C
0D
#17700
1!
1C
1D
1e!
1`
0E
1a
#17800
0!
0C
0D
#17900
1!
1C
1D
1d!
0e!
0b
0`
0a
1E
1b
1c
1a
0c
#18000
0!
0C
0D
#18100
1!
1C
1D
1e!
1`
0E
0b
0a
1c
#18200
0!
0C
0D
#18300
1!
1C
1D
1c!
0d!
0e!
1d
1b
0`
0c
1a
1E
0f
0d
0e
1c
0a
1h
1f
0g
1e
0h
1i
1g
0i
#18400
0!
0C
0D
#18500
1!
1C
1D
1e!
1`
0E
1a
#18600
0!
0C
0D
#18700
1!
1C
1D
1d!
0e!
0b
0`
0a
1E
1d
1b
0c
1a
0f
0d
0e
1c
1h
1f
0g
1e
0h
1i
1g
0i
#18800
0!
0C
0D
#18900
1!
1C
1D
1e!
1`
0E
0b
0a
1d
0c
0f
0e
1h
0g
1i
#19000
0!
0C
0D
#19100
1!
1C
1D
1`!
0a!
0b!
0c!
0d!
0e!
0j
0h
1f
1R
0d
1b
0`
0i
1g
1e
1c
1a
1E
1l
0k
1j
1i
0g
0e
0c
0a
1m
0l
1k
0m
#19200
0!
0C
0D
#19300
1!
1C
1D
1e!
0R
1`
0E
1a
#19400
0!
0C
0D
#19500
1!
1C
1D
1d!
0e!
0b
0`
0a
1E
1b
1c
1a
0c
#19600
0!
0C
0D
#19700
1!
1C
1D
1e!
1`
0E
0b
0a
1c
#19800
0!
0C
0D
#19900
1!
1C
1D
1c!
0d!
0e!
1d
1b
0`
0c
1a
1E
0d
1e
1c
0a
0e
#20000
0!
0C
0D
#20100
1!
1C
1D
1e!
1`
0E
1a
#20200
0!
0C
0D
#20300
1!
1C
1D
1d!
0e!
0b
0`
0a
1E
1d
1b
0c
1a
0d
1e
1c
0e
#20400
0!
0C
0D
#20500
1!
1C
1D
1e!
1`
0E
0b
0a
1d
0c
1e
#20600
0!
0C
0D
#20700
1!
1C
1D
1b!
0c!
0d!
0e!
0f
0d
1b
0`
0e
1c
1a
1E
1f
1g
1e
0c
0a
0g
#20800
0!
0C
0D
#20900
1!
1C
1D
1e!
1`
0E
1a
#21000
0!
0C
0D
#21100
1!
1C
1D
1d!
0e!
0b
0`
0a
1E
1b
1c
1a
0c
#21200
0!
0C
0D
#21300
1!
1C
1D
1e!
1`
0E
0b
0a
1c
#21400
0!
0C
0D
#21500
1!
1C
1D
1c!
0d!
0e!
1d
1b
0`
0c
1a
1E
0f
0d
0e
1c
0a
1f
1g
1e
0g
#21600
0!
0C
0D
#21700
1!
1C
1D
1e!
1`
0E
1a
#21800
0!
0C
0D
#21900
1!
1C
1D
1d!
0e!
0b
0`
0a
1E
1d
1b
0c
1a
0f
0d
0e
1c
1f
1g
1e
0g
#22000
0!
0C
0D
#22100
1!
1C
1D
1e!
1`
0E
0b
0a
1d
0c
0f
0e
1g
#22200
0!
0C
0D
#22300
1!
1C
1D
1a!
0b!
0c!
0d!
0e!
1h
1f
1R
0d
1b
0`
0g
1e
1c
1a
1E
0j
0h
0i
1g
0e
0c
0a
1l
0k
1j
1i
1m
0l
1k
0m
#22400
0!
0C
0D
#22500
1!
1C
1D
1e!
0R
1`
0E
1a
#22600
0!
0C
0D
#22700
1!
1C
1D
1d!
0e!
0b
0`
0a
1E
1b
1c
1a
0c
#22800
0!
0C
0D
#22900
1!
1C
1D
1e!
1`
0E
0b
0a
1c
#23000
0!
0C
0D
#23100
1!
1C
1D
1c!
0d!
0e!
1d
1b
0`
0c
1a
1E
0d
1e
1c
0a
0e
#23200
0!
0C
0D
#23300
1!
1C
1D
1e!
1`
0E
1a
#23400
0!
0C
0D
#23500
1!
1C
1D
1d!
0e!
0b
0`
0a
1E
1d
1b
0c
1a
0d
1e
1c
0e
#23600
0!
0C
0D
#23700
1!
1C
1D
1e!
1`
0E
0b
0a
1d
0c
1e
#23800
0!
0C
0D
#23900
1!
1C
1D
1b!
0c!
0d!
0e!
0f
0d
1b
0`
0e
1c
1a
1E
1h
1f
0g
1e
0c
0a
0j
0h
0i
1g
1l
0k
1j
1i
1m
0l
1k
0m
#24000
0!
0C
0D
#24100
1!
1C
1D
1e!
1`
0E
1a
#24200
0!
0C
0D
#24300
1!
1C
1D
1d!
0e!
0b
0`
0a
1E
1b
1c
1a
0c
#24400
0!
0C
0D
#24500
1!
1C
1D
1e!
1`
0E
0b
0a
1c
#24600
0!
0C
0D
#24700
1!
1C
1D
1c!
0d!
0e!
1d
1b
0`
0c
1a
1E
0f
0d
0e
1c
0a
1h
1f
0g
1e
0j
0h
0i
1g
1l
0k
1j
1i
1m
0l
1k
0m
#24800
0!
0C
0D
#24900
1!
1C
1D
1e!
1`
0E
1a
#25000
0!
0C
0D
#25100
1!
1C
1D
1d!
0e!
0b
0`
0a
1E
1d
1b
0c
1a
0f
0d
0e
1c
1h
1f
0g
1e
0j
0h
0i
1g
1l
0k
1j
1i
1m
0l
1k
0m
#25200
0!
0C
0D
#25300
1!
1C
1D
1e!
1`
0E
0b
0a
1d
0c
0f
0e
1h
0g
0j
0i
1l
0k
1m
#25400
0!
0C
0D
#25500
1!
1C
1D
1^!
0_!
0`!
0a!
0b!
0c!
0d!
0e!
0n
0m
0l
1k
1j
0h
1f
1R
0d
1b
0`
1i
1g
1e
1c
1a
1E
1o
1n
1m
0k
0i
0g
0e
0c
0a
0o
#25600
0!
0C
0D
#25700
1!
1C
1D
1e!
0R
1`
0E
1a
#25800
0!
0C
0D
#25900
1!
1C
1D
1d!
0e!
0b
0`
0a
1E
1b
1c
1a
0c
#26000
0!
0C
0D
#26100
1!
1C
1D
1e!
1`
0E
0b
0a
1c
#26200
0!
0C
0D
#26300
1!
1C
1D
1c!
0d!
0e!
1d
1b
0`
0c
1a
1E
0d
1e
1c
0a
0e
#26400
0!
0C
0D
#26500
1!
1C
1D
1e!
1`
0E
1a
#26600
0!
0C
0D
#26700
1!
1C
1D
1d!
0e!
0b
0`
0a
1E
1d
1b
0c
1a
0d
1e
1c
0e
#26800
0!
0C
0D
#26900
1!
1C
1D
1e!
1`
0E
0b
0a
1d
0c
1e
#27000
0!
0C
0D
#27100
1!
1C
1D
1b!
0c!
0d!
0e!
0f
0d
1b
0`
0e
1c
1a
1E
1f
1g
1e
0c
0a
0g
#27200
0!
0C
0D
#27300
1!
1C
1D
1e!
1`
0E
1a
#27400
0!
0C
0D
#27500
1!
1C
1D
1d!
0e!
0b
0`
0a
1E
1b
1c
1a
0c
#27600
0!
0C
0D
#27700
1!
1C
1D
1e!
1`
0E
0b
0a
1c
#27800
0!
0C
0D
#27900
1!
1C
1D
1c!
0d!
0e!
1d
1b
0`
0c
1a
1E
0f
0d
0e
1c
0a
1f
1g
1e
0g
#28000
0!
0C
0D
#28100
1!
1C
1D
1e!
1`
0E
1a
#28200
0!
0C
0D
#28300
1!
1C
1D
1d!
0e!
0b
0`
0a
1E
1d
1b
0c
1a
0f
0d
0e
1c
1f
1g
1e
0g
#28400
0!
0C
0D
#28500
1!
1C
1D
1e!
1`
0E
0b
0a
1d
0c
0f
0e
1g
#28600
0!
0C
0D
#28700
1!
1C
1D
1a!
0b!
0c!
0d!
0e!
1h
1f
1R
0d
1b
0`
0g
1e
1c
1a
1E
0h
1i
1g
0e
0c
0a
0i
#28800
0!
0C
0D
#28900
1!
1C
1D
1e!
0R
1`
0E
1a
#29000
0!
0C
0D
#29100
1!
1C
1D
1d!
0e!
0b
0`
0a
1E
1b
1c
1a
0c
#29200
0!
0C
0D
#29300
1!
1C
1D
1e!
1`
0E
0b
0a
1c
#29400
0!
0C
0D
#29500
1!
1C
1D
1c!
0d!
0e!
1d
1b
0`
0c
1a
1E
0d
1e
1c
0a
0e
#29600
0!
0C
0D
#29700
1!
1C
1D
1e!
1`
0E
1a
#29800
0!
0C
0D
#29900
1!
1C
1D
1d!
0e!
0b
0`
0a
1E
1d
1b
0c
1a
0d
1e
1c
0e
#30000
0!
0C
0D
#30100
1!
1C
1D
1e!
1`
0E
0b
0a
1d
0c
1e
#30200
0!
0C
0D
#30300
1!
1C
1D
1b!
0c!
0d!
0e!
0f
0d
1b
0`
0e
1c
1a
1E
1h
1f
0g
1e
0c
0a
0h
1i
1g
0i
#30400
0!
0C
0D
#30500
1!
1C
1D
1e!
1`
0E
1a
#30600
0!
0C
0D
#30700
1!
1C
1D
1d!
0e!
0b
0`
0a
1E
1b
1c
1a
0c
#30800
0!
0C
0D
#30900
1!
1C
1D
1e!
1`
0E
0b
0a
1c
#31000
0!
0C
0D
#31100
1!
1C
1D
1c!
0d!
0e!
1d
1b
0`
0c
1a
1E
0f
0d
0e
1c
0a
1h
1f
0g
1e
0h
1i
1g
0i
#31200
0!
0C
0D
#31300
1!
1C
1D
1e!
1`
0E
1a
#31400
0!
0C
0D
#31500
1!
1C
1D
1d!
0e!
0b
0`
0a
1E
1d
1b
0c
1a
0f
0d
0e
1c
1h
1f
0g
1e
0h
1i
1g
0i
#31600
0!
0C
0D
#31700
1!
1C
1D
1e!
1`
0E
0b
0a
1d
0c
0f
0e
1h
0g
1i
#31800
0!
0C
0D
#31900
1!
1C
1D
1`!
0a!
0b!
0c!
0d!
0e!
0j
0h
1f
1R
0d
1b
0`
0i
1g
1e
1c
1a
1E
1k
1j
1i
0g
0e
0c
0a
0k
#32000
0!
0C
0D
#32100
1!
1C
1D
1e!
0R
1`
0E
1a
#32200
0!
0C
0D
#32300
1!
1C
1D
1d!
0e!
0b
0`
0a
1E
1b
1c
1a
0c
#32400
0!
0C
0D
#32500
1!
1C
1D
1e!
1`
0E
0b
0a
1c
#32600
0!
0C
0D
