fpga_projects/project4/threeBitsCounter/simulation/qsim/asyncCounter.msim.vcd
$comment
	File created using the following command:
		vcd file asyncCounter.msim.vcd -direction
$end
$date
	Thu Sep 14 16:21:41 2023
$end
$version
	ModelSim Version 10.5b
$end
$timescale
	1ps
$end

$scope module asyncCounter_vlg_vec_tst $end
$var reg 1 ! asyncClock $end
$var reg 1 " resetButton $end
$var wire 1 # a $end
$var wire 1 $ b $end
$var wire 1 % c $end
$var wire 1 & d $end
$var wire 1 ' e $end
$var wire 1 ( f $end
$var wire 1 ) g $end

$scope module i1 $end
$var wire 1 * gnd $end
$var wire 1 + vcc $end
$var wire 1 , unknown $end
$var tri1 1 - devclrn $end
$var tri1 1 . devpor $end
$var tri1 1 / devoe $end
$var wire 1 0 a~output_o $end
$var wire 1 1 b~output_o $end
$var wire 1 2 c~output_o $end
$var wire 1 3 d~output_o $end
$var wire 1 4 e~output_o $end
$var wire 1 5 f~output_o $end
$var wire 1 6 g~output_o $end
$var wire 1 7 asyncClock~input_o $end
$var wire 1 8 inst7~0_combout $end
$var wire 1 9 inst7~feeder_combout $end
$var wire 1 : resetButton~input_o $end
$var wire 1 ; resetButton~inputclkctrl_outclk $end
$var wire 1 < inst7~q $end
$var wire 1 = inst8~0_combout $end
$var wire 1 > inst8~q $end
$var wire 1 ? inst~0_combout $end
$var wire 1 @ inst~q $end
$var wire 1 A inst1|instA~0_combout $end
$var wire 1 B inst1|instB~0_combout $end
$var wire 1 C inst1|instC~combout $end
$var wire 1 D inst1|instD~0_combout $end
$var wire 1 E inst1|instE~0_combout $end
$var wire 1 F inst1|instF~0_combout $end
$var wire 1 G inst1|instG~0_combout $end
$upscope $end
$upscope $end
$enddefinitions $end
#0
$dumpvars
0!
0"
0#
0$
0%
0&
0'
0(
1)
0*
1+
x,
1-
1.
1/
00
01
02
03
04
05
16
07
18
19
0:
0;
0<
1=
0>
1?
0@
1A
1B
1C
0D
0E
0F
1G
$end
#10000
1!
17
#20000
0!
07
1<
0A
08
1F
1E
1D
13
14
15
10
1#
1(
1'
1&
09
#30000
1!
17
#40000
0!
07
0<
1A
18
0F
0E
0D
03
04
05
00
0#
0(
0'
0&
19
1>
0C
0=
0G
1F
15
06
12
1%
0)
1(
#50000
1!
17
#60000
0!
07
1<
1C
08
1E
14
02
0%
1'
09
#70000
1!
17
#80000
0!
07
0<
0C
18
0E
04
12
1%
0'
19
0>
1C
1=
1G
0F
05
16
02
0%
1)
0(
1@
0A
0G
1E
1D
0?
13
14
06
10
1#
0)
1'
1&
#90000
1!
17
#100000
0!
07
1<
0B
1A
08
0D
03
00
11
1$
0#
0&
09
#110000
1!
17
#120000
0!
07
0<
1B
0A
18
1D
13
10
01
0$
1#
1&
19
1>
0B
1A
0=
0E
0D
03
04
00
11
1$
0#
0'
0&
#130000
1!
17
#140000
0!
07
1<
1B
08
1G
1F
1E
1D
13
14
15
16
01
0$
1)
1(
1'
1&
09
#150000
1!
17
#160000
0!
07
0<
0B
18
0G
0F
0E
0D
03
04
05
06
11
1$
0)
0(
0'
0&
19
0>
1B
0A
1=
1E
1D
13
14
10
01
0$
1#
1'
1&
0@
1A
1G
0E
0D
1?
03
04
16
00
0#
1)
0'
0&
#170000
1!
17
#180000
0!
07
1<
0A
08
1F
1E
1D
13
14
15
10
1#
1(
1'
1&
09
#190000
1!
17
#200000
0!
07
0<
1A
18
0F
0E
0D
03
04
05
00
0#
0(
0'
0&
19
1>
0C
0=
0G
1F
15
06
12
1%
0)
1(
#210000
1!
17
#220000
0!
07
1<
1C
08
1E
14
02
0%
1'
09
#230000
1!
17
#240000
0!
07
0<
0C
18
0E
04
12
1%
0'
19
0>
1C
1=
1G
0F
05
16
02
0%
1)
0(
1@
0A
0G
1E
1D
0?
13
14
06
10
1#
0)
1'
1&
#250000
1!
17
#260000
0!
07
1<
0B
1A
08
0D
03
00
11
1$
0#
0&
09
#270000
1!
17
#280000
0!
07
0<
1B
0A
18
1D
13
10
01
0$
1#
1&
19
1>
0B
1A
0=
0E
0D
03
04
00
11
1$
0#
0'
0&
#290000
1!
17
#300000
0!
07
1<
1B
08
1G
1F
1E
1D
13
14
15
16
01
0$
1)
1(
1'
1&
09
#310000
1!
17
#320000
0!
07
0<
0B
18
0G
0F
0E
0D
03
04
05
06
11
1$
0)
0(
0'
0&
19
0>
1B
0A
1=
1E
1D
13
14
10
01
0$
1#
1'
1&
0@
1A
1G
0E
0D
1?
03
04
16
00
0#
1)
0'
0&
#330000
1!
17
#340000
0!
07
1<
0A
08
1F
1E
1D
13
14
15
10
1#
1(
1'
1&
09
#350000
1!
17
#360000
0!
07
0<
1A
18
0F
0E
0D
03
04
05
00
0#
0(
0'
0&
19
1>
0C
0=
0G
1F
15
06
12
1%
0)
1(
#370000
1!
17
#380000
0!
07
1<
1C
08
1E
14
02
0%
1'
09
#390000
1!
17
#400000
0!
07
0<
0C
18
0E
04
12
1%
0'
19
0>
1C
1=
1G
0F
05
16
02
0%
1)
0(
1@
0A
0G
1E
1D
0?
13
14
06
10
1#
0)
1'
1&
#410000
1!
17
#420000
0!
07
1<
0B
1A
08
0D
03
00
11
1$
0#
0&
09
#430000
1!
17
#440000
0!
07
0<
1B
0A
18
1D
13
10
01
0$
1#
1&
19
1>
0B
1A
0=
0E
0D
03
04
00
11
1$
0#
0'
0&
#450000
1!
17
#460000
0!
07
1<
1B
08
1G
1F
1E
1D
13
14
15
16
01
0$
1)
1(
1'
1&
09
#470000
1!
17
#480000
0!
07
0<
0B
18
0G
0F
0E
0D
03
04
05
06
11
1$
0)
0(
0'
0&
19
0>
1B
0A
1=
1E
1D
13
14
10
01
0$
1#
1'
1&
0@
1A
1G
0E
0D
1?
03
04
16
00
0#
1)
0'
0&
#490000
1!
17
#500000
0!
07
1<
0A
08
1F
1E
1D
13
14
15
10
1#
1(
1'
1&
09
#510000
1!
17
#520000
0!
07
0<
1A
18
0F
0E
0D
03
04
05
00
0#
0(
0'
0&
19
1>
0C
0=
0G
1F
15
06
12
1%
0)
1(
#530000
1!
17
#540000
0!
07
1<
1C
08
1E
14
02
0%
1'
09
#550000
1!
17
#560000
0!
07
0<
0C
18
0E
04
12
1%
0'
19
0>
1C
1=
1G
0F
05
16
02
0%
1)
0(
1@
0A
0G
1E
1D
0?
13
14
06
10
1#
0)
1'
1&
#570000
1!
17
#580000
0!
07
1<
0B
1A
08
0D
03
00
11
1$
0#
0&
09
#590000
1!
17
#600000
0!
07
0<
1B
0A
18
1D
13
10
01
0$
1#
1&
19
1>
0B
1A
0=
0E
0D
03
04
00
11
1$
0#
0'
0&
#610000
1!
17
#620000
0!
07
1<
1B
08
1G
1F
1E
1D
13
14
15
16
01
0$
1)
1(
1'
1&
09
#630000
1!
17
#640000
0!
07
0<
0B
18
0G
0F
0E
0D
03
04
05
06
11
1$
0)
0(
0'
0&
19
0>
1B
0A
1=
1E
1D
13
14
10
01
0$
1#
1'
1&
0@
1A
1G
0E
0D
1?
03
04
16
00
0#
1)
0'
0&
#650000
1!
17
#660000
0!
07
1<
0A
08
1F
1E
1D
13
14
15
10
1#
1(
1'
1&
09
#670000
1!
17
#680000
0!
07
0<
1A
18
0F
0E
0D
03
04
05
00
0#
0(
0'
0&
19
1>
0C
0=
0G
1F
15
06
12
1%
0)
1(
#690000
1!
17
#700000
0!
07
1<
1C
08
1E
14
02
0%
1'
09
#710000
1!
17
#720000
0!
07
0<
0C
18
0E
04
12
1%
0'
19
0>
1C
1=
1G
0F
05
16
02
0%
1)
0(
1@
0A
0G
1E
1D
0?
13
14
06
10
1#
0)
1'
1&
#730000
1!
17
#740000
0!
07
1<
0B
1A
08
0D
03
00
11
1$
0#
0&
09
#750000
1!
17
#760000
0!
07
0<
1B
0A
18
1D
13
10
01
0$
1#
1&
19
1>
0B
1A
0=
0E
0D
03
04
00
11
1$
0#
0'
0&
#770000
1!
17
#780000
0!
07
1<
1B
08
1G
1F
1E
1D
13
14
15
16
01
0$
1)
1(
1'
1&
09
#790000
1!
17
#800000
0!
07
0<
0B
18
0G
0F
0E
0D
03
04
05
06
11
1$
0)
0(
0'
0&
19
0>
1B
0A
1=
1E
1D
13
14
10
01
0$
1#
1'
1&
0@
1A
1G
0E
0D
1?
03
04
16
00
0#
1)
0'
0&
#810000
1!
17
#820000
0!
07
1<
0A
08
1F
1E
1D
13
14
15
10
1#
1(
1'
1&
09
#830000
1!
17
#840000
0!
07
0<
1A
18
0F
0E
0D
03
04
05
00
0#
0(
0'
0&
19
1>
0C
0=
0G
1F
15
06
12
1%
0)
1(
#850000
1!
17
#860000
0!
07
1<
1C
08
1E
14
02
0%
1'
09
#870000
1!
17
#880000
0!
07
0<
0C
18
0E
04
12
1%
0'
19
0>
1C
1=
1G
0F
05
16
02
0%
1)
0(
1@
0A
0G
1E
1D
0?
13
14
06
10
1#
0)
1'
1&
#890000
1!
17
#900000
0!
07
1<
0B
1A
08
0D
03
00
11
1$
0#
0&
09
#910000
1!
17
#920000
0!
07
0<
1B
0A
18
1D
13
10
01
0$
1#
1&
19
1>
0B
1A
0=
0E
0D
03
04
00
11
1$
0#
0'
0&
#930000
1!
17
#940000
0!
07
1<
1B
08
1G
1F
1E
1D
13
14
15
16
01
0$
1)
1(
1'
1&
09
#950000
1!
17
#960000
0!
07
0<
0B
18
0G
0F
0E
0D
03
04
05
06
11
1$
0)
0(
0'
0&
19
0>
1B
0A
1=
1E
1D
13
14
10
01
0$
1#
1'
1&
0@
1A
1G
0E
0D
1?
03
04
16
00
0#
1)
0'
0&
#970000
1!
17
#980000
0!
07
1<
0A
08
1F
1E
1D
13
14
15
10
1#
1(
1'
1&
09
#990000
1!
17
