fpga_projects/project11/mealy_state_machine/simulation/qsim/main.msim.vcd
$comment
	File created using the following command:
		vcd file main.msim.vcd -direction
$end
$date
	Fri Dec 08 14:43:07 2023
$end
$version
	ModelSim Version 10.5b
$end
$timescale
	1ps
$end

$scope module main_vlg_vec_tst $end
$var reg 1 ! clock $end
$var reg 1 " reset $end
$var reg 2 # select [1:0] $end
$var wire 1 $ a $end
$var wire 1 % b $end
$var wire 1 & c $end
$var wire 1 ' d $end
$var wire 1 ( e $end
$var wire 1 ) f $end
$var wire 1 * filtered_clock $end
$var wire 1 + g $end
$var wire 1 , out [3] $end
$var wire 1 - out [2] $end
$var wire 1 . out [1] $end
$var wire 1 / out [0] $end

$scope module i1 $end
$var wire 1 0 gnd $end
$var wire 1 1 vcc $end
$var wire 1 2 unknown $end
$var tri1 1 3 devclrn $end
$var tri1 1 4 devpor $end
$var tri1 1 5 devoe $end
$var wire 1 6 out[0]~output_o $end
$var wire 1 7 out[1]~output_o $end
$var wire 1 8 out[2]~output_o $end
$var wire 1 9 out[3]~output_o $end
$var wire 1 : filtered_clock~output_o $end
$var wire 1 ; a~output_o $end
$var wire 1 < b~output_o $end
$var wire 1 = c~output_o $end
$var wire 1 > d~output_o $end
$var wire 1 ? e~output_o $end
$var wire 1 @ f~output_o $end
$var wire 1 A g~output_o $end
$var wire 1 B clock~input_o $end
$var wire 1 C clock~inputclkctrl_outclk $end
$var wire 1 D select[0]~input_o $end
$var wire 1 E select[1]~input_o $end
$var wire 1 F state_machine|Selector4~0_combout $end
$var wire 1 G state_machine|Selector4~1_combout $end
$var wire 1 H reset~input_o $end
$var wire 1 I state_machine|actualState.E~q $end
$var wire 1 J state_machine|Selector5~0_combout $end
$var wire 1 K state_machine|Selector5~1_combout $end
$var wire 1 L state_machine|actualState.F~q $end
$var wire 1 M state_machine|Selector12~1_combout $end
$var wire 1 N state_machine|Selector12~2_combout $end
$var wire 1 O state_machine|actualState.G~q $end
$var wire 1 P state_machine|Selector7~0_combout $end
$var wire 1 Q state_machine|Selector7~1_combout $end
$var wire 1 R state_machine|actualState.H~q $end
$var wire 1 S state_machine|Selector8~0_combout $end
$var wire 1 T state_machine|Selector8~1_combout $end
$var wire 1 U state_machine|actualState.I~q $end
$var wire 1 V state_machine|Selector10~0_combout $end
$var wire 1 W state_machine|actualState.displayOff~q $end
$var wire 1 X state_machine|Selector0~0_combout $end
$var wire 1 Y state_machine|Selector0~1_combout $end
$var wire 1 Z state_machine|actualState.A~q $end
$var wire 1 [ state_machine|Selector1~0_combout $end
$var wire 1 \ state_machine|Selector1~1_combout $end
$var wire 1 ] state_machine|actualState.B~q $end
$var wire 1 ^ state_machine|Selector11~0_combout $end
$var wire 1 _ state_machine|Selector2~0_combout $end
$var wire 1 ` state_machine|actualState.C~q $end
$var wire 1 a state_machine|Selector3~0_combout $end
$var wire 1 b state_machine|Selector3~1_combout $end
$var wire 1 c state_machine|actualState.D~q $end
$var wire 1 d state_machine|Selector13~0_combout $end
$var wire 1 e state_machine|Selector13~3_combout $end
$var wire 1 f state_machine|Selector13~2_combout $end
$var wire 1 g state_machine|Selector13~1_combout $end
$var wire 1 h state_machine|Selector13~4_combout $end
$var wire 1 i state_machine|Selector13~5_combout $end
$var wire 1 j state_machine|Selector12~3_combout $end
$var wire 1 k state_machine|Selector12~0_combout $end
$var wire 1 l state_machine|Selector12~4_combout $end
$var wire 1 m state_machine|Selector12~5_combout $end
$var wire 1 n state_machine|Selector11~3_combout $end
$var wire 1 o state_machine|Selector11~2_combout $end
$var wire 1 p state_machine|Selector11~1_combout $end
$var wire 1 q state_machine|Selector11~4_combout $end
$var wire 1 r divider|Add0~0_combout $end
$var wire 1 s divider|out~1_combout $end
$var wire 1 t divider|Add0~1 $end
$var wire 1 u divider|Add0~2_combout $end
$var wire 1 v divider|Add0~3 $end
$var wire 1 w divider|Add0~4_combout $end
$var wire 1 x divider|Add0~5 $end
$var wire 1 y divider|Add0~6_combout $end
$var wire 1 z divider|Add0~7 $end
$var wire 1 { divider|Add0~8_combout $end
$var wire 1 | divider|Add0~9 $end
$var wire 1 } divider|Add0~10_combout $end
$var wire 1 ~ divider|Add0~11 $end
$var wire 1 !! divider|Add0~12_combout $end
$var wire 1 "! divider|Add0~13 $end
$var wire 1 #! divider|Add0~14_combout $end
$var wire 1 $! divider|out~0_combout $end
$var wire 1 %! divider|Add0~15 $end
$var wire 1 &! divider|Add0~16_combout $end
$var wire 1 '! divider|Add0~17 $end
$var wire 1 (! divider|Add0~18_combout $end
$var wire 1 )! divider|Add0~19 $end
$var wire 1 *! divider|Add0~20_combout $end
$var wire 1 +! divider|Add0~21 $end
$var wire 1 ,! divider|Add0~22_combout $end
$var wire 1 -! divider|Add0~23 $end
$var wire 1 .! divider|Add0~24_combout $end
$var wire 1 /! divider|out~2_combout $end
$var wire 1 0! divider|Add0~25 $end
$var wire 1 1! divider|Add0~26_combout $end
$var wire 1 2! divider|out~3_combout $end
$var wire 1 3! divider|Add0~27 $end
$var wire 1 4! divider|Add0~28_combout $end
$var wire 1 5! divider|out~4_combout $end
$var wire 1 6! divider|Add0~29 $end
$var wire 1 7! divider|Add0~30_combout $end
$var wire 1 8! divider|out~5_combout $end
$var wire 1 9! divider|Add0~31 $end
$var wire 1 :! divider|Add0~32_combout $end
$var wire 1 ;! divider|Add0~33 $end
$var wire 1 <! divider|Add0~34_combout $end
$var wire 1 =! divider|out~6_combout $end
$var wire 1 >! divider|Add0~35 $end
$var wire 1 ?! divider|Add0~36_combout $end
$var wire 1 @! divider|Add0~37 $end
$var wire 1 A! divider|Add0~38_combout $end
$var wire 1 B! divider|out~7_combout $end
$var wire 1 C! divider|Equal0~5_combout $end
$var wire 1 D! divider|Add0~39 $end
$var wire 1 E! divider|Add0~40_combout $end
$var wire 1 F! divider|out~8_combout $end
$var wire 1 G! divider|Add0~41 $end
$var wire 1 H! divider|Add0~42_combout $end
$var wire 1 I! divider|out~9_combout $end
$var wire 1 J! divider|Add0~43 $end
$var wire 1 K! divider|Add0~44_combout $end
$var wire 1 L! divider|out~10_combout $end
$var wire 1 M! divider|Add0~45 $end
$var wire 1 N! divider|Add0~46_combout $end
$var wire 1 O! divider|out~11_combout $end
$var wire 1 P! divider|Equal0~6_combout $end
$var wire 1 Q! divider|Add0~47 $end
$var wire 1 R! divider|Add0~48_combout $end
$var wire 1 S! divider|Add0~49 $end
$var wire 1 T! divider|Add0~50_combout $end
$var wire 1 U! divider|out~12_combout $end
$var wire 1 V! divider|Equal0~7_combout $end
$var wire 1 W! divider|Equal0~3_combout $end
$var wire 1 X! divider|Equal0~0_combout $end
$var wire 1 Y! divider|Equal0~2_combout $end
$var wire 1 Z! divider|Equal0~1_combout $end
$var wire 1 [! divider|Equal0~4_combout $end
$var wire 1 \! divider|Equal0~8_combout $end
$var wire 1 ]! divider|filtered_clock~q $end
$var wire 1 ^! decoder|WideOr0~0_combout $end
$var wire 1 _! decoder|WideOr1~0_combout $end
$var wire 1 `! decoder|WideOr2~0_combout $end
$var wire 1 a! decoder|WideOr3~0_combout $end
$var wire 1 b! decoder|WideOr4~0_combout $end
$var wire 1 c! decoder|WideOr5~0_combout $end
$var wire 1 d! decoder|WideOr6~0_combout $end
$var wire 1 e! divider|out [25] $end
$var wire 1 f! divider|out [24] $end
$var wire 1 g! divider|out [23] $end
$var wire 1 h! divider|out [22] $end
$var wire 1 i! divider|out [21] $end
$var wire 1 j! divider|out [20] $end
$var wire 1 k! divider|out [19] $end
$var wire 1 l! divider|out [18] $end
$var wire 1 m! divider|out [17] $end
$var wire 1 n! divider|out [16] $end
$var wire 1 o! divider|out [15] $end
$var wire 1 p! divider|out [14] $end
$var wire 1 q! divider|out [13] $end
$var wire 1 r! divider|out [12] $end
$var wire 1 s! divider|out [11] $end
$var wire 1 t! divider|out [10] $end
$var wire 1 u! divider|out [9] $end
$var wire 1 v! divider|out [8] $end
$var wire 1 w! divider|out [7] $end
$var wire 1 x! divider|out [6] $end
$var wire 1 y! divider|out [5] $end
$var wire 1 z! divider|out [4] $end
$var wire 1 {! divider|out [3] $end
$var wire 1 |! divider|out [2] $end
$var wire 1 }! divider|out [1] $end
$var wire 1 ~! divider|out [0] $end
$upscope $end
$upscope $end
$enddefinitions $end
#0
$dumpvars
0!
0"
b0 #
0$
0%
0&
1'
1(
1)
0*
1+
1/
1.
1-
0,
00
11
x2
13
14
15
16
17
18
09
0:
0;
0<
0=
1>
1?
1@
1A
0B
0C
0D
0E
0F
0G
0H
0I
0J
0K
0L
1M
0N
0O
0P
0Q
0R
0S
0T
0U
0V
0W
0X
0Y
0Z
0[
0\
0]
1^
0_
0`
0a
0b
0c
1d
1e
1f
1g
1h
1i
1j
1k
1l
1m
1n
1o
1p
1q
1r
1s
0t
0u
1v
0w
0x
0y
1z
0{
0|
0}
1~
0!!
0"!
0#!
0$!
1%!
0&!
0'!
0(!
1)!
0*!
0+!
0,!
1-!
0.!
0/!
00!
01!
02!
13!
04!
05!
06!
07!
08!
19!
0:!
0;!
0<!
0=!
1>!
0?!
0@!
0A!
0B!
0C!
1D!
0E!
0F!
0G!
0H!
0I!
1J!
0K!
0L!
0M!
0N!
0O!
0P!
1Q!
0R!
0S!
0T!
0U!
0V!
0W!
0X!
1Y!
1Z!
0[!
0\!
0]!
0^!
0_!
0`!
1a!
1b!
1c!
0d!
0~!
0}!
0|!
0{!
0z!
0y!
0x!
0w!
0v!
0u!
0t!
0s!
0r!
0q!
0p!
0o!
0n!
0m!
0l!
0k!
0j!
0i!
0h!
0g!
0f!
0e!
$end
#10000
1!
1B
1C
1~!
0Y!
1t
0r
1u
0s
#20000
0!
0B
0C
#30000
1!
1B
1C
1}!
0~!
0v
0t
1r
0u
1v
1w
1u
1s
0w
#40000
0!
0B
0C
#50000
1!
1B
1C
1~!
1t
0r
0v
0u
0s
1w
#60000
0!
0B
0C
#70000
1!
1B
1C
1|!
0}!
0~!
1x
1v
0t
1r
0w
1u
0x
1y
1w
0u
1s
0y
#80000
0!
0B
0C
#90000
1!
1B
1C
1~!
1t
0r
1u
0s
#100000
0!
0B
0C
#110000
1!
1B
1C
1}!
0~!
0v
0t
1r
0u
1x
1v
0w
1u
1s
0x
1y
1w
0y
#120000
0!
0B
0C
#130000
1!
1B
1C
1~!
1t
0r
0v
0u
0s
1x
0w
1y
#140000
0!
0B
0C
#150000
1!
1B
1C
1{!
0|!
0}!
0~!
0Z!
0z
1Y!
0x
1v
0t
1r
0y
1w
1u
1z
1{
1y
0w
0u
1s
0{
#160000
0!
0B
0C
#170000
1!
1B
1C
1~!
0Y!
1t
0r
1u
0s
#180000
0!
0B
0C
#190000
1!
1B
1C
1}!
0~!
0v
0t
1r
0u
1v
1w
1u
1s
0w
#200000
b1 #
0!
1D
0B
0C
0d
1Y
1T
0h
0i
06
1d!
0/
0c!
0b!
0a!
1_!
1<
0>
0?
0@
0A
0+
0)
0(
0'
1%
#210000
1!
1B
1C
1~!
1Z
1U
1t
0r
1d
0p
0f
1P
0T
0v
0u
0s
0q
1Q
08
0-
1w
1c!
1`!
0_!
0<
1=
1@
1)
1&
0%
#220000
0!
0B
0C
#230000
1!
1B
1C
1|!
0}!
0~!
0U
1R
1x
1v
0t
1r
1p
1f
0P
0n
0g
0M
0w
1u
0z
0x
1N
0y
1w
0u
1s
0Q
1z
1{
1y
0m
07
0d!
0.
0{
0c!
0`!
0=
0@
1A
1+
0)
0&
#240000
0!
0B
0C
#250000
1!
1B
1C
1~!
0R
1O
1t
0r
1n
1g
1M
0p
1J
1h
0N
1u
0s
1K
1i
1m
17
16
1d!
1/
1.
1c!
1b!
1?
1@
0A
0+
1)
1(
#260000
0!
0B
0C
#270000
1!
1B
1C
1}!
0~!
0O
1L
0v
0t
1r
1p
0J
0o
0g
1F
0u
1x
1v
0h
0w
1u
1s
0K
1G
0z
0x
0y
1w
0i
06
1z
0/
1{
1y
0b!
1`!
1=
0?
0(
1&
0{
#280000
0!
0B
0C
#290000
1!
1B
1C
1~!
0L
1I
1t
0r
1o
1g
0F
0l
0e
1a
0v
0u
0s
1q
0G
0m
1b
07
18
1x
1-
0.
0w
0c!
1b!
1a!
0`!
1^!
1;
0=
1>
1?
0@
0z
0)
1(
1'
0&
1$
0y
1{
#300000
1"
0!
1H
0B
0C
0I
0Z
1l
1e
0a
1T
1h
1m
0b
17
1.
1i
0b!
0a!
1_!
0^!
0;
1<
0>
0?
16
0d!
1/
0(
0'
1%
0$
1c!
1b!
1a!
0_!
0<
1>
1?
1@
1A
1+
1)
1(
1'
0%
#310000
1!
1B
1C
1z!
0{!
0|!
0}!
0~!
1|
1z
1Y!
0x
1v
0t
1r
0{
1y
1w
1u
0|
1}
1{
0y
0w
0u
1s
0}
#320000
0!
0B
0C
#330000
1!
1B
1C
1~!
0Y!
1t
0r
1u
0s
#340000
0!
0B
0C
#350000
1!
1B
1C
1}!
0~!
0v
0t
1r
0u
1v
1w
1u
1s
0w
#360000
0!
0B
0C
#370000
1!
1B
1C
1~!
1t
0r
0v
0u
0s
1w
#380000
0!
0B
0C
#390000
1!
1B
1C
1|!
0}!
0~!
1x
1v
0t
1r
0w
1u
0x
1y
1w
0u
1s
0y
#400000
b11 #
b10 #
0!
0D
1E
0B
0C
1\
0T
#410000
1!
1B
1C
1~!
1t
0r
1u
0s
#420000
0!
0B
0C
#430000
1!
1B
1C
1}!
0~!
0v
0t
1r
0u
1x
1v
0w
1u
1s
0x
1y
1w
0y
#440000
0!
0B
0C
#450000
1!
1B
1C
1~!
1t
0r
0v
0u
0s
1x
0w
1y
#460000
0!
0B
0C
#470000
1!
1B
1C
1{!
0|!
0}!
0~!
0z
1Y!
0x
1v
0t
1r
0y
1w
1u
1|
1z
0{
1y
0w
0u
1s
0|
1}
1{
0}
#480000
0!
0B
0C
#490000
1!
1B
1C
1~!
0Y!
1t
0r
1u
0s
#500000
0!
0B
0C
#510000
1!
1B
1C
1}!
0~!
0v
0t
1r
0u
1v
1w
1u
1s
0w
#520000
0!
0B
0C
#530000
1!
1B
1C
1~!
1t
0r
0v
0u
0s
1w
#540000
0!
0B
0C
#550000
1!
1B
1C
1|!
0}!
0~!
1x
1v
0t
1r
0w
1u
0z
0x
0y
1w
0u
1s
1|
1z
0{
1y
0|
1}
1{
0}
#560000
0!
0B
0C
#570000
1!
1B
1C
1~!
1t
0r
1u
0s
#580000
0!
0B
0C
#590000
1!
1B
1C
1}!
0~!
0v
0t
1r
0u
1x
1v
0w
1u
1s
0z
0x
0y
1w
1|
1z
0{
1y
0|
1}
1{
0}
#600000
0"
b11 #
0!
0H
1D
0B
0C
0\
1V
19
1,
1`!
1_!
1^!
1;
1<
1=
1&
1%
1$
#610000
1!
1B
1C
1~!
1Z
1W
1t
0r
1X
0v
0u
0s
1x
0w
0z
0y
1|
0{
1}
#620000
0!
0B
0C
#630000
1!
1B
1C
1y!
0z!
0{!
0|!
0}!
0~!
0~
0|
1z
1Y!
0x
1v
0t
1r
0}
1{
1y
1w
1u
1~
1!!
1}
0{
0y
0w
0u
1s
0!!
#640000
0!
0B
0C
#650000
1!
1B
1C
1~!
0Y!
1t
0r
1u
0s
#660000
0!
0B
0C
#670000
1!
1B
1C
1}!
0~!
0v
0t
1r
0u
1v
1w
1u
1s
0w
#680000
0!
0B
0C
#690000
1!
1B
1C
1~!
1t
0r
0v
0u
0s
1w
#700000
0!
0B
0C
#710000
1!
1B
1C
1|!
0}!
0~!
1x
1v
0t
1r
0w
1u
0x
1y
1w
0u
1s
0y
#720000
0!
0B
0C
#730000
1!
1B
1C
1~!
1t
0r
1u
0s
#740000
0!
0B
0C
#750000
1!
1B
1C
1}!
0~!
0v
0t
1r
0u
1x
1v
0w
1u
1s
0x
1y
1w
0y
#760000
0!
0B
0C
#770000
1!
1B
1C
1~!
1t
0r
0v
0u
0s
1x
0w
1y
#780000
0!
0B
0C
#790000
1!
1B
1C
1{!
0|!
0}!
0~!
0z
1Y!
0x
1v
0t
1r
0y
1w
1u
1z
1{
1y
0w
0u
1s
0{
#800000
b1 #
b0 #
0!
0D
0E
0B
0C
#810000
1!
1B
1C
1~!
0Y!
1t
0r
1u
0s
#820000
0!
0B
0C
#830000
1!
1B
1C
1}!
0~!
0v
0t
1r
0u
1v
1w
1u
1s
0w
#840000
0!
0B
0C
#850000
1!
1B
1C
1~!
1t
0r
0v
0u
0s
1w
#860000
0!
0B
0C
#870000
1!
1B
1C
1|!
0}!
0~!
1x
1v
0t
1r
0w
1u
0z
0x
0y
1w
0u
1s
1z
1{
1y
0{
#880000
0!
0B
0C
#890000
1!
1B
1C
1~!
1t
0r
1u
0s
#900000
1"
0!
1H
0B
0C
0W
0Z
0X
0V
0Y
09
0,
0`!
0_!
0^!
0;
0<
0=
0&
0%
0$
#910000
1!
1B
1C
1}!
0~!
0v
0t
1r
0u
1x
1v
0w
1u
1s
0z
0x
0y
1w
1z
1{
1y
0{
#920000
0!
0B
0C
#930000
1!
1B
1C
1~!
1t
0r
0v
0u
0s
1x
0w
0z
0y
1{
#940000
0!
0B
0C
#950000
1!
1B
1C
1z!
0{!
0|!
0}!
0~!
1|
1z
1Y!
0x
1v
0t
1r
0{
1y
1w
1u
0~
0|
0}
1{
0y
0w
0u
1s
1~
1!!
1}
0!!
#960000
0!
0B
0C
#970000
1!
1B
1C
1~!
0Y!
1t
0r
1u
0s
#980000
0!
0B
0C
#990000
1!
1B
1C
1}!
0~!
0v
0t
1r
0u
1v
1w
1u
1s
0w
