fpga_projects/project5/debouncer/simulation/qsim/debouncer.msim.vcd
$comment
	File created using the following command:
		vcd file debouncer.msim.vcd -direction
$end
$date
	Sun Nov 19 23:06:16 2023
$end
$version
	ModelSim Version 10.5b
$end
$timescale
	1ps
$end

$scope module debouncer_vlg_vec_tst $end
$var reg 1 ! asyncReset $end
$var reg 1 " clock $end
$var reg 1 # fpgaClock $end
$var reg 1 $ selectAscDesc $end
$var wire 1 % a $end
$var wire 1 & b $end
$var wire 1 ' c $end
$var wire 1 ( d $end
$var wire 1 ) e $end
$var wire 1 * f $end
$var wire 1 + filtered_output $end
$var wire 1 , g $end

$scope module i1 $end
$var wire 1 - gnd $end
$var wire 1 . vcc $end
$var wire 1 / unknown $end
$var tri1 1 0 devclrn $end
$var tri1 1 1 devpor $end
$var tri1 1 2 devoe $end
$var wire 1 3 a~output_o $end
$var wire 1 4 b~output_o $end
$var wire 1 5 c~output_o $end
$var wire 1 6 d~output_o $end
$var wire 1 7 e~output_o $end
$var wire 1 8 f~output_o $end
$var wire 1 9 g~output_o $end
$var wire 1 : filtered_output~output_o $end
$var wire 1 ; fpgaClock~input_o $end
$var wire 1 < clock~input_o $end
$var wire 1 = inst1|inst~feeder_combout $end
$var wire 1 > inst1|inst~q $end
$var wire 1 ? inst1|inst1~feeder_combout $end
$var wire 1 @ inst1|inst1~q $end
$var wire 1 A inst1|inst2~feeder_combout $end
$var wire 1 B inst1|inst2~q $end
$var wire 1 C inst1|inst4~combout $end
$var wire 1 D inst3~0_combout $end
$var wire 1 E asyncReset~input_o $end
$var wire 1 F inst3~q $end
$var wire 1 G selectAscDesc~input_o $end
$var wire 1 H inst9~combout $end
$var wire 1 I inst4~0_combout $end
$var wire 1 J inst4~q $end
$var wire 1 K inst14~combout $end
$var wire 1 L inst5~0_combout $end
$var wire 1 M inst5~q $end
$var wire 1 N inst77|instA~0_combout $end
$var wire 1 O inst77|instB~0_combout $end
$var wire 1 P inst77|instC~combout $end
$var wire 1 Q inst77|instD~0_combout $end
$var wire 1 R inst77|instE~0_combout $end
$var wire 1 S inst77|instF~0_combout $end
$var wire 1 T inst77|instG~0_combout $end
$upscope $end
$upscope $end
$enddefinitions $end
#0
$dumpvars
0!
0"
0#
0$
0%
0&
0'
0(
0)
0*
0+
1,
0-
1.
x/
10
11
12
03
04
05
06
07
08
19
0:
0;
0<
0=
0>
0?
0@
0A
0B
0C
1D
0E
0F
0G
0H
1I
0J
0K
1L
0M
1N
1O
1P
0Q
0R
0S
1T
$end
#100
1#
1;
#200
0#
0;
#300
1#
1;
#400
0#
0;
#500
1#
1;
#600
0#
0;
#700
1#
1;
#800
0#
0;
#900
1#
1;
#1000
0#
0;
#1100
1#
1;
#1200
0#
0;
#1300
1#
1;
#1400
0#
0;
#1500
1#
1;
#1600
0#
0;
#1700
1#
1;
#1800
0#
0;
#1900
1#
1;
#2000
0#
0;
#2100
1#
1;
#2200
0#
0;
#2300
1#
1;
#2400
0#
0;
#2500
1#
1;
#2600
0#
0;
#2700
1#
1;
#2800
0#
0;
#2900
1#
1;
#3000
0#
0;
#3100
1#
1;
#3200
0#
0;
#3300
1#
1;
#3400
0#
0;
#3500
1#
1;
#3600
0#
0;
#3700
1#
1;
#3800
0#
0;
#3900
1#
1;
#4000
0#
0;
#4100
1#
1;
#4200
0#
0;
#4300
1#
1;
#4400
0#
0;
#4500
1#
1;
#4600
0#
0;
#4700
1#
1;
#4800
0#
0;
#4900
1#
1;
#5000
0#
0;
#5100
1#
1;
#5200
0#
0;
#5300
1#
1;
#5400
0#
0;
#5500
1#
1;
#5600
0#
0;
#5700
1#
1;
#5800
0#
0;
#5900
1#
1;
#6000
0#
0;
#6100
1#
1;
#6200
0#
0;
#6300
1#
1;
#6400
0#
0;
#6500
1#
1;
#6600
0#
0;
#6700
1#
1;
#6800
0#
0;
#6900
1#
1;
#7000
0#
0;
#7100
1#
1;
#7200
0#
0;
#7300
1#
1;
#7400
0#
0;
#7500
1#
1;
#7600
0#
0;
#7700
1#
1;
#7800
0#
0;
#7900
1#
1;
#8000
0#
0;
#8100
1#
1;
#8200
0#
0;
#8300
1#
1;
#8400
0#
0;
#8500
1#
1;
#8600
0#
0;
#8700
1#
1;
#8800
0#
0;
#8900
1#
1;
#9000
0#
0;
#9100
1#
1;
#9200
0#
0;
#9300
1#
1;
#9400
0#
0;
#9500
1#
1;
#9600
0#
0;
#9700
1#
1;
#9800
0#
0;
#9900
1#
1;
#10000
1"
0#
1<
0;
1=
#10100
1#
1;
1>
1?
#10200
0#
0;
#10300
1#
1;
1@
1A
#10400
0#
0;
#10500
1#
1;
1B
1C
1:
1+
#10600
0#
0;
#10700
1#
1;
#10800
0#
0;
#10900
1#
1;
#11000
0#
0;
#11100
1#
1;
#11200
0#
0;
#11300
1#
1;
#11400
0#
0;
#11500
1#
1;
#11600
0#
0;
#11700
1#
1;
#11800
0#
0;
#11900
1#
1;
#12000
0#
0;
#12100
1#
1;
#12200
0#
0;
#12300
1#
1;
#12400
0#
0;
#12500
1#
1;
#12600
0#
0;
#12700
1#
1;
#12800
0#
0;
#12900
1#
1;
#13000
0#
0;
#13100
1#
1;
#13200
0#
0;
#13300
1#
1;
#13400
0#
0;
#13500
1#
1;
#13600
0#
0;
#13700
1#
1;
#13800
0#
0;
#13900
1#
1;
#14000
0#
0;
#14100
1#
1;
#14200
0#
0;
#14300
1#
1;
#14400
0#
0;
#14500
1#
1;
#14600
0#
0;
#14700
1#
1;
#14800
0#
0;
#14900
1#
1;
#15000
0#
0;
#15100
1#
1;
#15200
0#
0;
#15300
1#
1;
#15400
0#
0;
#15500
1#
1;
#15600
0#
0;
#15700
1#
1;
#15800
0#
0;
#15900
1#
1;
#16000
0#
0;
#16100
1#
1;
#16200
0#
0;
#16300
1#
1;
#16400
0#
0;
#16500
1#
1;
#16600
0#
0;
#16700
1#
1;
#16800
0#
0;
#16900
1#
1;
#17000
0#
0;
#17100
1#
1;
#17200
0#
0;
#17300
1#
1;
#17400
0#
0;
#17500
1#
1;
#17600
0#
0;
#17700
1#
1;
#17800
0#
0;
#17900
1#
1;
#18000
0#
0;
#18100
1#
1;
#18200
0#
0;
#18300
1#
1;
#18400
0#
0;
#18500
1#
1;
#18600
0#
0;
#18700
1#
1;
#18800
0#
0;
#18900
1#
1;
#19000
0#
0;
#19100
1#
1;
#19200
0#
0;
#19300
1#
1;
#19400
0#
0;
#19500
1#
1;
#19600
0#
0;
#19700
1#
1;
#19800
0#
0;
#19900
1#
1;
#20000
0"
0#
0<
0;
0=
#20100
1#
1;
0>
0C
0?
0:
0+
1F
0N
1S
1R
1Q
1H
0D
16
17
18
13
1%
1*
1)
1(
1J
1N
0T
0Q
1K
0I
06
09
03
0%
0,
0(
1M
1T
1Q
0L
16
19
1,
1(
#20200
0#
0;
#20300
1#
1;
0@
0A
#20400
0#
0;
#20500
1#
1;
0B
#20600
0#
0;
#20700
1#
1;
#20800
0#
0;
#20900
1#
1;
#21000
0#
0;
#21100
1#
1;
#21200
0#
0;
#21300
1#
1;
#21400
0#
0;
#21500
1#
1;
#21600
0#
0;
#21700
1#
1;
#21800
0#
0;
#21900
1#
1;
#22000
0#
0;
#22100
1#
1;
#22200
0#
0;
#22300
1#
1;
#22400
0#
0;
#22500
1#
1;
#22600
0#
0;
#22700
1#
1;
#22800
0#
0;
#22900
1#
1;
#23000
0#
0;
#23100
1#
1;
#23200
0#
0;
#23300
1#
1;
#23400
0#
0;
#23500
1#
1;
#23600
0#
0;
#23700
1#
1;
#23800
0#
0;
#23900
1#
1;
#24000
0#
0;
#24100
1#
1;
#24200
0#
0;
#24300
1#
1;
#24400
0#
0;
#24500
1#
1;
#24600
0#
0;
#24700
1#
1;
#24800
0#
0;
#24900
1#
1;
#25000
0#
0;
#25100
1#
1;
#25200
0#
0;
#25300
1#
1;
#25400
0#
0;
#25500
1#
1;
#25600
0#
0;
#25700
1#
1;
#25800
0#
0;
#25900
1#
1;
#26000
0#
0;
#26100
1#
1;
#26200
0#
0;
#26300
1#
1;
#26400
0#
0;
#26500
1#
1;
#26600
0#
0;
#26700
1#
1;
#26800
0#
0;
#26900
1#
1;
#27000
0#
0;
#27100
1#
1;
#27200
0#
0;
#27300
1#
1;
#27400
0#
0;
#27500
1#
1;
#27600
0#
0;
#27700
1#
1;
#27800
0#
0;
#27900
1#
1;
#28000
0#
0;
#28100
1#
1;
#28200
0#
0;
#28300
1#
1;
#28400
0#
0;
#28500
1#
1;
#28600
0#
0;
#28700
1#
1;
#28800
0#
0;
#28900
1#
1;
#29000
0#
0;
#29100
1#
1;
#29200
0#
0;
#29300
1#
1;
#29400
0#
0;
#29500
1#
1;
#29600
0#
0;
#29700
1#
1;
#29800
0#
0;
#29900
1#
1;
#30000
1"
0#
1<
0;
1=
#30100
1#
1;
1>
1?
#30200
0#
0;
#30300
1#
1;
1@
1A
#30400
0#
0;
#30500
1#
1;
1B
1C
1:
1+
#30600
0#
0;
#30700
1#
1;
#30800
0#
0;
#30900
1#
1;
#31000
0#
0;
#31100
1#
1;
#31200
0#
0;
#31300
1#
1;
#31400
0#
0;
#31500
1#
1;
#31600
0#
0;
#31700
1#
1;
#31800
0#
0;
#31900
1#
1;
#32000
0#
0;
#32100
1#
1;
#32200
0#
0;
#32300
1#
1;
#32400
0#
0;
#32500
1#
1;
#32600
0#
0;
#32700
1#
1;
#32800
0#
0;
#32900
1#
1;
#33000
0#
0;
#33100
1#
1;
#33200
0#
0;
#33300
1#
1;
#33400
0#
0;
#33500
1#
1;
#33600
0#
0;
#33700
1#
1;
#33800
0#
0;
#33900
1#
1;
#34000
0#
0;
#34100
1#
1;
#34200
0#
0;
#34300
1#
1;
#34400
0#
0;
#34500
1#
1;
#34600
0#
0;
#34700
1#
1;
#34800
0#
0;
#34900
1#
1;
#35000
0#
0;
#35100
1#
1;
#35200
0#
0;
#35300
1#
1;
#35400
0#
0;
#35500
1#
1;
#35600
0#
0;
#35700
1#
1;
#35800
0#
0;
#35900
1#
1;
#36000
0#
0;
#36100
1#
1;
#36200
0#
0;
#36300
1#
1;
#36400
0#
0;
#36500
1#
1;
#36600
0#
0;
#36700
1#
1;
#36800
0#
0;
#36900
1#
1;
#37000
0#
0;
#37100
1#
1;
#37200
0#
0;
#37300
1#
1;
#37400
0#
0;
#37500
1#
1;
#37600
0#
0;
#37700
1#
1;
#37800
0#
0;
#37900
1#
1;
#38000
0#
0;
#38100
1#
1;
#38200
0#
0;
#38300
1#
1;
#38400
0#
0;
#38500
1#
1;
#38600
0#
0;
#38700
1#
1;
#38800
0#
0;
#38900
1#
1;
#39000
0#
0;
#39100
1#
1;
#39200
0#
0;
#39300
1#
1;
#39400
0#
0;
#39500
1#
1;
#39600
0#
0;
#39700
1#
1;
#39800
0#
0;
#39900
1#
1;
#40000
0"
0#
0<
0;
0=
#40100
1#
1;
0>
0C
0?
0:
0+
0F
0O
0T
0S
0R
0Q
0H
1D
06
07
08
09
14
1&
0,
0*
0)
0(
#40200
0#
0;
#40300
1#
1;
0@
0A
#40400
0#
0;
#40500
1#
1;
0B
#40600
0#
0;
#40700
1#
1;
#40800
0#
0;
#40900
1#
1;
#41000
0#
0;
#41100
1#
1;
#41200
0#
0;
#41300
1#
1;
#41400
0#
0;
#41500
1#
1;
#41600
0#
0;
#41700
1#
1;
#41800
0#
0;
#41900
1#
1;
#42000
0#
0;
#42100
1#
1;
#42200
0#
0;
#42300
1#
1;
#42400
0#
0;
#42500
1#
1;
#42600
0#
0;
#42700
1#
1;
#42800
0#
0;
#42900
1#
1;
#43000
0#
0;
#43100
1#
1;
#43200
0#
0;
#43300
1#
1;
#43400
0#
0;
#43500
1#
1;
#43600
0#
0;
#43700
1#
1;
#43800
0#
0;
#43900
1#
1;
#44000
0#
0;
#44100
1#
1;
#44200
0#
0;
#44300
1#
1;
#44400
0#
0;
#44500
1#
1;
#44600
0#
0;
#44700
1#
1;
#44800
0#
0;
#44900
1#
1;
#45000
0#
0;
#45100
1#
1;
#45200
0#
0;
#45300
1#
1;
#45400
0#
0;
#45500
1#
1;
#45600
0#
0;
#45700
1#
1;
#45800
0#
0;
#45900
1#
1;
#46000
0#
0;
#46100
1#
1;
#46200
0#
0;
#46300
1#
1;
#46400
0#
0;
#46500
1#
1;
#46600
0#
0;
#46700
1#
1;
#46800
0#
0;
#46900
1#
1;
#47000
0#
0;
#47100
1#
1;
#47200
0#
0;
#47300
1#
1;
#47400
0#
0;
#47500
1#
1;
#47600
0#
0;
#47700
1#
1;
#47800
0#
0;
#47900
1#
1;
#48000
0#
0;
#48100
1#
1;
#48200
0#
0;
#48300
1#
1;
#48400
0#
0;
#48500
1#
1;
#48600
0#
0;
#48700
1#
1;
#48800
0#
0;
#48900
1#
1;
#49000
0#
0;
#49100
1#
1;
#49200
0#
0;
#49300
1#
1;
#49400
0#
0;
#49500
1#
1;
#49600
0#
0;
#49700
1#
1;
#49800
0#
0;
#49900
1#
1;
#50000
1"
0#
1<
0;
1=
#50100
1#
1;
1>
1?
#50200
0#
0;
#50300
1#
1;
1@
1A
#50400
0#
0;
#50500
1#
1;
1B
1C
1:
1+
#50600
0#
0;
#50700
1#
1;
#50800
0#
0;
#50900
1#
1;
#51000
0#
0;
#51100
1#
1;
#51200
0#
0;
#51300
1#
1;
#51400
0#
0;
#51500
1#
1;
#51600
0#
0;
#51700
1#
1;
#51800
0#
0;
#51900
1#
1;
#52000
0#
0;
#52100
1#
1;
#52200
0#
0;
#52300
1#
1;
#52400
0#
0;
#52500
1#
1;
#52600
0#
0;
#52700
1#
1;
#52800
0#
0;
#52900
1#
1;
#53000
0#
0;
#53100
1#
1;
#53200
0#
0;
#53300
1#
1;
#53400
0#
0;
#53500
1#
1;
#53600
0#
0;
#53700
1#
1;
#53800
0#
0;
#53900
1#
1;
#54000
0#
0;
#54100
1#
1;
#54200
0#
0;
#54300
1#
1;
#54400
0#
0;
#54500
1#
1;
#54600
0#
0;
#54700
1#
1;
#54800
0#
0;
#54900
1#
1;
#55000
0#
0;
#55100
1#
1;
#55200
0#
0;
#55300
1#
1;
#55400
0#
0;
#55500
1#
1;
#55600
0#
0;
#55700
1#
1;
#55800
0#
0;
#55900
1#
1;
#56000
0#
0;
#56100
1#
1;
#56200
0#
0;
#56300
1#
1;
#56400
0#
0;
#56500
1#
1;
#56600
0#
0;
#56700
1#
1;
#56800
0#
0;
#56900
1#
1;
#57000
0#
0;
#57100
1#
1;
#57200
0#
0;
#57300
1#
1;
#57400
0#
0;
#57500
1#
1;
#57600
0#
0;
#57700
1#
1;
#57800
0#
0;
#57900
1#
1;
#58000
0#
0;
#58100
1#
1;
#58200
0#
0;
#58300
1#
1;
#58400
0#
0;
#58500
1#
1;
#58600
0#
0;
#58700
1#
1;
#58800
0#
0;
#58900
1#
1;
#59000
0#
0;
#59100
1#
1;
#59200
0#
0;
#59300
1#
1;
#59400
0#
0;
#59500
1#
1;
#59600
0#
0;
#59700
1#
1;
#59800
0#
0;
#59900
1#
1;
#60000
0"
0#
0<
0;
0=
#60100
1#
1;
0>
0C
0?
0:
0+
1F
1O
1T
1S
1R
1Q
1H
0D
16
17
18
19
04
0&
1,
1*
1)
1(
0J
0O
0T
0S
0Q
0K
1I
06
08
09
14
1&
0,
0*
0(
#60200
0#
0;
#60300
1#
1;
0@
0A
#60400
0#
0;
#60500
1#
1;
0B
#60600
0#
0;
#60700
1#
1;
#60800
0#
0;
#60900
1#
1;
#61000
0#
0;
#61100
1#
1;
#61200
0#
0;
#61300
1#
1;
#61400
0#
0;
#61500
1#
1;
#61600
0#
0;
#61700
1#
1;
#61800
0#
0;
#61900
1#
1;
#62000
0#
0;
#62100
1#
1;
#62200
0#
0;
#62300
1#
1;
#62400
0#
0;
#62500
1#
1;
#62600
0#
0;
#62700
1#
1;
#62800
0#
0;
#62900
1#
1;
#63000
0#
0;
#63100
1#
1;
#63200
0#
0;
#63300
1#
1;
#63400
0#
0;
#63500
1#
1;
#63600
0#
0;
#63700
1#
1;
#63800
0#
0;
#63900
1#
1;
#64000
0#
0;
#64100
1#
1;
#64200
0#
0;
#64300
1#
1;
#64400
0#
0;
#64500
1#
1;
#64600
0#
0;
#64700
1#
1;
#64800
0#
0;
#64900
1#
1;
#65000
0#
0;
#65100
1#
1;
#65200
0#
0;
#65300
1#
1;
#65400
0#
0;
#65500
1#
1;
#65600
0#
0;
#65700
1#
1;
#65800
0#
0;
#65900
1#
1;
#66000
0#
0;
#66100
1#
1;
#66200
0#
0;
#66300
1#
1;
#66400
0#
0;
#66500
1#
1;
#66600
0#
0;
#66700
1#
1;
#66800
0#
0;
#66900
1#
1;
#67000
0#
0;
#67100
1#
1;
#67200
0#
0;
#67300
1#
1;
#67400
0#
0;
#67500
1#
1;
#67600
0#
0;
#67700
1#
1;
#67800
0#
0;
#67900
1#
1;
#68000
0#
0;
#68100
1#
1;
#68200
0#
0;
#68300
1#
1;
#68400
0#
0;
#68500
1#
1;
#68600
0#
0;
#68700
1#
1;
#68800
0#
0;
#68900
1#
1;
#69000
0#
0;
#69100
1#
1;
#69200
0#
0;
#69300
1#
1;
#69400
0#
0;
#69500
1#
1;
#69600
0#
0;
#69700
1#
1;
#69800
0#
0;
#69900
1#
1;
#70000
1"
0#
1<
0;
1=
#70100
1#
1;
1>
1?
#70200
0#
0;
#70300
1#
1;
1@
1A
#70400
0#
0;
#70500
1#
1;
1B
1C
1:
1+
#70600
0#
0;
#70700
1#
1;
#70800
0#
0;
#70900
1#
1;
#71000
0#
0;
#71100
1#
1;
#71200
0#
0;
#71300
1#
1;
#71400
0#
0;
#71500
1#
1;
#71600
0#
0;
#71700
1#
1;
#71800
0#
0;
#71900
1#
1;
#72000
0#
0;
#72100
1#
1;
#72200
0#
0;
#72300
1#
1;
#72400
0#
0;
#72500
1#
1;
#72600
0#
0;
#72700
1#
1;
#72800
0#
0;
#72900
1#
1;
#73000
0#
0;
#73100
1#
1;
#73200
0#
0;
#73300
1#
1;
#73400
0#
0;
#73500
1#
1;
#73600
0#
0;
#73700
1#
1;
#73800
0#
0;
#73900
1#
1;
#74000
0#
0;
#74100
1#
1;
#74200
0#
0;
#74300
1#
1;
#74400
0#
0;
#74500
1#
1;
#74600
0#
0;
#74700
1#
1;
#74800
0#
0;
#74900
1#
1;
#75000
0#
0;
#75100
1#
1;
#75200
0#
0;
#75300
1#
1;
#75400
0#
0;
#75500
1#
1;
#75600
0#
0;
#75700
1#
1;
#75800
0#
0;
#75900
1#
1;
#76000
0#
0;
#76100
1#
1;
#76200
0#
0;
#76300
1#
1;
#76400
0#
0;
#76500
1#
1;
#76600
0#
0;
#76700
1#
1;
#76800
0#
0;
#76900
1#
1;
#77000
0#
0;
#77100
1#
1;
#77200
0#
0;
#77300
1#
1;
#77400
0#
0;
#77500
1#
1;
#77600
0#
0;
#77700
1#
1;
#77800
0#
0;
#77900
1#
1;
#78000
0#
0;
#78100
1#
1;
#78200
0#
0;
#78300
1#
1;
#78400
0#
0;
#78500
1#
1;
#78600
0#
0;
#78700
1#
1;
#78800
0#
0;
#78900
1#
1;
#79000
0#
0;
#79100
1#
1;
#79200
0#
0;
#79300
1#
1;
#79400
0#
0;
#79500
1#
1;
#79600
0#
0;
#79700
1#
1;
#79800
0#
0;
#79900
1#
1;
#80000
0"
0#
0<
0;
0=
#80100
1#
1;
0>
0C
0?
0:
0+
0F
1O
0N
1Q
0H
1D
16
13
04
0&
1%
1(
#80200
0#
0;
#80300
1#
1;
0@
0A
#80400
0#
0;
#80500
1#
1;
0B
#80600
0#
0;
#80700
1#
1;
#80800
0#
0;
#80900
1#
1;
#81000
0#
0;
#81100
1#
1;
#81200
0#
0;
#81300
1#
1;
#81400
0#
0;
#81500
1#
1;
#81600
0#
0;
#81700
1#
1;
#81800
0#
0;
#81900
1#
1;
#82000
0#
0;
#82100
1#
1;
#82200
0#
0;
#82300
1#
1;
#82400
0#
0;
#82500
1#
1;
#82600
0#
0;
#82700
1#
1;
#82800
0#
0;
#82900
1#
1;
#83000
0#
0;
#83100
1#
1;
#83200
0#
0;
#83300
1#
1;
#83400
0#
0;
#83500
1#
1;
#83600
0#
0;
#83700
1#
1;
#83800
0#
0;
#83900
1#
1;
#84000
0#
0;
#84100
1#
1;
#84200
0#
0;
#84300
1#
1;
#84400
0#
0;
#84500
1#
1;
#84600
0#
0;
#84700
1#
1;
#84800
0#
0;
#84900
1#
1;
#85000
0#
0;
#85100
1#
1;
#85200
0#
0;
#85300
1#
1;
#85400
0#
0;
#85500
1#
1;
#85600
0#
0;
#85700
1#
1;
#85800
0#
0;
#85900
1#
1;
#86000
0#
0;
#86100
1#
1;
#86200
0#
0;
#86300
1#
1;
#86400
0#
0;
#86500
1#
1;
#86600
0#
0;
#86700
1#
1;
#86800
0#
0;
#86900
1#
1;
#87000
0#
0;
#87100
1#
1;
#87200
0#
0;
#87300
1#
1;
#87400
0#
0;
#87500
1#
1;
#87600
0#
0;
#87700
1#
1;
#87800
0#
0;
#87900
1#
1;
#88000
0#
0;
#88100
1#
1;
#88200
0#
0;
#88300
1#
1;
#88400
0#
0;
#88500
1#
1;
#88600
0#
0;
#88700
1#
1;
#88800
0#
0;
#88900
1#
1;
#89000
0#
0;
#89100
1#
1;
#89200
0#
0;
#89300
1#
1;
#89400
0#
0;
#89500
1#
1;
#89600
0#
0;
#89700
1#
1;
#89800
0#
0;
#89900
1#
1;
#90000
1"
0#
1<
0;
1=
#90100
1#
1;
1>
1?
#90200
0#
0;
#90300
1#
1;
1@
1A
#90400
0#
0;
#90500
1#
1;
1B
1C
1:
1+
#90600
0#
0;
#90700
1#
1;
#90800
0#
0;
#90900
1#
1;
#91000
0#
0;
#91100
1#
1;
#91200
0#
0;
#91300
1#
1;
#91400
0#
0;
#91500
1#
1;
#91600
0#
0;
#91700
1#
1;
#91800
0#
0;
#91900
1#
1;
#92000
0#
0;
#92100
1#
1;
#92200
0#
0;
#92300
1#
1;
#92400
0#
0;
#92500
1#
1;
#92600
0#
0;
#92700
1#
1;
#92800
0#
0;
#92900
1#
1;
#93000
0#
0;
#93100
1#
1;
#93200
0#
0;
#93300
1#
1;
#93400
0#
0;
#93500
1#
1;
#93600
0#
0;
#93700
1#
1;
#93800
0#
0;
#93900
1#
1;
#94000
0#
0;
#94100
1#
1;
#94200
0#
0;
#94300
1#
1;
#94400
0#
0;
#94500
1#
1;
#94600
0#
0;
#94700
1#
1;
#94800
0#
0;
#94900
1#
1;
#95000
0#
0;
#95100
1#
1;
#95200
0#
0;
#95300
1#
1;
#95400
0#
0;
#95500
1#
1;
#95600
0#
0;
#95700
1#
1;
#95800
0#
0;
#95900
1#
1;
#96000
0#
0;
#96100
1#
1;
#96200
0#
0;
#96300
1#
1;
#96400
0#
0;
#96500
1#
1;
#96600
0#
0;
#96700
1#
1;
#96800
0#
0;
#96900
1#
1;
#97000
0#
0;
#97100
1#
1;
#97200
0#
0;
#97300
1#
1;
#97400
0#
0;
#97500
1#
1;
#97600
0#
0;
#97700
1#
1;
#97800
0#
0;
#97900
1#
1;
#98000
0#
0;
#98100
1#
1;
#98200
0#
0;
#98300
1#
1;
#98400
0#
0;
#98500
1#
1;
#98600
0#
0;
#98700
1#
1;
#98800
0#
0;
#98900
1#
1;
#99000
0#
0;
#99100
1#
1;
#99200
0#
0;
#99300
1#
1;
#99400
0#
0;
#99500
1#
1;
#99600
0#
0;
#99700
1#
1;
#99800
0#
0;
#99900
1#
1;
#100000
0"
0#
0<
0;
0=
#100100
1#
1;
0>
0C
0?
0:
0+
1F
0O
1N
0Q
1H
0D
06
03
14
1&
0%
0(
1J
1O
1T
1S
1Q
1K
0I
16
18
19
04
0&
1,
1*
1(
0M
0T
0Q
1L
06
09
0,
0(
#100200
0#
0;
#100300
1#
1;
0@
0A
#100400
0#
0;
#100500
1#
1;
0B
#100600
0#
0;
#100700
1#
1;
#100800
0#
0;
#100900
1#
1;
#101000
0#
0;
#101100
1#
1;
#101200
0#
0;
#101300
1#
1;
#101400
0#
0;
#101500
1#
1;
#101600
0#
0;
#101700
1#
1;
#101800
0#
0;
#101900
1#
1;
#102000
0#
0;
#102100
1#
1;
#102200
0#
0;
#102300
1#
1;
#102400
0#
0;
#102500
1#
1;
#102600
0#
0;
#102700
1#
1;
#102800
0#
0;
#102900
1#
1;
#103000
0#
0;
#103100
1#
1;
#103200
0#
0;
#103300
1#
1;
#103400
0#
0;
#103500
1#
1;
#103600
0#
0;
#103700
1#
1;
#103800
0#
0;
#103900
1#
1;
#104000
0#
0;
#104100
1#
1;
#104200
0#
0;
#104300
1#
1;
#104400
0#
0;
#104500
1#
1;
#104600
0#
0;
#104700
1#
1;
#104800
0#
0;
#104900
1#
1;
#105000
0#
0;
#105100
1#
1;
#105200
0#
0;
#105300
1#
1;
#105400
0#
0;
#105500
1#
1;
#105600
0#
0;
#105700
1#
1;
#105800
0#
0;
#105900
1#
1;
#106000
0#
0;
#106100
1#
1;
#106200
0#
0;
#106300
1#
1;
#106400
0#
0;
#106500
1#
1;
#106600
0#
0;
#106700
1#
1;
#106800
0#
0;
#106900
1#
1;
#107000
0#
0;
#107100
1#
1;
#107200
0#
0;
#107300
1#
1;
#107400
0#
0;
#107500
1#
1;
#107600
0#
0;
#107700
1#
1;
#107800
0#
0;
#107900
1#
1;
#108000
0#
0;
#108100
1#
1;
#108200
0#
0;
#108300
1#
1;
#108400
0#
0;
#108500
1#
1;
#108600
0#
0;
#108700
1#
1;
#108800
0#
0;
#108900
1#
1;
#109000
0#
0;
#109100
1#
1;
#109200
0#
0;
#109300
1#
1;
#109400
0#
0;
#109500
1#
1;
#109600
0#
0;
#109700
1#
1;
#109800
0#
0;
#109900
1#
1;
#110000
1"
0#
1<
0;
1=
#110100
1#
1;
1>
1?
#110200
0#
0;
#110300
1#
1;
1@
1A
#110400
0#
0;
#110500
1#
1;
1B
1C
1:
1+
#110600
0#
0;
#110700
1#
1;
#110800
0#
0;
#110900
1#
1;
#111000
0#
0;
#111100
1#
1;
#111200
0#
0;
#111300
1#
1;
#111400
0#
0;
#111500
1#
1;
#111600
0#
0;
#111700
1#
1;
#111800
0#
0;
#111900
1#
1;
#112000
0#
0;
#112100
1#
1;
#112200
0#
0;
#112300
1#
1;
#112400
0#
0;
#112500
1#
1;
#112600
0#
0;
#112700
1#
1;
#112800
0#
0;
#112900
1#
1;
#113000
0#
0;
#113100
1#
1;
#113200
0#
0;
#113300
1#
1;
#113400
0#
0;
#113500
1#
1;
#113600
0#
0;
#113700
1#
1;
#113800
0#
0;
#113900
1#
1;
#114000
0#
0;
#114100
1#
1;
#114200
0#
0;
#114300
1#
1;
#114400
0#
0;
#114500
1#
1;
#114600
0#
0;
#114700
1#
1;
#114800
0#
0;
#114900
1#
1;
#115000
0#
0;
#115100
1#
1;
#115200
0#
0;
#115300
1#
1;
#115400
0#
0;
#115500
1#
1;
#115600
0#
0;
#115700
1#
1;
#115800
0#
0;
#115900
1#
1;
#116000
0#
0;
#116100
1#
1;
#116200
0#
0;
#116300
1#
1;
#116400
0#
0;
#116500
1#
1;
#116600
0#
0;
#116700
1#
1;
#116800
0#
0;
#116900
1#
1;
#117000
0#
0;
#117100
1#
1;
#117200
0#
0;
#117300
1#
1;
#117400
0#
0;
#117500
1#
1;
#117600
0#
0;
#117700
1#
1;
#117800
0#
0;
#117900
1#
1;
#118000
0#
0;
#118100
1#
1;
#118200
0#
0;
#118300
1#
1;
#118400
0#
0;
#118500
1#
1;
#118600
0#
0;
#118700
1#
1;
#118800
0#
0;
#118900
1#
1;
#119000
0#
0;
#119100
1#
1;
#119200
0#
0;
#119300
1#
1;
#119400
0#
0;
#119500
1#
1;
#119600
0#
0;
#119700
1#
1;
#119800
0#
0;
#119900
1#
1;
#120000
0"
0#
0<
0;
0=
#120100
1#
1;
0>
0C
0?
0:
0+
0F
0P
0R
0H
1D
07
15
1'
0)
#120200
0#
0;
#120300
1#
1;
0@
0A
#120400
0#
0;
#120500
1#
1;
0B
#120600
0#
0;
#120700
1#
1;
#120800
0#
0;
#120900
1#
1;
#121000
0#
0;
#121100
1#
1;
#121200
0#
0;
#121300
1#
1;
#121400
0#
0;
#121500
1#
1;
#121600
0#
0;
#121700
1#
1;
#121800
0#
0;
#121900
1#
1;
#122000
0#
0;
#122100
1#
1;
#122200
0#
0;
#122300
1#
1;
#122400
0#
0;
#122500
1#
1;
#122600
0#
0;
#122700
1#
1;
#122800
0#
0;
#122900
1#
1;
#123000
0#
0;
#123100
1#
1;
#123200
0#
0;
#123300
1#
1;
#123400
0#
0;
#123500
1#
1;
#123600
0#
0;
#123700
1#
1;
#123800
0#
0;
#123900
1#
1;
#124000
0#
0;
#124100
1#
1;
#124200
0#
0;
#124300
1#
1;
#124400
0#
0;
#124500
1#
1;
#124600
0#
0;
#124700
1#
1;
#124800
0#
0;
#124900
1#
1;
#125000
0#
0;
#125100
1#
1;
#125200
0#
0;
#125300
1#
1;
#125400
0#
0;
#125500
1#
1;
#125600
0#
0;
#125700
1#
1;
#125800
0#
0;
#125900
1#
1;
#126000
0#
0;
#126100
1#
1;
#126200
0#
0;
#126300
1#
1;
#126400
0#
0;
#126500
1#
1;
#126600
0#
0;
#126700
1#
1;
#126800
0#
0;
#126900
1#
1;
#127000
0#
0;
#127100
1#
1;
#127200
0#
0;
#127300
1#
1;
#127400
0#
0;
#127500
1#
1;
#127600
0#
0;
#127700
1#
1;
#127800
0#
0;
#127900
1#
1;
#128000
0#
0;
#128100
1#
1;
#128200
0#
0;
#128300
1#
1;
#128400
0#
0;
#128500
1#
1;
#128600
0#
0;
#128700
1#
1;
#128800
0#
0;
#128900
1#
1;
#129000
0#
0;
#129100
1#
1;
#129200
0#
0;
#129300
1#
1;
#129400
0#
0;
