fpga_projects/project9/debouncer/simulation/qsim/main.msim.vcd
$comment
	File created using the following command:
		vcd file main.msim.vcd -direction
$end
$date
	Sun Nov 19 23:03:01 2023
$end
$version
	ModelSim Version 10.5b
$end
$timescale
	1ps
$end

$scope module main_vlg_vec_tst $end
$var reg 1 ! clock $end
$var reg 1 " fpga_clock $end
$var reg 1 # reset $end
$var wire 1 $ Q [3] $end
$var wire 1 % Q [2] $end
$var wire 1 & Q [1] $end
$var wire 1 ' Q [0] $end
$var wire 1 ( a $end
$var wire 1 ) b $end
$var wire 1 * c $end
$var wire 1 + clock_output $end
$var wire 1 , d $end
$var wire 1 - e $end
$var wire 1 . f $end
$var wire 1 / g $end

$scope module i1 $end
$var wire 1 0 gnd $end
$var wire 1 1 vcc $end
$var wire 1 2 unknown $end
$var tri1 1 3 devclrn $end
$var tri1 1 4 devpor $end
$var tri1 1 5 devoe $end
$var wire 1 6 clock_output~output_o $end
$var wire 1 7 Q[0]~output_o $end
$var wire 1 8 Q[1]~output_o $end
$var wire 1 9 Q[2]~output_o $end
$var wire 1 : Q[3]~output_o $end
$var wire 1 ; a~output_o $end
$var wire 1 < b~output_o $end
$var wire 1 = c~output_o $end
$var wire 1 > d~output_o $end
$var wire 1 ? e~output_o $end
$var wire 1 @ f~output_o $end
$var wire 1 A g~output_o $end
$var wire 1 B fpga_clock~input_o $end
$var wire 1 C fpga_clock~inputclkctrl_outclk $end
$var wire 1 D clock~input_o $end
$var wire 1 E debounce|Q[1]~feeder_combout $end
$var wire 1 F debounce|Q[2]~feeder_combout $end
$var wire 1 G debounce|clock_output~0_combout $end
$var wire 1 H debounce|clock_output~q $end
$var wire 1 I debounce|clock_output~clkctrl_outclk $end
$var wire 1 J counter|Q[0]~3_combout $end
$var wire 1 K reset~input_o $end
$var wire 1 L reset~inputclkctrl_outclk $end
$var wire 1 M counter|Q[2]~1_combout $end
$var wire 1 N counter|Q~2_combout $end
$var wire 1 O counter|Q~0_combout $end
$var wire 1 P decoder|WideOr0~0_combout $end
$var wire 1 Q decoder|WideOr1~0_combout $end
$var wire 1 R decoder|WideOr2~0_combout $end
$var wire 1 S decoder|WideOr3~0_combout $end
$var wire 1 T decoder|WideOr4~0_combout $end
$var wire 1 U decoder|WideOr5~0_combout $end
$var wire 1 V decoder|WideOr6~0_combout $end
$var wire 1 W counter|Q [3] $end
$var wire 1 X counter|Q [2] $end
$var wire 1 Y counter|Q [1] $end
$var wire 1 Z counter|Q [0] $end
$var wire 1 [ debounce|Q [2] $end
$var wire 1 \ debounce|Q [1] $end
$var wire 1 ] debounce|Q [0] $end
$upscope $end
$upscope $end
$enddefinitions $end
#0
$dumpvars
0!
0"
0#
0'
0&
0%
0$
0(
0)
0*
0+
0,
0-
0.
1/
00
11
x2
13
14
15
06
07
08
09
0:
0;
0<
0=
0>
0?
0@
1A
0B
0C
0D
0E
0F
0G
0H
0I
1J
0K
0L
0M
0N
0O
0P
0Q
0R
0S
0T
0U
0V
0Z
0Y
0X
0W
0]
0\
0[
$end
#100
1"
1B
1C
#200
0"
0B
0C
#300
1"
1B
1C
#400
0"
0B
0C
#500
1"
1B
1C
#600
0"
0B
0C
#700
1"
1B
1C
#800
0"
0B
0C
#900
1"
1B
1C
#1000
0"
0B
0C
#1100
1"
1B
1C
#1200
0"
0B
0C
#1300
1"
1B
1C
#1400
0"
0B
0C
#1500
1"
1B
1C
#1600
0"
0B
0C
#1700
1"
1B
1C
#1800
0"
0B
0C
#1900
1"
1B
1C
#2000
0"
0B
0C
#2100
1"
1B
1C
#2200
0"
0B
0C
#2300
1"
1B
1C
#2400
0"
0B
0C
#2500
1"
1B
1C
#2600
0"
0B
0C
#2700
1"
1B
1C
#2800
0"
0B
0C
#2900
1"
1B
1C
#3000
0"
0B
0C
#3100
1"
1B
1C
#3200
0"
0B
0C
#3300
1"
1B
1C
#3400
0"
0B
0C
#3500
1"
1B
1C
#3600
0"
0B
0C
#3700
1"
1B
1C
#3800
0"
0B
0C
#3900
1"
1B
1C
#4000
0"
0B
0C
#4100
1"
1B
1C
#4200
0"
0B
0C
#4300
1"
1B
1C
#4400
0"
0B
0C
#4500
1"
1B
1C
#4600
0"
0B
0C
#4700
1"
1B
1C
#4800
0"
0B
0C
#4900
1"
1B
1C
#5000
0"
0B
0C
#5100
1"
1B
1C
#5200
0"
0B
0C
#5300
1"
1B
1C
#5400
0"
0B
0C
#5500
1"
1B
1C
#5600
0"
0B
0C
#5700
1"
1B
1C
#5800
0"
0B
0C
#5900
1"
1B
1C
#6000
0"
0B
0C
#6100
1"
1B
1C
#6200
0"
0B
0C
#6300
1"
1B
1C
#6400
0"
0B
0C
#6500
1"
1B
1C
#6600
0"
0B
0C
#6700
1"
1B
1C
#6800
0"
0B
0C
#6900
1"
1B
1C
#7000
0"
0B
0C
#7100
1"
1B
1C
#7200
0"
0B
0C
#7300
1"
1B
1C
#7400
0"
0B
0C
#7500
1"
1B
1C
#7600
0"
0B
0C
#7700
1"
1B
1C
#7800
0"
0B
0C
#7900
1"
1B
1C
#8000
0"
0B
0C
#8100
1"
1B
1C
#8200
0"
0B
0C
#8300
1"
1B
1C
#8400
0"
0B
0C
#8500
1"
1B
1C
#8600
0"
0B
0C
#8700
1"
1B
1C
#8800
0"
0B
0C
#8900
1"
1B
1C
#9000
0"
0B
0C
#9100
1"
1B
1C
#9200
0"
0B
0C
#9300
1"
1B
1C
#9400
0"
0B
0C
#9500
1"
1B
1C
#9600
0"
0B
0C
#9700
1"
1B
1C
#9800
0"
0B
0C
#9900
1"
1B
1C
#10000
1!
0"
1D
0B
0C
1]
1E
#10100
1"
1B
1C
#10200
0"
0B
0C
1\
1F
#10300
1"
1B
1C
#10400
0"
0B
0C
1[
1G
#10500
1"
1B
1C
#10600
0"
0B
0C
1H
1I
16
1+
#10700
1"
1B
1C
#10800
0"
0B
0C
#10900
1"
1B
1C
#11000
0"
0B
0C
#11100
1"
1B
1C
#11200
0"
0B
0C
#11300
1"
1B
1C
#11400
0"
0B
0C
#11500
1"
1B
1C
#11600
0"
0B
0C
#11700
1"
1B
1C
#11800
0"
0B
0C
#11900
1"
1B
1C
#12000
0"
0B
0C
#12100
1"
1B
1C
#12200
0"
0B
0C
#12300
1"
1B
1C
#12400
0"
0B
0C
#12500
1"
1B
1C
#12600
0"
0B
0C
#12700
1"
1B
1C
#12800
0"
0B
0C
#12900
1"
1B
1C
#13000
0"
0B
0C
#13100
1"
1B
1C
#13200
0"
0B
0C
#13300
1"
1B
1C
#13400
0"
0B
0C
#13500
1"
1B
1C
#13600
0"
0B
0C
#13700
1"
1B
1C
#13800
0"
0B
0C
#13900
1"
1B
1C
#14000
0"
0B
0C
#14100
1"
1B
1C
#14200
0"
0B
0C
#14300
1"
1B
1C
#14400
0"
0B
0C
#14500
1"
1B
1C
#14600
0"
0B
0C
#14700
1"
1B
1C
#14800
0"
0B
0C
#14900
1"
1B
1C
#15000
0"
0B
0C
#15100
1"
1B
1C
#15200
0"
0B
0C
#15300
1"
1B
1C
#15400
0"
0B
0C
#15500
1"
1B
1C
#15600
0"
0B
0C
#15700
1"
1B
1C
#15800
0"
0B
0C
#15900
1"
1B
1C
#16000
0"
0B
0C
#16100
1"
1B
1C
#16200
0"
0B
0C
#16300
1"
1B
1C
#16400
0"
0B
0C
#16500
1"
1B
1C
#16600
0"
0B
0C
#16700
1"
1B
1C
#16800
0"
0B
0C
#16900
1"
1B
1C
#17000
0"
0B
0C
#17100
1"
1B
1C
#17200
0"
0B
0C
#17300
1"
1B
1C
#17400
0"
0B
0C
#17500
1"
1B
1C
#17600
0"
0B
0C
#17700
1"
1B
1C
#17800
0"
0B
0C
#17900
1"
1B
1C
#18000
0"
0B
0C
#18100
1"
1B
1C
#18200
0"
0B
0C
#18300
1"
1B
1C
#18400
0"
0B
0C
#18500
1"
1B
1C
#18600
0"
0B
0C
#18700
1"
1B
1C
#18800
0"
0B
0C
#18900
1"
1B
1C
#19000
0"
0B
0C
#19100
1"
1B
1C
#19200
0"
0B
0C
#19300
1"
1B
1C
#19400
0"
0B
0C
#19500
1"
1B
1C
#19600
0"
0B
0C
#19700
1"
1B
1C
#19800
0"
0B
0C
#19900
1"
1B
1C
#20000
0!
0"
0D
0B
0C
0]
0G
0E
#20100
1"
1B
1C
#20200
0"
0B
0C
0\
0H
0I
06
0+
0F
1Z
17
1'
1U
1T
1S
1P
1O
0J
1;
1>
1?
1@
1.
1-
1,
1(
#20300
1"
1B
1C
#20400
0"
0B
0C
0[
#20500
1"
1B
1C
#20600
0"
0B
0C
#20700
1"
1B
1C
#20800
0"
0B
0C
#20900
1"
1B
1C
#21000
0"
0B
0C
#21100
1"
1B
1C
#21200
0"
0B
0C
#21300
1"
1B
1C
#21400
0"
0B
0C
#21500
1"
1B
1C
#21600
0"
0B
0C
#21700
1"
1B
1C
#21800
0"
0B
0C
#21900
1"
1B
1C
#22000
0"
0B
0C
#22100
1"
1B
1C
#22200
0"
0B
0C
#22300
1"
1B
1C
#22400
0"
0B
0C
#22500
1"
1B
1C
#22600
0"
0B
0C
#22700
1"
1B
1C
#22800
0"
0B
0C
#22900
1"
1B
1C
#23000
0"
0B
0C
#23100
1"
1B
1C
#23200
0"
0B
0C
#23300
1"
1B
1C
#23400
0"
0B
0C
#23500
1"
1B
1C
#23600
0"
0B
0C
#23700
1"
1B
1C
#23800
0"
0B
0C
#23900
1"
1B
1C
#24000
0"
0B
0C
#24100
1"
1B
1C
#24200
0"
0B
0C
#24300
1"
1B
1C
#24400
0"
0B
0C
#24500
1"
1B
1C
#24600
0"
0B
0C
#24700
1"
1B
1C
#24800
0"
0B
0C
#24900
1"
1B
1C
#25000
0"
0B
0C
#25100
1"
1B
1C
#25200
0"
0B
0C
#25300
1"
1B
1C
#25400
0"
0B
0C
#25500
1"
1B
1C
#25600
0"
0B
0C
#25700
1"
1B
1C
#25800
0"
0B
0C
#25900
1"
1B
1C
#26000
0"
0B
0C
#26100
1"
1B
1C
#26200
0"
0B
0C
#26300
1"
1B
1C
#26400
0"
0B
0C
#26500
1"
1B
1C
#26600
0"
0B
0C
#26700
1"
1B
1C
#26800
0"
0B
0C
#26900
1"
1B
1C
#27000
0"
0B
0C
#27100
1"
1B
1C
#27200
0"
0B
0C
#27300
1"
1B
1C
#27400
0"
0B
0C
#27500
1"
1B
1C
#27600
0"
0B
0C
#27700
1"
1B
1C
#27800
0"
0B
0C
#27900
1"
1B
1C
#28000
0"
0B
0C
#28100
1"
1B
1C
#28200
0"
0B
0C
#28300
1"
1B
1C
#28400
0"
0B
0C
#28500
1"
1B
1C
#28600
0"
0B
0C
#28700
1"
1B
1C
#28800
0"
0B
0C
#28900
1"
1B
1C
#29000
0"
0B
0C
#29100
1"
1B
1C
#29200
0"
0B
0C
#29300
1"
1B
1C
#29400
0"
0B
0C
#29500
1"
1B
1C
#29600
0"
0B
0C
#29700
1"
1B
1C
#29800
0"
0B
0C
#29900
1"
1B
1C
#30000
1!
0"
1D
0B
0C
1]
1E
#30100
1"
1B
1C
#30200
0"
0B
0C
1\
1F
#30300
1"
1B
1C
#30400
0"
0B
0C
1[
1G
#30500
1"
1B
1C
#30600
0"
0B
0C
1H
1I
16
1+
#30700
1"
1B
1C
#30800
0"
0B
0C
#30900
1"
1B
1C
#31000
0"
0B
0C
#31100
1"
1B
1C
#31200
0"
0B
0C
#31300
1"
1B
1C
#31400
0"
0B
0C
#31500
1"
1B
1C
#31600
0"
0B
0C
#31700
1"
1B
1C
#31800
0"
0B
0C
#31900
1"
1B
1C
#32000
0"
0B
0C
#32100
1"
1B
1C
#32200
0"
0B
0C
#32300
1"
1B
1C
#32400
0"
0B
0C
#32500
1"
1B
1C
#32600
0"
0B
0C
#32700
1"
1B
1C
#32800
0"
0B
0C
#32900
1"
1B
1C
#33000
0"
0B
0C
#33100
1"
1B
1C
#33200
0"
0B
0C
#33300
1"
1B
1C
#33400
0"
0B
0C
#33500
1"
1B
1C
#33600
0"
0B
0C
#33700
1"
1B
1C
#33800
0"
0B
0C
#33900
1"
1B
1C
#34000
0"
0B
0C
#34100
1"
1B
1C
#34200
0"
0B
0C
#34300
1"
1B
1C
#34400
0"
0B
0C
#34500
1"
1B
1C
#34600
0"
0B
0C
#34700
1"
1B
1C
#34800
0"
0B
0C
#34900
1"
1B
1C
#35000
0"
0B
0C
#35100
1"
1B
1C
#35200
0"
0B
0C
#35300
1"
1B
1C
#35400
0"
0B
0C
#35500
1"
1B
1C
#35600
0"
0B
0C
#35700
1"
1B
1C
#35800
0"
0B
0C
#35900
1"
1B
1C
#36000
0"
0B
0C
#36100
1"
1B
1C
#36200
0"
0B
0C
#36300
1"
1B
1C
#36400
0"
0B
0C
#36500
1"
1B
1C
#36600
0"
0B
0C
#36700
1"
1B
1C
#36800
0"
0B
0C
#36900
1"
1B
1C
#37000
0"
0B
0C
#37100
1"
1B
1C
#37200
0"
0B
0C
#37300
1"
1B
1C
#37400
0"
0B
0C
#37500
1"
1B
1C
#37600
0"
0B
0C
#37700
1"
1B
1C
#37800
0"
0B
0C
#37900
1"
1B
1C
#38000
0"
0B
0C
#38100
1"
1B
1C
#38200
0"
0B
0C
#38300
1"
1B
1C
#38400
0"
0B
0C
#38500
1"
1B
1C
#38600
0"
0B
0C
#38700
1"
1B
1C
#38800
0"
0B
0C
#38900
1"
1B
1C
#39000
0"
0B
0C
#39100
1"
1B
1C
#39200
0"
0B
0C
#39300
1"
1B
1C
#39400
0"
0B
0C
#39500
1"
1B
1C
#39600
0"
0B
0C
#39700
1"
1B
1C
#39800
0"
0B
0C
#39900
1"
1B
1C
#40000
0!
0"
0D
0B
0C
0]
0G
0E
#40100
1"
1B
1C
#40200
0"
0B
0C
0\
0H
0I
06
0+
0F
0Z
1Y
18
07
1V
0'
1&
0T
0S
1R
0P
1J
0;
1=
0>
0?
0A
0/
0-
0,
1*
0(
#40300
1"
1B
1C
#40400
0"
0B
0C
0[
#40500
1"
1B
1C
#40600
0"
0B
0C
#40700
1"
1B
1C
#40800
0"
0B
0C
#40900
1"
1B
1C
#41000
0"
0B
0C
#41100
1"
1B
1C
#41200
0"
0B
0C
#41300
1"
1B
1C
#41400
0"
0B
0C
#41500
1"
1B
1C
#41600
0"
0B
0C
#41700
1"
1B
1C
#41800
0"
0B
0C
#41900
1"
1B
1C
#42000
0"
0B
0C
#42100
1"
1B
1C
#42200
0"
0B
0C
#42300
1"
1B
1C
#42400
0"
0B
0C
#42500
1"
1B
1C
#42600
0"
0B
0C
#42700
1"
1B
1C
#42800
0"
0B
0C
#42900
1"
1B
1C
#43000
0"
0B
0C
#43100
1"
1B
1C
#43200
0"
0B
0C
#43300
1"
1B
1C
#43400
0"
0B
0C
#43500
1"
1B
1C
#43600
0"
0B
0C
#43700
1"
1B
1C
#43800
0"
0B
0C
#43900
1"
1B
1C
#44000
0"
0B
0C
#44100
1"
1B
1C
#44200
0"
0B
0C
#44300
1"
1B
1C
#44400
0"
0B
0C
#44500
1"
1B
1C
#44600
0"
0B
0C
#44700
1"
1B
1C
#44800
0"
0B
0C
#44900
1"
1B
1C
#45000
0"
0B
0C
#45100
1"
1B
1C
#45200
0"
0B
0C
#45300
1"
1B
1C
#45400
0"
0B
0C
#45500
1"
1B
1C
#45600
0"
0B
0C
#45700
1"
1B
1C
#45800
0"
0B
0C
#45900
1"
1B
1C
#46000
0"
0B
0C
#46100
1"
1B
1C
#46200
0"
0B
0C
#46300
1"
1B
1C
#46400
0"
0B
0C
#46500
1"
1B
1C
#46600
0"
0B
0C
#46700
1"
1B
1C
#46800
0"
0B
0C
#46900
1"
1B
1C
#47000
0"
0B
0C
#47100
1"
1B
1C
#47200
0"
0B
0C
#47300
1"
1B
1C
#47400
0"
0B
0C
#47500
1"
1B
1C
#47600
0"
0B
0C
#47700
1"
1B
1C
#47800
0"
0B
0C
#47900
1"
1B
1C
#48000
0"
0B
0C
#48100
1"
1B
1C
#48200
0"
0B
0C
#48300
1"
1B
1C
#48400
0"
0B
0C
#48500
1"
1B
1C
#48600
0"
0B
0C
#48700
1"
1B
1C
#48800
0"
0B
0C
#48900
1"
1B
1C
#49000
0"
0B
0C
#49100
1"
1B
1C
#49200
0"
0B
0C
#49300
1"
1B
1C
#49400
0"
0B
0C
#49500
1"
1B
1C
#49600
0"
0B
0C
#49700
1"
1B
1C
#49800
0"
0B
0C
#49900
1"
1B
1C
#50000
1!
0"
1D
0B
0C
1]
1E
#50100
1"
1B
1C
#50200
0"
0B
0C
1\
1F
#50300
1"
1B
1C
#50400
0"
0B
0C
1[
1G
#50500
1"
1B
1C
#50600
0"
0B
0C
1H
1I
16
1+
#50700
1"
1B
1C
#50800
0"
0B
0C
#50900
1"
1B
1C
#51000
0"
0B
0C
#51100
1"
1B
1C
#51200
0"
0B
0C
#51300
1"
1B
1C
#51400
0"
0B
0C
#51500
1"
1B
1C
#51600
0"
0B
0C
#51700
1"
1B
1C
#51800
0"
0B
0C
#51900
1"
1B
1C
#52000
0"
0B
0C
#52100
1"
1B
1C
#52200
0"
0B
0C
#52300
1"
1B
1C
#52400
0"
0B
0C
#52500
1"
1B
1C
#52600
0"
0B
0C
#52700
1"
1B
1C
#52800
0"
0B
0C
#52900
1"
1B
1C
#53000
0"
0B
0C
#53100
1"
1B
1C
#53200
0"
0B
0C
#53300
1"
1B
1C
#53400
0"
0B
0C
#53500
1"
1B
1C
#53600
0"
0B
0C
#53700
1"
1B
1C
#53800
0"
0B
0C
#53900
1"
1B
1C
#54000
0"
0B
0C
#54100
1"
1B
1C
#54200
0"
0B
0C
#54300
1"
1B
1C
#54400
0"
0B
0C
#54500
1"
1B
1C
#54600
0"
0B
0C
#54700
1"
1B
1C
#54800
0"
0B
0C
#54900
1"
1B
1C
#55000
0"
0B
0C
#55100
1"
1B
1C
#55200
0"
0B
0C
#55300
1"
1B
1C
#55400
0"
0B
0C
#55500
1"
1B
1C
#55600
0"
0B
0C
#55700
1"
1B
1C
#55800
0"
0B
0C
#55900
1"
1B
1C
#56000
0"
0B
0C
#56100
1"
1B
1C
#56200
0"
0B
0C
#56300
1"
1B
1C
#56400
0"
0B
0C
#56500
1"
1B
1C
#56600
0"
0B
0C
#56700
1"
1B
1C
#56800
0"
0B
0C
#56900
1"
1B
1C
#57000
0"
0B
0C
#57100
1"
1B
1C
#57200
0"
0B
0C
#57300
1"
1B
1C
#57400
0"
0B
0C
#57500
1"
1B
1C
#57600
0"
0B
0C
#57700
1"
1B
1C
#57800
0"
0B
0C
#57900
1"
1B
1C
#58000
0"
0B
0C
#58100
1"
1B
1C
#58200
0"
0B
0C
#58300
1"
1B
1C
#58400
0"
0B
0C
#58500
1"
1B
1C
#58600
0"
0B
0C
#58700
1"
1B
1C
#58800
0"
0B
0C
#58900
1"
1B
1C
#59000
0"
0B
0C
#59100
1"
1B
1C
#59200
0"
0B
0C
#59300
1"
1B
1C
#59400
0"
0B
0C
#59500
1"
1B
1C
#59600
0"
0B
0C
#59700
1"
1B
1C
#59800
0"
0B
0C
#59900
1"
1B
1C
#60000
0!
0"
0D
0B
0C
0]
0G
0E
#60100
1"
1B
1C
#60200
0"
0B
0C
0\
0H
0I
06
0+
0F
1Z
17
1'
1T
0R
0O
1M
0J
0=
1?
1-
0*
#60300
1"
1B
1C
#60400
0"
0B
0C
0[
#60500
1"
1B
1C
#60600
0"
0B
0C
#60700
1"
1B
1C
#60800
0"
0B
0C
#60900
1"
1B
1C
#61000
0"
0B
0C
#61100
1"
1B
1C
#61200
0"
0B
0C
#61300
1"
1B
1C
#61400
0"
0B
0C
#61500
1"
1B
1C
#61600
0"
0B
0C
#61700
1"
1B
1C
#61800
0"
0B
0C
#61900
1"
1B
1C
#62000
0"
0B
0C
#62100
1"
1B
1C
#62200
0"
0B
0C
#62300
1"
1B
1C
#62400
0"
0B
0C
#62500
1"
1B
1C
#62600
0"
0B
0C
#62700
1"
1B
1C
#62800
0"
0B
0C
#62900
1"
1B
1C
#63000
0"
0B
0C
#63100
1"
1B
1C
#63200
0"
0B
0C
#63300
1"
1B
1C
#63400
0"
0B
0C
#63500
1"
1B
1C
#63600
0"
0B
0C
#63700
1"
1B
1C
#63800
0"
0B
0C
#63900
1"
1B
1C
#64000
0"
0B
0C
#64100
1"
1B
1C
#64200
0"
0B
0C
#64300
1"
1B
1C
#64400
0"
0B
0C
#64500
1"
1B
1C
#64600
0"
0B
0C
#64700
1"
1B
1C
#64800
0"
0B
0C
#64900
1"
1B
1C
#65000
0"
0B
0C
#65100
1"
1B
1C
#65200
0"
0B
0C
#65300
1"
1B
1C
#65400
0"
0B
0C
#65500
1"
1B
1C
#65600
0"
0B
0C
#65700
1"
1B
1C
#65800
0"
0B
0C
#65900
1"
1B
1C
#66000
0"
0B
0C
#66100
1"
1B
1C
#66200
0"
0B
0C
#66300
1"
1B
1C
#66400
0"
0B
0C
#66500
1"
1B
1C
#66600
0"
0B
0C
#66700
1"
1B
1C
#66800
0"
0B
0C
#66900
1"
1B
1C
#67000
0"
0B
0C
#67100
1"
1B
1C
#67200
0"
0B
0C
#67300
1"
1B
1C
#67400
0"
0B
0C
#67500
1"
1B
1C
#67600
0"
0B
0C
#67700
1"
1B
1C
#67800
0"
0B
0C
#67900
1"
1B
1C
#68000
0"
0B
0C
#68100
1"
1B
1C
#68200
0"
0B
0C
#68300
1"
1B
1C
#68400
0"
0B
0C
#68500
1"
1B
1C
#68600
0"
0B
0C
#68700
1"
1B
1C
#68800
0"
0B
0C
#68900
1"
1B
1C
#69000
0"
0B
0C
#69100
1"
1B
1C
#69200
0"
0B
0C
#69300
1"
1B
1C
#69400
0"
0B
0C
#69500
1"
1B
1C
#69600
0"
0B
0C
#69700
1"
1B
1C
#69800
0"
0B
0C
#69900
1"
1B
1C
#70000
1!
0"
1D
0B
0C
1]
1E
#70100
1"
1B
1C
#70200
0"
0B
0C
1\
1F
#70300
1"
1B
1C
#70400
0"
0B
0C
1[
1G
#70500
1"
1B
1C
#70600
0"
0B
0C
1H
1I
16
1+
#70700
1"
1B
1C
#70800
0"
0B
0C
#70900
1"
1B
1C
#71000
0"
0B
0C
#71100
1"
1B
1C
#71200
0"
0B
0C
#71300
1"
1B
1C
#71400
0"
0B
0C
#71500
1"
1B
1C
#71600
0"
0B
0C
#71700
1"
1B
1C
#71800
0"
0B
0C
#71900
1"
1B
1C
#72000
0"
0B
0C
#72100
1"
1B
1C
#72200
0"
0B
0C
#72300
1"
1B
1C
#72400
0"
0B
0C
#72500
1"
1B
1C
#72600
0"
0B
0C
#72700
1"
1B
1C
#72800
0"
0B
0C
#72900
1"
1B
1C
#73000
0"
0B
0C
#73100
1"
1B
1C
#73200
0"
0B
0C
#73300
1"
1B
1C
#73400
0"
0B
0C
#73500
1"
1B
1C
#73600
0"
0B
0C
#73700
1"
1B
1C
#73800
0"
0B
0C
#73900
1"
1B
1C
#74000
0"
0B
0C
#74100
1"
1B
1C
#74200
0"
0B
0C
#74300
1"
1B
1C
#74400
0"
0B
0C
#74500
1"
1B
1C
#74600
0"
0B
0C
#74700
1"
1B
1C
#74800
0"
0B
0C
#74900
1"
1B
1C
#75000
0"
0B
0C
#75100
1"
1B
1C
#75200
0"
0B
0C
#75300
1"
1B
1C
#75400
0"
0B
0C
#75500
1"
1B
1C
#75600
0"
0B
0C
#75700
1"
1B
1C
#75800
0"
0B
0C
#75900
1"
1B
1C
#76000
0"
0B
0C
#76100
1"
1B
1C
#76200
0"
0B
0C
#76300
1"
1B
1C
#76400
0"
0B
0C
#76500
1"
1B
1C
#76600
0"
0B
0C
#76700
1"
1B
1C
#76800
0"
0B
0C
#76900
1"
1B
1C
#77000
0"
0B
0C
#77100
1"
1B
1C
#77200
0"
0B
0C
#77300
1"
1B
1C
#77400
0"
0B
0C
#77500
1"
1B
1C
#77600
0"
0B
0C
#77700
1"
1B
1C
#77800
0"
0B
0C
#77900
1"
1B
1C
#78000
0"
0B
0C
#78100
1"
1B
1C
#78200
0"
0B
0C
#78300
1"
1B
1C
#78400
0"
0B
0C
#78500
1"
1B
1C
#78600
0"
0B
0C
#78700
1"
1B
1C
#78800
0"
0B
0C
#78900
1"
1B
1C
#79000
0"
0B
0C
#79100
1"
1B
1C
#79200
0"
0B
0C
#79300
1"
1B
1C
#79400
0"
0B
0C
#79500
1"
1B
1C
#79600
0"
0B
0C
#79700
1"
1B
1C
#79800
0"
0B
0C
#79900
1"
1B
1C
#80000
0!
0"
0D
0B
0C
0]
0G
0E
#80100
1"
1B
1C
#80200
0"
0B
0C
0\
0H
0I
06
0+
0F
0Z
1X
0Y
08
19
07
0'
1%
0&
0U
1S
1P
1J
1;
1>
0@
0.
1,
1(
#80300
1"
1B
1C
#80400
0"
0B
0C
0[
#80500
1"
1B
1C
#80600
0"
0B
0C
#80700
1"
1B
1C
#80800
0"
0B
0C
#80900
1"
1B
1C
#81000
0"
0B
0C
#81100
1"
1B
1C
#81200
0"
0B
0C
#81300
1"
1B
1C
#81400
0"
0B
0C
#81500
1"
1B
1C
#81600
0"
0B
0C
#81700
1"
1B
1C
#81800
0"
0B
0C
#81900
1"
1B
1C
#82000
0"
0B
0C
#82100
1"
1B
1C
#82200
0"
0B
0C
#82300
1"
1B
1C
#82400
0"
0B
0C
#82500
1"
1B
1C
#82600
0"
0B
0C
#82700
1"
1B
1C
#82800
0"
0B
0C
#82900
1"
1B
1C
#83000
0"
0B
0C
#83100
1"
1B
1C
#83200
0"
0B
0C
#83300
1"
1B
1C
#83400
0"
0B
0C
#83500
1"
1B
1C
#83600
0"
0B
0C
#83700
1"
1B
1C
#83800
0"
0B
0C
#83900
1"
1B
1C
#84000
0"
0B
0C
#84100
1"
1B
1C
#84200
0"
0B
0C
#84300
1"
1B
1C
#84400
0"
0B
0C
#84500
1"
1B
1C
#84600
0"
0B
0C
#84700
1"
1B
1C
#84800
0"
0B
0C
#84900
1"
1B
1C
#85000
0"
0B
0C
#85100
1"
1B
1C
#85200
0"
0B
0C
#85300
1"
1B
1C
#85400
0"
0B
0C
#85500
1"
1B
1C
#85600
0"
0B
0C
#85700
1"
1B
1C
#85800
0"
0B
0C
#85900
1"
1B
1C
#86000
0"
0B
0C
#86100
1"
1B
1C
#86200
0"
0B
0C
#86300
1"
1B
1C
#86400
0"
0B
0C
#86500
1"
1B
1C
#86600
0"
0B
0C
#86700
1"
1B
1C
#86800
0"
0B
0C
#86900
1"
1B
1C
#87000
0"
0B
0C
#87100
1"
1B
1C
#87200
0"
0B
0C
#87300
1"
1B
1C
#87400
0"
0B
0C
#87500
1"
1B
1C
#87600
0"
0B
0C
#87700
1"
1B
1C
#87800
0"
0B
0C
#87900
1"
1B
1C
#88000
0"
0B
0C
#88100
1"
1B
1C
#88200
0"
0B
0C
#88300
1"
1B
1C
#88400
0"
0B
0C
#88500
1"
1B
1C
#88600
0"
0B
0C
#88700
1"
1B
1C
#88800
0"
0B
0C
#88900
1"
1B
1C
#89000
0"
0B
0C
#89100
1"
1B
1C
#89200
0"
0B
0C
#89300
1"
1B
1C
#89400
0"
0B
0C
#89500
1"
1B
1C
#89600
0"
0B
0C
#89700
1"
1B
1C
#89800
0"
0B
0C
#89900
1"
1B
1C
#90000
1!
0"
1D
0B
0C
1]
1E
#90100
1"
1B
1C
#90200
0"
0B
0C
1\
1F
#90300
1"
1B
1C
#90400
0"
0B
0C
1[
1G
#90500
1"
1B
1C
#90600
0"
0B
0C
1H
1I
16
1+
#90700
1"
1B
1C
#90800
0"
0B
0C
#90900
1"
1B
1C
#91000
0"
0B
0C
#91100
1"
1B
1C
#91200
0"
0B
0C
#91300
1"
1B
1C
#91400
0"
0B
0C
#91500
1"
1B
1C
#91600
0"
0B
0C
#91700
1"
1B
1C
#91800
0"
0B
0C
#91900
1"
1B
1C
#92000
0"
0B
0C
#92100
1"
1B
1C
#92200
0"
0B
0C
#92300
1"
1B
1C
#92400
0"
0B
0C
#92500
1"
1B
1C
#92600
0"
0B
0C
#92700
1"
1B
1C
#92800
0"
0B
0C
#92900
1"
1B
1C
#93000
0"
0B
0C
#93100
1"
1B
1C
#93200
0"
0B
0C
#93300
1"
1B
1C
#93400
0"
0B
0C
#93500
1"
1B
1C
#93600
0"
0B
0C
#93700
1"
1B
1C
#93800
0"
0B
0C
#93900
1"
1B
1C
#94000
0"
0B
0C
#94100
1"
1B
1C
#94200
0"
0B
0C
#94300
1"
1B
1C
#94400
0"
0B
0C
#94500
1"
1B
1C
#94600
0"
0B
0C
#94700
1"
1B
1C
#94800
0"
0B
0C
#94900
1"
1B
1C
#95000
0"
0B
0C
#95100
1"
1B
1C
#95200
0"
0B
0C
#95300
1"
1B
1C
#95400
0"
0B
0C
#95500
1"
1B
1C
#95600
0"
0B
0C
#95700
1"
1B
1C
#95800
0"
0B
0C
#95900
1"
1B
1C
#96000
0"
0B
0C
#96100
1"
1B
1C
#96200
0"
0B
0C
#96300
1"
1B
1C
#96400
0"
0B
0C
#96500
1"
1B
1C
#96600
0"
0B
0C
#96700
1"
1B
1C
#96800
0"
0B
0C
#96900
1"
1B
1C
#97000
0"
0B
0C
#97100
1"
1B
1C
#97200
0"
0B
0C
#97300
1"
1B
1C
#97400
0"
0B
0C
#97500
1"
1B
1C
#97600
0"
0B
0C
#97700
1"
1B
1C
#97800
0"
0B
0C
#97900
1"
1B
1C
#98000
0"
0B
0C
#98100
1"
1B
1C
#98200
0"
0B
0C
#98300
1"
1B
1C
#98400
0"
0B
0C
#98500
1"
1B
1C
#98600
0"
0B
0C
#98700
1"
1B
1C
#98800
0"
0B
0C
#98900
1"
1B
1C
#99000
0"
0B
0C
#99100
1"
1B
1C
#99200
0"
0B
0C
#99300
1"
1B
1C
#99400
0"
0B
0C
#99500
1"
1B
1C
#99600
0"
0B
0C
