fpga_projects/project8/decoder_o_nine/simulation/qsim/decoder_o_nine.msim.vcd
$comment
	File created using the following command:
		vcd file decoder_o_nine.msim.vcd -direction
$end
$date
	Sat Nov 11 19:15:56 2023
$end
$version
	ModelSim Version 10.5b
$end
$timescale
	1ps
$end

$scope module decoder_o_nine_vlg_vec_tst $end
$var reg 1 ! W $end
$var reg 1 " X $end
$var reg 1 # Y $end
$var reg 1 $ Z $end
$var wire 1 % a $end
$var wire 1 & b $end
$var wire 1 ' c $end
$var wire 1 ( d $end
$var wire 1 ) e $end
$var wire 1 * f $end
$var wire 1 + g $end

$scope module i1 $end
$var wire 1 , gnd $end
$var wire 1 - vcc $end
$var wire 1 . unknown $end
$var tri1 1 / devclrn $end
$var tri1 1 0 devpor $end
$var tri1 1 1 devoe $end
$var wire 1 2 a~output_o $end
$var wire 1 3 b~output_o $end
$var wire 1 4 c~output_o $end
$var wire 1 5 d~output_o $end
$var wire 1 6 e~output_o $end
$var wire 1 7 f~output_o $end
$var wire 1 8 g~output_o $end
$var wire 1 9 X~input_o $end
$var wire 1 : W~input_o $end
$var wire 1 ; Y~input_o $end
$var wire 1 < Z~input_o $end
$var wire 1 = WideOr0~0_combout $end
$var wire 1 > WideOr1~0_combout $end
$var wire 1 ? WideOr2~0_combout $end
$var wire 1 @ WideOr3~0_combout $end
$var wire 1 A WideOr4~0_combout $end
$var wire 1 B WideOr5~0_combout $end
$var wire 1 C WideOr6~0_combout $end
$upscope $end
$upscope $end
$enddefinitions $end
#0
$dumpvars
0!
0"
0#
0$
0%
0&
0'
0(
0)
0*
1+
0,
1-
x.
1/
10
11
02
03
04
05
06
07
18
09
0:
0;
0<
0=
0>
0?
0@
0A
0B
0C
$end
#10000
1$
1<
1B
1A
1@
1=
12
15
16
17
1*
1)
1(
1%
#20000
1#
0$
1;
0<
1C
0A
0@
1?
0=
02
14
05
06
08
0+
0)
0(
1'
0%
#30000
1$
1<
1A
0?
04
16
1)
0'
#40000
1"
0#
0$
19
0;
0<
0B
1@
1=
12
15
07
0*
1(
1%
#50000
1$
1<
0@
1>
0=
02
13
05
0(
1&
0%
#60000
1#
0$
1;
0<
0A
06
0)
#70000
1$
1<
0C
1B
1A
1@
0>
03
15
16
17
18
1+
1*
1)
1(
0&
#80000
1!
0"
0#
0$
1:
09
0;
0<
1C
0B
0A
0@
05
06
07
08
0+
0*
0)
0(
#90000
1$
1<
1A
16
1)
#100000
1#
0$
1;
0<
0C
1B
1@
1?
1>
1=
12
13
14
15
17
18
1+
1*
1(
1'
1&
1%
#110000
1$
1<
#120000
1"
0#
0$
19
0;
0<
#130000
1$
1<
#140000
1#
0$
1;
0<
#150000
1$
1<
#160000
0!
0"
0#
0$
0:
09
0;
0<
0B
0A
0@
0?
0>
0=
02
03
04
05
06
07
0*
0)
0(
0'
0&
0%
#170000
1$
1<
1B
1A
1@
1=
12
15
16
17
1*
1)
1(
1%
#180000
1#
0$
1;
0<
1C
0A
0@
1?
0=
02
14
05
06
08
0+
0)
0(
1'
0%
#190000
1$
1<
1A
0?
04
16
1)
0'
#200000
1"
0#
0$
19
0;
0<
0B
1@
1=
12
15
07
0*
1(
1%
#210000
1$
1<
0@
1>
0=
02
13
05
0(
1&
0%
#220000
1#
0$
1;
0<
0A
06
0)
#230000
1$
1<
0C
1B
1A
1@
0>
03
15
16
17
18
1+
1*
1)
1(
0&
#240000
1!
0"
0#
0$
1:
09
0;
0<
1C
0B
0A
0@
05
06
07
08
0+
0*
0)
0(
#250000
1$
1<
1A
16
1)
#260000
1#
0$
1;
0<
0C
1B
1@
1?
1>
1=
12
13
14
15
17
18
1+
1*
1(
1'
1&
1%
#270000
1$
1<
#280000
1"
0#
0$
19
0;
0<
#290000
1$
1<
#300000
1#
0$
1;
0<
#310000
1$
1<
#320000
0!
0"
0#
0$
0:
09
0;
0<
0B
0A
0@
0?
0>
0=
02
03
04
05
06
07
0*
0)
0(
0'
0&
0%
#330000
1$
1<
1B
1A
1@
1=
12
15
16
17
1*
1)
1(
1%
#340000
1#
0$
1;
0<
1C
0A
0@
1?
0=
02
14
05
06
08
0+
0)
0(
1'
0%
#350000
1$
1<
1A
0?
04
16
1)
0'
#360000
1"
0#
0$
19
0;
0<
0B
1@
1=
12
15
07
0*
1(
1%
#370000
1$
1<
0@
1>
0=
02
13
05
0(
1&
0%
#380000
1#
0$
1;
0<
0A
06
0)
#390000
1$
1<
0C
1B
1A
1@
0>
03
15
16
17
18
1+
1*
1)
1(
0&
#400000
1!
0"
0#
0$
1:
09
0;
0<
1C
0B
0A
0@
05
06
07
08
0+
0*
0)
0(
#410000
1$
1<
1A
16
1)
#420000
1#
0$
1;
0<
0C
1B
1@
1?
1>
1=
12
13
14
15
17
18
1+
1*
1(
1'
1&
1%
#430000
1$
1<
#440000
1"
0#
0$
19
0;
0<
#450000
1$
1<
#460000
1#
0$
1;
0<
#470000
1$
1<
#480000
0!
0"
0#
0$
0:
09
0;
0<
0B
0A
0@
0?
0>
0=
02
03
04
05
06
07
0*
0)
0(
0'
0&
0%
#490000
1$
1<
1B
1A
1@
1=
12
15
16
17
1*
1)
1(
1%
#500000
1#
0$
1;
0<
1C
0A
0@
1?
0=
02
14
05
06
08
0+
0)
0(
1'
0%
#510000
1$
1<
1A
0?
04
16
1)
0'
#520000
1"
0#
0$
19
0;
0<
0B
1@
1=
12
15
07
0*
1(
1%
#530000
1$
1<
0@
1>
0=
02
13
05
0(
1&
0%
#540000
1#
0$
1;
0<
0A
06
0)
#550000
1$
1<
0C
1B
1A
1@
0>
03
15
16
17
18
1+
1*
1)
1(
0&
#560000
1!
0"
0#
0$
1:
09
0;
0<
1C
0B
0A
0@
05
06
07
08
0+
0*
0)
0(
#570000
1$
1<
1A
16
1)
#580000
1#
0$
1;
0<
0C
1B
1@
1?
1>
1=
12
13
14
15
17
18
1+
1*
1(
1'
1&
1%
#590000
1$
1<
#600000
1"
0#
0$
19
0;
0<
#610000
1$
1<
#620000
1#
0$
1;
0<
#630000
1$
1<
#640000
0!
0"
0#
0$
0:
09
0;
0<
0B
0A
0@
0?
0>
0=
02
03
04
05
06
07
0*
0)
0(
0'
0&
0%
#650000
1$
1<
1B
1A
1@
1=
12
15
16
17
1*
1)
1(
1%
#660000
1#
0$
1;
0<
1C
0A
0@
1?
0=
02
14
05
06
08
0+
0)
0(
1'
0%
#670000
1$
1<
1A
0?
04
16
1)
0'
#680000
1"
0#
0$
19
0;
0<
0B
1@
1=
12
15
07
0*
1(
1%
#690000
1$
1<
0@
1>
0=
02
13
05
0(
1&
0%
#700000
1#
0$
1;
0<
0A
06
0)
#710000
1$
1<
0C
1B
1A
1@
0>
03
15
16
17
18
1+
1*
1)
1(
0&
#720000
1!
0"
0#
0$
1:
09
0;
0<
1C
0B
0A
0@
05
06
07
08
0+
0*
0)
0(
#730000
1$
1<
1A
16
1)
#740000
1#
0$
1;
0<
0C
1B
1@
1?
1>
1=
12
13
14
15
17
18
1+
1*
1(
1'
1&
1%
#750000
1$
1<
#760000
1"
0#
0$
19
0;
0<
#770000
1$
1<
#780000
1#
0$
1;
0<
#790000
1$
1<
#800000
0!
0"
0#
0$
0:
09
0;
0<
0B
0A
0@
0?
0>
0=
02
03
04
05
06
07
0*
0)
0(
0'
0&
0%
#810000
1$
1<
1B
1A
1@
1=
12
15
16
17
1*
1)
1(
1%
#820000
1#
0$
1;
0<
1C
0A
0@
1?
0=
02
14
05
06
08
0+
0)
0(
1'
0%
#830000
1$
1<
1A
0?
04
16
1)
0'
#840000
1"
0#
0$
19
0;
0<
0B
1@
1=
12
15
07
0*
1(
1%
#850000
1$
1<
0@
1>
0=
02
13
05
0(
1&
0%
#860000
1#
0$
1;
0<
0A
06
0)
#870000
1$
1<
0C
1B
1A
1@
0>
03
15
16
17
18
1+
1*
1)
1(
0&
#880000
1!
0"
0#
0$
1:
09
0;
0<
1C
0B
0A
0@
05
06
07
08
0+
0*
0)
0(
#890000
1$
1<
1A
16
1)
#900000
1#
0$
1;
0<
0C
1B
1@
1?
1>
1=
12
13
14
15
17
18
1+
1*
1(
1'
1&
1%
#910000
1$
1<
#920000
1"
0#
0$
19
0;
0<
#930000
1$
1<
#940000
1#
0$
1;
0<
#950000
1$
1<
#960000
0!
0"
0#
0$
0:
09
0;
0<
0B
0A
0@
0?
0>
0=
02
03
04
05
06
07
0*
0)
0(
0'
0&
0%
#970000
1$
1<
1B
1A
1@
1=
12
15
16
17
1*
1)
1(
1%
#980000
1#
0$
1;
0<
1C
0A
0@
1?
0=
02
14
05
06
08
0+
0)
0(
1'
0%
#990000
1$
1<
1A
0?
04
16
1)
0'
