fpga_projects/project7/simulation/qsim/state_machine.msim.vcd
$comment
	File created using the following command:
		vcd file state_machine.msim.vcd -direction
$end
$date
	Sun Nov 05 22:06:27 2023
$end
$version
	ModelSim Version 10.5b
$end
$timescale
	1ps
$end

$scope module state_machine_vlg_vec_tst $end
$var reg 1 ! clock $end
$var reg 1 " down $end
$var reg 1 # reset $end
$var reg 1 $ up $end
$var wire 1 % outA $end
$var wire 1 & outB $end
$var wire 1 ' outC $end
$var wire 1 ( outD $end
$var wire 1 ) outE $end
$var wire 1 * outF $end
$var wire 1 + outG $end
$var wire 1 , W $end
$var wire 1 - X $end
$var wire 1 . Y $end
$var wire 1 / Z $end

$scope module i1 $end
$var wire 1 0 gnd $end
$var wire 1 1 vcc $end
$var wire 1 2 unknown $end
$var tri1 1 3 devclrn $end
$var tri1 1 4 devpor $end
$var tri1 1 5 devoe $end
$var wire 1 6 outA~output_o $end
$var wire 1 7 outB~output_o $end
$var wire 1 8 outC~output_o $end
$var wire 1 9 outD~output_o $end
$var wire 1 : outE~output_o $end
$var wire 1 ; outF~output_o $end
$var wire 1 < outG~output_o $end
$var wire 1 = W~output_o $end
$var wire 1 > X~output_o $end
$var wire 1 ? Y~output_o $end
$var wire 1 @ Z~output_o $end
$var wire 1 A clock~input_o $end
$var wire 1 B clock~inputclkctrl_outclk $end
$var wire 1 C down~input_o $end
$var wire 1 D up~input_o $end
$var wire 1 E inst1|inst18~1_combout $end
$var wire 1 F inst1|inst18~0_combout $end
$var wire 1 G inst1|inst18~2_combout $end
$var wire 1 H inst1|inst18~3_combout $end
$var wire 1 I reset~input_o $end
$var wire 1 J inst3|inst7~q $end
$var wire 1 K inst3|inst6~1_combout $end
$var wire 1 L inst3|inst6~0_combout $end
$var wire 1 M inst3|inst6~2_combout $end
$var wire 1 N inst3|inst6~q $end
$var wire 1 O inst1|inst11~1_combout $end
$var wire 1 P inst1|inst30~2_combout $end
$var wire 1 Q inst1|inst30~3_combout $end
$var wire 1 R inst3|inst4~q $end
$var wire 1 S inst1|inst11~0_combout $end
$var wire 1 T inst1|inst6~0_combout $end
$var wire 1 U inst1|inst6~1_combout $end
$var wire 1 V inst1|inst6~2_combout $end
$var wire 1 W inst3|inst5~q $end
$var wire 1 X inst5|instA~0_combout $end
$var wire 1 Y inst5|instB~0_combout $end
$var wire 1 Z inst5|instC~combout $end
$var wire 1 [ inst5|instD~0_combout $end
$var wire 1 \ inst5|instE~0_combout $end
$var wire 1 ] inst5|instF~0_combout $end
$var wire 1 ^ inst5|instG~0_combout $end
$var wire 1 _ inst2|inst4~combout $end
$var wire 1 ` inst2|inst5~0_combout $end
$var wire 1 a inst2|inst8~0_combout $end
$var wire 1 b inst2|inst9~combout $end
$upscope $end
$upscope $end
$enddefinitions $end
#0
$dumpvars
0!
0"
0#
1$
0%
0&
0'
1(
1)
1*
1+
0,
1-
1.
1/
00
11
x2
13
14
15
06
07
08
19
1:
1;
1<
0=
1>
1?
1@
0A
0B
0C
1D
0E
0F
0G
0H
0I
0J
0K
0L
0M
0N
1O
1P
1Q
0R
0S
0T
0U
0V
0W
1X
1Y
1Z
0[
0\
0]
0^
0_
1`
1a
1b
$end
#10000
1!
1A
1B
#20000
0!
0A
0B
1R
1^
1]
1[
0Y
0P
1F
0a
0?
17
09
0;
0<
0+
0*
0(
1&
0.
0Q
1H
#30000
1!
1A
1B
#40000
0!
0A
0B
1J
0R
0^
0]
0[
1Y
0X
0O
1G
1P
0F
0`
0>
16
07
19
1;
1<
1+
1*
1(
0&
1%
0-
1Q
#50000
1!
1A
1B
#60000
1#
0!
1I
0A
0B
0J
1X
1O
0G
1a
1`
1>
1?
06
0%
1.
1-
0H
#70000
1!
1A
1B
#80000
0!
0A
0B
#90000
1!
1A
1B
#100000
0!
0A
0B
#110000
1!
1A
1B
#120000
0#
0!
0I
0A
0B
1R
1^
1]
1[
0Y
0P
1F
0a
0?
17
09
0;
0<
0+
0*
0(
1&
0.
0Q
1H
#130000
1!
1A
1B
#140000
0!
0A
0B
1J
0R
0^
0]
0[
1Y
0X
0O
1G
1P
0F
0`
0>
16
07
19
1;
1<
1+
1*
1(
0&
1%
0-
1Q
#150000
1!
1A
1B
#160000
0!
0A
0B
1R
1^
1]
0P
1K
1F
0b
1`
1>
0@
0;
0<
0+
0*
0/
1-
0Q
1M
0H
#170000
1!
1A
1B
#180000
1#
0!
1I
0A
0B
0J
0R
0^
0]
1X
1O
0K
0G
1P
0F
1b
1a
1?
1@
06
1;
1<
1+
1*
0%
1/
1.
1Q
0M
#190000
1!
1A
1B
#200000
0!
0A
0B
#210000
1!
1A
1B
#220000
0!
0A
0B
#230000
1!
1A
1B
#240000
0#
0!
0I
0A
0B
1R
1^
1]
1[
0Y
0P
1F
0a
0?
17
09
0;
0<
0+
0*
0(
1&
0.
0Q
1H
#250000
1!
1A
1B
#260000
0!
0A
0B
1J
0R
0^
0]
0[
1Y
0X
0O
1G
1P
0F
0`
0>
16
07
19
1;
1<
1+
1*
1(
0&
1%
0-
1Q
#270000
1!
1A
1B
#280000
0!
0A
0B
1R
1^
1]
0P
1K
1F
0b
1`
1>
0@
0;
0<
0+
0*
0/
1-
0Q
1M
0H
#290000
1!
1A
1B
#300000
1#
0!
1I
0A
0B
0J
0R
0^
0]
1X
1O
0K
0G
1P
0F
1b
1a
1?
1@
06
1;
1<
1+
1*
0%
1/
1.
1Q
0M
#310000
1!
1A
1B
#320000
0!
0A
0B
#330000
1!
1A
1B
#340000
0!
0A
0B
#350000
1!
1A
1B
#360000
0#
0!
0I
0A
0B
1R
1^
1]
1[
0Y
0P
1F
0a
0?
17
09
0;
0<
0+
0*
0(
1&
0.
0Q
1H
#370000
1!
1A
1B
#380000
0!
0A
0B
1J
0R
0^
0]
0[
1Y
0X
0O
1G
1P
0F
0`
0>
16
07
19
1;
1<
1+
1*
1(
0&
1%
0-
1Q
#390000
1!
1A
1B
#400000
0!
0A
0B
1R
1^
1]
0P
1K
1F
0b
1`
1>
0@
0;
0<
0+
0*
0/
1-
0Q
1M
0H
#410000
1!
1A
1B
#420000
1#
0!
1I
0A
0B
0J
0R
0^
0]
1X
1O
0K
0G
1P
0F
1b
1a
1?
1@
06
1;
1<
1+
1*
0%
1/
1.
1Q
0M
#430000
1!
1A
1B
#440000
0!
0A
0B
#450000
1!
1A
1B
#460000
0!
0A
0B
#470000
1!
1A
1B
#480000
0#
0!
0I
0A
0B
1R
1^
1]
1[
0Y
0P
1F
0a
0?
17
09
0;
0<
0+
0*
0(
1&
0.
0Q
1H
#490000
1!
1A
1B
#500000
0!
0A
0B
1J
0R
0^
0]
0[
1Y
0X
0O
1G
1P
0F
0`
0>
16
07
19
1;
1<
1+
1*
1(
0&
1%
0-
1Q
#510000
1!
1A
1B
#520000
0!
0A
0B
1R
1^
1]
0P
1K
1F
0b
1`
1>
0@
0;
0<
0+
0*
0/
1-
0Q
1M
0H
#530000
1!
1A
1B
#540000
1#
0!
1I
0A
0B
0J
0R
0^
0]
1X
1O
0K
0G
1P
0F
1b
1a
1?
1@
06
1;
1<
1+
1*
0%
1/
1.
1Q
0M
#550000
1!
1A
1B
#560000
0!
0A
0B
#570000
1!
1A
1B
#580000
0!
0A
0B
#590000
1!
1A
1B
#600000
0#
0!
0I
0A
0B
1R
1^
1]
1[
0Y
0P
1F
0a
0?
17
09
0;
0<
0+
0*
0(
1&
0.
0Q
1H
#610000
1!
1A
1B
#620000
0!
0A
0B
1J
0R
0^
0]
0[
1Y
0X
0O
1G
1P
0F
0`
0>
16
07
19
1;
1<
1+
1*
1(
0&
1%
0-
1Q
#630000
1!
1A
1B
#640000
0!
0A
0B
1R
1^
1]
0P
1K
1F
0b
1`
1>
0@
0;
0<
0+
0*
0/
1-
0Q
1M
0H
#650000
1!
1A
1B
#660000
1#
0!
1I
0A
0B
0J
0R
0^
0]
1X
1O
0K
0G
1P
0F
1b
1a
1?
1@
06
1;
1<
1+
1*
0%
1/
1.
1Q
0M
#670000
1!
1A
1B
#680000
0!
0A
0B
#690000
1!
1A
1B
#700000
0!
0A
0B
#710000
1!
1A
1B
#720000
0#
0!
0I
0A
0B
1R
1^
1]
1[
0Y
0P
1F
0a
0?
17
09
0;
0<
0+
0*
0(
1&
0.
0Q
1H
#730000
1!
1A
1B
#740000
0!
0A
0B
1J
0R
0^
0]
0[
1Y
0X
0O
1G
1P
0F
0`
0>
16
07
19
1;
1<
1+
1*
1(
0&
1%
0-
1Q
#750000
1!
1A
1B
#760000
0!
0A
0B
1R
1^
1]
0P
1K
1F
0b
1`
1>
0@
0;
0<
0+
0*
0/
1-
0Q
1M
0H
#770000
1!
1A
1B
#780000
1#
0!
1I
0A
0B
0J
0R
0^
0]
1X
1O
0K
0G
1P
0F
1b
1a
1?
1@
06
1;
1<
1+
1*
0%
1/
1.
1Q
0M
#790000
1!
1A
1B
#800000
0!
0A
0B
#810000
1!
1A
1B
#820000
0!
0A
0B
#830000
1!
1A
1B
#840000
0#
0!
0I
0A
0B
1R
1^
1]
1[
0Y
0P
1F
0a
0?
17
09
0;
0<
0+
0*
0(
1&
0.
0Q
1H
#850000
1!
1A
1B
#860000
0!
0A
0B
1J
0R
0^
0]
0[
1Y
0X
0O
1G
1P
0F
0`
0>
16
07
19
1;
1<
1+
1*
1(
0&
1%
0-
1Q
#870000
1!
1A
1B
#880000
0!
0A
0B
1R
1^
1]
0P
1K
1F
0b
1`
1>
0@
0;
0<
0+
0*
0/
1-
0Q
1M
0H
#890000
1!
1A
1B
#900000
1#
0!
1I
0A
0B
0J
0R
0^
0]
1X
1O
0K
0G
1P
0F
1b
1a
1?
1@
06
1;
1<
1+
1*
0%
1/
1.
1Q
0M
#910000
1!
1A
1B
#920000
0!
0A
0B
#930000
1!
1A
1B
#940000
0!
0A
0B
#950000
1!
1A
1B
#960000
0#
0!
0I
0A
0B
1R
1^
1]
1[
0Y
0P
1F
0a
0?
17
09
0;
0<
0+
0*
0(
1&
0.
0Q
1H
#970000
1!
1A
1B
#980000
0!
0A
0B
1J
0R
0^
0]
0[
1Y
0X
0O
1G
1P
0F
0`
0>
16
07
19
1;
1<
1+
1*
1(
0&
1%
0-
1Q
#990000
1!
1A
1B
