fpga_projects/project8/async_counter/simulation/qsim/main.msim.vcd
$comment
	File created using the following command:
		vcd file main.msim.vcd -direction
$end
$date
	Wed Nov 15 14:42:08 2023
$end
$version
	ModelSim Version 10.5b
$end
$timescale
	1ps
$end

$scope module main_vlg_vec_tst $end
$var reg 1 ! clock $end
$var reg 1 " reset $end
$var wire 1 # Q [2] $end
$var wire 1 $ Q [1] $end
$var wire 1 % Q [0] $end
$var wire 1 & a $end
$var wire 1 ' b $end
$var wire 1 ( c $end
$var wire 1 ) d $end
$var wire 1 * e $end
$var wire 1 + f $end
$var wire 1 , g $end

$scope module i1 $end
$var wire 1 - gnd $end
$var wire 1 . vcc $end
$var wire 1 / unknown $end
$var tri1 1 0 devclrn $end
$var tri1 1 1 devpor $end
$var tri1 1 2 devoe $end
$var wire 1 3 Q[0]~output_o $end
$var wire 1 4 Q[1]~output_o $end
$var wire 1 5 Q[2]~output_o $end
$var wire 1 6 a~output_o $end
$var wire 1 7 b~output_o $end
$var wire 1 8 c~output_o $end
$var wire 1 9 d~output_o $end
$var wire 1 : e~output_o $end
$var wire 1 ; f~output_o $end
$var wire 1 < g~output_o $end
$var wire 1 = clock~input_o $end
$var wire 1 > counter|Q[0]~1_combout $end
$var wire 1 ? reset~input_o $end
$var wire 1 @ decoder|WideOr1~1_combout $end
$var wire 1 A counter|Q[2]~0_combout $end
$var wire 1 B decoder|WideOr0~0_combout $end
$var wire 1 C decoder|WideOr1~0_combout $end
$var wire 1 D decoder|Decoder0~0_combout $end
$var wire 1 E decoder|WideOr3~0_combout $end
$var wire 1 F decoder|WideOr4~0_combout $end
$var wire 1 G decoder|WideOr5~0_combout $end
$var wire 1 H decoder|WideOr6~0_combout $end
$var wire 1 I counter|Q [2] $end
$var wire 1 J counter|Q [1] $end
$var wire 1 K counter|Q [0] $end
$upscope $end
$upscope $end
$enddefinitions $end
#0
$dumpvars
0!
0"
0%
0$
0#
0&
0'
0(
0)
0*
0+
1,
0-
1.
x/
10
11
12
03
04
05
06
07
08
09
0:
0;
1<
0=
1>
0?
0@
0A
0B
0C
0D
0E
0F
0G
1H
0K
0J
0I
$end
#10000
1!
1=
#20000
0!
0=
1K
13
1%
1G
1F
1E
1B
1@
0>
16
19
1:
1;
1+
1*
1)
1&
#30000
1!
1=
#40000
0!
0=
0K
1J
14
03
0%
1$
0H
0F
0E
1D
0B
1>
06
18
09
0:
0<
0,
0*
0)
1(
0&
#50000
1!
1=
#60000
0!
0=
1K
13
1%
1F
0D
1A
0@
0>
08
1:
1*
0(
#70000
1!
1=
#80000
0!
0=
0K
0J
1I
15
04
03
0%
0$
1#
0G
1E
1B
1>
16
19
0;
0+
1)
1&
#90000
1!
1=
#100000
0!
0=
1K
13
1%
0E
1C
0B
1@
0>
06
17
09
0)
1'
0&
#110000
1!
1=
#120000
0!
0=
0K
1J
14
03
0%
1$
0F
1>
0:
0*
#130000
1!
1=
#140000
1"
0!
1?
0=
0J
0I
05
04
0$
0#
1H
0C
0A
0@
07
1<
1,
0'
#150000
1!
1=
#160000
0!
0=
#170000
1!
1=
#180000
0!
0=
#190000
1!
1=
#200000
0!
0=
#210000
1!
1=
#220000
0!
0=
#230000
1!
1=
#240000
0!
0=
#250000
1!
1=
#260000
0!
0=
#270000
1!
1=
#280000
0"
0!
0?
0=
#290000
1!
1=
#300000
0!
0=
1K
13
1%
1G
1F
1E
1B
1@
0>
16
19
1:
1;
1+
1*
1)
1&
#310000
1!
1=
#320000
0!
0=
0K
1J
14
03
0%
1$
0H
0F
0E
1D
0B
1>
06
18
09
0:
0<
0,
0*
0)
1(
0&
#330000
1!
1=
#340000
0!
0=
1K
13
1%
1F
0D
1A
0@
0>
08
1:
1*
0(
#350000
1!
1=
#360000
0!
0=
0K
0J
1I
15
04
03
0%
0$
1#
0G
1E
1B
1>
16
19
0;
0+
1)
1&
#370000
1!
1=
#380000
0!
0=
1K
13
1%
0E
1C
0B
1@
0>
06
17
09
0)
1'
0&
#390000
1!
1=
#400000
0!
0=
0K
1J
14
03
0%
1$
0F
1>
0:
0*
#410000
1!
1=
#420000
1"
0!
1?
0=
0J
0I
05
04
0$
0#
1H
0C
0A
0@
07
1<
1,
0'
#430000
1!
1=
#440000
0!
0=
#450000
1!
1=
#460000
0!
0=
#470000
1!
1=
#480000
0!
0=
#490000
1!
1=
#500000
0!
0=
#510000
1!
1=
#520000
0!
0=
#530000
1!
1=
#540000
0!
0=
#550000
1!
1=
#560000
0"
0!
0?
0=
#570000
1!
1=
#580000
0!
0=
1K
13
1%
1G
1F
1E
1B
1@
0>
16
19
1:
1;
1+
1*
1)
1&
#590000
1!
1=
#600000
0!
0=
0K
1J
14
03
0%
1$
0H
0F
0E
1D
0B
1>
06
18
09
0:
0<
0,
0*
0)
1(
0&
#610000
1!
1=
#620000
0!
0=
1K
13
1%
1F
0D
1A
0@
0>
08
1:
1*
0(
#630000
1!
1=
#640000
0!
0=
0K
0J
1I
15
04
03
0%
0$
1#
0G
1E
1B
1>
16
19
0;
0+
1)
1&
#650000
1!
1=
#660000
0!
0=
1K
13
1%
0E
1C
0B
1@
0>
06
17
09
0)
1'
0&
#670000
1!
1=
#680000
0!
0=
0K
1J
14
03
0%
1$
0F
1>
0:
0*
#690000
1!
1=
#700000
1"
0!
1?
0=
0J
0I
05
04
0$
0#
1H
0C
0A
0@
07
1<
1,
0'
#710000
1!
1=
#720000
0!
0=
#730000
1!
1=
#740000
0!
0=
#750000
1!
1=
#760000
0!
0=
#770000
1!
1=
#780000
0!
0=
#790000
1!
1=
#800000
0!
0=
#810000
1!
1=
#820000
0!
0=
#830000
1!
1=
#840000
0"
0!
0?
0=
#850000
1!
1=
#860000
0!
0=
1K
13
1%
1G
1F
1E
1B
1@
0>
16
19
1:
1;
1+
1*
1)
1&
#870000
1!
1=
#880000
0!
0=
0K
1J
14
03
0%
1$
0H
0F
0E
1D
0B
1>
06
18
09
0:
0<
0,
0*
0)
1(
0&
#890000
1!
1=
#900000
0!
0=
1K
13
1%
1F
0D
1A
0@
0>
08
1:
1*
0(
#910000
1!
1=
#920000
0!
0=
0K
0J
1I
15
04
03
0%
0$
1#
0G
1E
1B
1>
16
19
0;
0+
1)
1&
#930000
1!
1=
#940000
0!
0=
1K
13
1%
0E
1C
0B
1@
0>
06
17
09
0)
1'
0&
#950000
1!
1=
#960000
0!
0=
0K
1J
14
03
0%
1$
0F
1>
0:
0*
#970000
1!
1=
#980000
1"
0!
1?
0=
0J
0I
05
04
0$
0#
1H
0C
0A
0@
07
1<
1,
0'
#990000
1!
1=
